<svg xmlns="http://www.w3.org/2000/svg" viewBox="0 0 97.8 97.8">
  <defs>
    <style>
      .a {
        fill: #190000;
        opacity: 0.1;
      }

      .b {
        fill: #fff;
      }
    </style>
  </defs>
  <title>learn-how-to-stop-button</title>
  <polygon class="a" points="68.7 96.6 29.2 96.6 1.3 68.7 1.3 29.2 29.2 1.3 68.7 1.3 96.6 29.2 96.6 68.7 68.7 96.6"/>
  <g>
    <g>
      <path class="b" d="M738.4,571.1h-4.6l-6.7-14.9v14.9h-4.6V548.4h4.6l6.7,14.9V548.4h4.6Z" transform="translate(-704.6 -498.1)"/>
      <path class="b" d="M759.4,561.8c0,3-.7,5.4-2.2,7.1a7.3,7.3,0,0,1-6,2.5,7.6,7.6,0,0,1-6-2.5,10.7,10.7,0,0,1-2.2-7V558c0-3.1.7-5.6,2.2-7.3a7.1,7.1,0,0,1,6-2.6,7.6,7.6,0,0,1,6,2.5,11.5,11.5,0,0,1,2.2,7.3Zm-4.6-3.8a9.1,9.1,0,0,0-.9-4.6,2.9,2.9,0,0,0-2.7-1.5,3.1,3.1,0,0,0-2.7,1.4,8.8,8.8,0,0,0-.9,4.4v4.1a8.5,8.5,0,0,0,.9,4.4,3.3,3.3,0,0,0,5.4,0,7.9,7.9,0,0,0,.9-4.3Z" transform="translate(-704.6 -498.1)"/>
      <path class="b" d="M778.8,562.7l2.1-14.3h4.6l-4.1,22.7h-4.6l-2.6-13.4-2.7,13.4h-4.6l-4.1-22.7h4.6l2.2,14.2,2.6-14.2h3.9Z" transform="translate(-704.6 -498.1)"/>
    </g>
    <g>
      <path class="b" d="M725.4,541.9a1.1,1.1,0,0,0-.3-.8l-1-.6a5.3,5.3,0,0,1-2-1.3,2.3,2.3,0,0,1-.6-1.6,2.2,2.2,0,0,1,.8-1.9,3.1,3.1,0,0,1,2.1-.7,3.3,3.3,0,0,1,1.5.3,2.1,2.1,0,0,1,1,1.1,2.3,2.3,0,0,1,.4,1.4h-1.9c0-.4,0-.7-.2-.9a.9.9,0,0,0-.8-.4,1,1,0,0,0-.8.3,1.1,1.1,0,0,0-.3.8,1.1,1.1,0,0,0,.3.7l1.1.6a4.3,4.3,0,0,1,2,1.2,2.8,2.8,0,0,1,.6,1.8,2.6,2.6,0,0,1-.8,1.9,2.8,2.8,0,0,1-2.1.7,2.9,2.9,0,0,1-1.6-.4,2.2,2.2,0,0,1-1.1-1,3.1,3.1,0,0,1-.5-1.7h1.9a1.7,1.7,0,0,0,.3,1.2,1.5,1.5,0,0,0,1,.4C725.1,543,725.4,542.6,725.4,541.9Z" transform="translate(-704.6 -498.1)"/>
      <path class="b" d="M734.8,536.7h-2.2v7.7h-1.9v-7.7h-2.3v-1.6h6.4Z" transform="translate(-704.6 -498.1)"/>
      <path class="b" d="M742.6,540.6a4.4,4.4,0,0,1-.9,2.9,3.3,3.3,0,0,1-2.4,1,3.4,3.4,0,0,1-2.5-1,4.4,4.4,0,0,1-.9-2.9V539a4.4,4.4,0,0,1,.9-2.9,2.8,2.8,0,0,1,2.4-1.1,3,3,0,0,1,2.5,1,4.5,4.5,0,0,1,.9,3Zm-1.9-1.6a3,3,0,0,0-.4-1.8,1.2,1.2,0,0,0-1.1-.7,1.3,1.3,0,0,0-1.1.6,4.2,4.2,0,0,0-.3,1.8v1.7a4.2,4.2,0,0,0,.3,1.8,1.5,1.5,0,0,0,1.2.5,1.2,1.2,0,0,0,1-.5,3,3,0,0,0,.4-1.8Z" transform="translate(-704.6 -498.1)"/>
      <path class="b" d="M746.1,541.1v3.3h-1.9v-9.3h3.2a2.9,2.9,0,0,1,2.2.9,3.1,3.1,0,0,1,.8,2.2,2.9,2.9,0,0,1-.8,2.1,3.4,3.4,0,0,1-2.3.8Zm0-1.6h1.3a1.1,1.1,0,0,0,.8-.3,1.5,1.5,0,0,0,.3-1,1.8,1.8,0,0,0-.3-1.1.9.9,0,0,0-.8-.4h-1.3Z" transform="translate(-704.6 -498.1)"/>
      <path class="b" d="M760.9,536.7h-2.3v7.7h-1.9v-7.7h-2.2v-1.6h6.4Z" transform="translate(-704.6 -498.1)"/>
      <path class="b" d="M768.8,544.4h-1.9v-4h-2.8v4h-1.8v-9.3h1.8v3.8h2.8v-3.8h1.9Z" transform="translate(-704.6 -498.1)"/>
      <path class="b" d="M775.4,540.4h-2.9v2.4h3.4v1.6h-5.3v-9.3h5.3v1.6h-3.4v2.2h2.9Z" transform="translate(-704.6 -498.1)"/>
      <path class="b" d="M779.7,535.1l1.8,6.7,1.7-6.7h2.4v9.3h-1.8V538l-1.8,6.4h-1.3L779,538l.2,3.9v2.5h-1.9v-9.3Z" transform="translate(-704.6 -498.1)"/>
    </g>
    <g>
      <path class="b" d="M725.3,530.1h2.5v1.2h-4v-7.1h1.5Z" transform="translate(-704.6 -498.1)"/>
      <path class="b" d="M732.3,528.2h-2.2v1.9h2.6v1.2h-4.1v-7.1h4.1v1.2h-2.6V527h2.2Z" transform="translate(-704.6 -498.1)"/>
      <path class="b" d="M736.9,529.8H735l-.4,1.5h-1.5l2.2-7.1h1.3l2.2,7.1h-1.5Zm-1.6-1.2h1.3l-.7-2.5Z" transform="translate(-704.6 -498.1)"/>
      <path class="b" d="M741.7,528.7h-.8v2.6h-1.4v-7.1h2.3a2.9,2.9,0,0,1,1.7.5,2.1,2.1,0,0,1,.6,1.6,2.1,2.1,0,0,1-1.1,2l1.3,2.9h-1.6Zm-.8-1.2h.9a.7.7,0,0,0,.6-.3c.2-.2.2-.4.2-.8s-.3-1-.8-1h-.9Z" transform="translate(-704.6 -498.1)"/>
      <path class="b" d="M750,531.3h-1.4l-2.1-4.7v4.7H745v-7.1h1.5l2.1,4.6v-4.6H750Z" transform="translate(-704.6 -498.1)"/>
      <path class="b" d="M758.5,531.3H757v-3.1h-2.1v3.1h-1.4v-7.1h1.4V527H757v-2.8h1.5Z" transform="translate(-704.6 -498.1)"/>
      <path class="b" d="M764.6,528.4a3.1,3.1,0,0,1-.7,2.2,2.2,2.2,0,0,1-1.8.8,2.4,2.4,0,0,1-1.9-.8,3.1,3.1,0,0,1-.7-2.2v-1.2a3.2,3.2,0,0,1,.7-2.3,2,2,0,0,1,1.9-.8,2.1,2.1,0,0,1,1.8.8,3.2,3.2,0,0,1,.7,2.3Zm-1.4-1.2a3.1,3.1,0,0,0-.3-1.5.9.9,0,0,0-.8-.4,1,1,0,0,0-.9.4,2.6,2.6,0,0,0-.3,1.4v1.3a2.3,2.3,0,0,0,.3,1.3,1.1,1.1,0,0,0,.9.5,1.2,1.2,0,0,0,.8-.4,2.6,2.6,0,0,0,.3-1.4Z" transform="translate(-704.6 -498.1)"/>
      <path class="b" d="M770.3,528.6l.6-4.4h1.5l-1.3,7.1h-1.4l-.9-4.2-.8,4.2h-1.4l-1.3-7.1h1.4l.7,4.4.8-4.4h1.2Z" transform="translate(-704.6 -498.1)"/>
      <path class="b" d="M779.8,525.4H778v5.9h-1.4v-5.9h-1.8v-1.2h5Z" transform="translate(-704.6 -498.1)"/>
      <path class="b" d="M785.4,528.4a3.6,3.6,0,0,1-.6,2.2,2.7,2.7,0,0,1-3.8,0,3.6,3.6,0,0,1-.7-2.2v-1.2a3.2,3.2,0,0,1,.7-2.3,2.1,2.1,0,0,1,1.9-.8,2.2,2.2,0,0,1,1.9.8,3.7,3.7,0,0,1,.6,2.3Zm-1.4-1.2a3.1,3.1,0,0,0-.3-1.5.8.8,0,0,0-.8-.4,1,1,0,0,0-.9.4,4.6,4.6,0,0,0-.2,1.4v1.3a2.4,2.4,0,0,0,.2,1.3,1.1,1.1,0,0,0,.9.5,1,1,0,0,0,.8-.4,2.6,2.6,0,0,0,.3-1.4Z" transform="translate(-704.6 -498.1)"/>
    </g>
  </g>
  <g>
    <polygon class="b" points="96.1 29.4 95.1 28.2 83 33.2 83 35.4 96.1 30 96.1 29.4"/>
    <polygon class="b" points="1.6 66.9 1.6 68.4 2.2 68.9 15.3 63.5 15.3 61.2 1.6 66.9"/>
  </g>
  <path class="b" d="M773.8,595.9l28.6-28.6V526.7l-28.6-28.6H733.2l-28.6,28.6v40.6l28.6,28.6Zm-67.3-68.4L734,500h39l27.5,27.5v39L773,594H734l-27.5-27.5Z" transform="translate(-704.6 -498.1)"/>
</svg>
