<?xml version="1.0" encoding="utf-8"?>
<!-- Generator: Adobe Illustrator 15.1.0, SVG Export Plug-In . SVG Version: 6.00 Build 0)  -->
<!DOCTYPE svg PUBLIC "-//W3C//DTD SVG 1.1//EN" "http://www.w3.org/Graphics/SVG/1.1/DTD/svg11.dtd">
<svg version="1.1" id="Layer_1" xmlns="http://www.w3.org/2000/svg" xmlns:xlink="http://www.w3.org/1999/xlink" x="0px" y="0px"
	 width="120px" height="120px" viewBox="0 0 120 120" enable-background="new 0 0 120 120" xml:space="preserve">
<g>
	
		<rect x="49.049" y="36.246" fill="#FFFFFF" stroke="#231F20" stroke-linejoin="round" stroke-miterlimit="10" width="17.378" height="8.803"/>
	<path fill="#FFFFFF" stroke="#231F20" stroke-linejoin="round" stroke-miterlimit="10" d="M75.804,67.233
		c0,0,0.656,1.097,4.605,0.659c3.946-0.439,4.331-2.121,4.331-2.121S79.92,60.784,75.804,67.233z"/>
	<path fill="#FFFFFF" stroke="#231F20" stroke-linejoin="round" stroke-miterlimit="10" d="M70.587,42.179
		c0,0,3.771-1.996,8.305,5.17C83.425,54.514,83.279,57,83.279,57l1.461,8.771c0,0-5.428-3.309-8.937,1.462
		c0,0-1.64-12.475-3.095-12.925"/>
	<path fill="#FFFFFF" stroke="#231F20" stroke-linejoin="round" stroke-miterlimit="10" d="M77.119,67.233l0.543,2.906
		c0,0-2.626,1.7-1.858,5.756c0.769,4.059,3.562,3.949,3.562,3.949v-2.413c0,0-3.705-5.043,1.591-6.523c0,0,3.783-1.225,4.331,4.77
		l0.878,3.015c0,0,4.157-6.807-2.303-9.925l-0.329-2.521C83.534,66.246,79.531,64.493,77.119,67.233z"/>
	<path fill="#FFFFFF" stroke="#231F20" stroke-linejoin="round" stroke-miterlimit="10" d="M39.285,67.233
		c0,0-0.659,1.097-4.607,0.659c-3.947-0.439-4.331-2.121-4.331-2.121S35.167,60.784,39.285,67.233z"/>
	<path fill="#FFFFFF" stroke="#231F20" stroke-linejoin="round" stroke-miterlimit="10" d="M44.502,42.179
		c0,0-3.774-1.996-8.307,5.17C31.664,54.514,31.808,57,31.808,57l-1.461,8.771c0,0,5.428-3.309,8.938,1.462
		c0,0,1.638-12.475,3.093-12.925"/>
	<path fill="#FFFFFF" stroke="#231F20" stroke-linejoin="round" stroke-miterlimit="10" d="M37.97,67.233l-0.544,2.906
		c0,0,2.626,1.7,1.859,5.756c-0.768,4.059-3.564,3.949-3.564,3.949v-2.413c0,0,3.704-5.043-1.591-6.523c0,0-3.783-1.225-4.331,4.77
		l-0.878,3.015c0,0-4.157-6.807,2.303-9.925l0.329-2.521C31.553,66.246,35.556,64.493,37.97,67.233z"/>
	<path fill="#FFFFFF" stroke="#231F20" stroke-linejoin="round" stroke-miterlimit="10" d="M69.317,33.848
		c0,1.884-1.715,3.412-3.826,3.412H49.748c-2.114,0-3.824-1.528-3.824-3.412V20.932c0-1.885,1.71-3.412,3.824-3.412h15.743
		c2.111,0,3.826,1.527,3.826,3.412V33.848z"/>
	<path fill="#FFFFFF" stroke="#231F20" stroke-linejoin="round" stroke-miterlimit="10" d="M65.368,39.599l-7.659,2.326
		l-7.961-2.326l0,0h-1.315c-2.112,0-3.828,1.527-3.828,3.411l-4.828,24.762c0,1.883,1.712,2.094,3.825,2.094h27.597
		c2.114,0,3.827-0.211,3.827-2.094L70.634,43.01c0-1.884-1.711-3.411-3.825-3.411H65.368L65.368,39.599z"/>
	<path fill="none" stroke="#231F20" stroke-width="0.4462" stroke-linejoin="round" stroke-miterlimit="10" d="M51.332,17.24v-3.156
		c0-0.687,0.555-1.241,1.241-1.241h9.361c0.686,0,1.244,0.555,1.244,1.241v3.156"/>
	
		<rect x="41.398" y="69.684" fill="#EE402F" stroke="#231F20" stroke-linejoin="round" stroke-miterlimit="10" width="32.159" height="4.861"/>
	<polyline fill="#EE402F" stroke="#231F20" stroke-linejoin="round" stroke-miterlimit="10" points="41.398,74.545 41.398,87.521 
		55.278,87.521 55.278,74.545 	"/>
	<polyline fill="#EE402F" stroke="#231F20" stroke-linejoin="round" stroke-miterlimit="10" points="56.597,99.914 56.597,107.37 
		39.776,107.37 39.776,101.377 41.398,99.914 	"/>
	<path fill="#EE402F" stroke="#231F20" stroke-linejoin="round" stroke-miterlimit="10" d="M55.278,87.521
		c0,0,0.44,1.206,1.318,1.644v10.749H41.398V87.521"/>
	
		<line fill="#EE402F" stroke="#231F20" stroke-linejoin="round" stroke-miterlimit="10" x1="39.776" y1="101.377" x2="56.597" y2="101.377"/>
	<polyline fill="#EE402F" stroke="#231F20" stroke-linejoin="round" stroke-miterlimit="10" points="73.536,74.545 73.536,87.521 
		59.654,87.521 59.654,74.545 	"/>
	<polyline fill="#EE402F" stroke="#231F20" stroke-linejoin="round" stroke-miterlimit="10" points="58.339,99.914 58.339,107.37 
		75.16,107.37 75.16,101.377 73.536,99.914 	"/>
	<path fill="#EE402F" stroke="#231F20" stroke-linejoin="round" stroke-miterlimit="10" d="M59.654,87.521
		c0,0-0.438,1.206-1.315,1.644v10.749h15.197V87.521"/>
	
		<line fill="#EE402F" stroke="#231F20" stroke-linejoin="round" stroke-miterlimit="10" x1="75.16" y1="101.377" x2="58.339" y2="101.377"/>
	<path fill="#FFFFFF" stroke="#231F20" stroke-linejoin="round" stroke-miterlimit="10" d="M70.562,17.634
		c-2.262-7.066-12.722-6.077-12.722-6.077s-10.458-0.989-12.717,6.077c-2.262,7.066-1.838,7.301-0.849,7.82
		c0,0,0.988,1.629,0.988,3.265c0,0,1.273,1.304,1.415-3.265c0,0,1.413-1.741,1.695-4.499c0,0-0.143-4.298,4.382-2.68
		c0,0,2.824,1.806,5.085,1.925c2.262-0.119,5.088-1.925,5.088-1.925c4.524-1.618,4.381,2.68,4.381,2.68
		c0.282,2.758,1.696,4.499,1.696,4.499c0.142,4.568,1.415,3.265,1.415,3.265c0-1.636,0.988-3.265,0.988-3.265
		C72.4,24.935,72.823,24.7,70.562,17.634z"/>
</g>
</svg>
