<?xml version="1.0" encoding="utf-8"?>
<!-- Generator: Adobe Illustrator 15.1.0, SVG Export Plug-In . SVG Version: 6.00 Build 0)  -->
<!DOCTYPE svg PUBLIC "-//W3C//DTD SVG 1.1//EN" "http://www.w3.org/Graphics/SVG/1.1/DTD/svg11.dtd">
<svg version="1.1" id="Layer_1" xmlns="http://www.w3.org/2000/svg" xmlns:xlink="http://www.w3.org/1999/xlink" x="0px" y="0px"
	 width="120px" height="120px" viewBox="0 0 120 120" enable-background="new 0 0 120 120" xml:space="preserve">
<g>
	<g>
		<polyline fill-rule="evenodd" clip-rule="evenodd" fill="#FFFFFF" points="14.979,80.095 11.821,83.184 16.859,97.453 
			103.058,97.453 108.454,83.184 105.452,80.095 		"/>
		<polygon fill="#231F20" points="103.819,98.555 16.079,98.555 10.55,82.887 14.209,79.308 15.75,80.883 13.096,83.479 
			17.64,96.353 102.297,96.353 107.177,83.449 104.663,80.861 106.243,79.327 109.731,82.917 		"/>
	</g>
	<path fill="#231F20" d="M69.056,93.123H54.3c-0.886,0-1.613-0.689-1.671-1.56l-0.572-2.629c0-0.923,0.752-1.675,1.675-1.675h15.893
		c0.924,0,1.674,0.752,1.674,1.675l-0.021,0.191l-0.55,2.438C70.667,92.434,69.94,93.123,69.056,93.123z M54.366,91.384H68.99
		l0.021-0.126l0.508-2.257H53.834L54.366,91.384z"/>
	<g>
		<polygon fill-rule="evenodd" clip-rule="evenodd" fill="#FFFFFF" points="108.454,83.184 11.821,83.184 20.451,14.523 
			99.826,14.523 		"/>
		<path fill="#231F20" d="M109.702,84.284H10.573l8.905-70.863h81.318L109.702,84.284z M13.071,82.081h94.135l-8.351-66.457H21.422
			L13.071,82.081z"/>
	</g>
	<g>
		<path fill="none" stroke="#231F20" stroke-miterlimit="10" d="M21.166,79.421l5.983-54.53h66.237l6.742,54.53H21.166z
			 M23.444,77.38"/>
	</g>
	<path fill="#FFFFFF" d="M108.242,83.241H12.033l8.644-68.777h78.922L108.242,83.241z M14.457,81.102h91.362l-8.104-64.498H22.562
		L14.457,81.102z"/>
	
		<rect x="20.218" y="20.957" transform="matrix(0.3647 0.9311 -0.9311 0.3647 36.1189 -9.6051)" fill="#231F20" width="9.762" height="1.42"/>
	
		<rect x="90.208" y="20.667" transform="matrix(-0.4326 0.9016 -0.9016 -0.4326 155.4998 -55.1045)" fill="#231F20" width="9.763" height="1.418"/>
	<path fill="#231F20" d="M106.076,80.646h-91.72l7.988-64.624h75.743L106.076,80.646z M15.603,79.543h89.229l-7.717-62.42H23.318
		L15.603,79.543z"/>
	<polygon fill-rule="evenodd" clip-rule="evenodd" fill="none" points="105.452,80.095 14.979,80.095 22.831,16.573 97.6,16.573 	
		"/>
	<g>
		<defs>
			<path id="SVGID_1_" d="M108.242,78.752H12.033l8.644-64.288h78.922L108.242,78.752z M105.819,76.752"/>
		</defs>
		<clipPath id="SVGID_2_">
			<use xlink:href="#SVGID_1_"  overflow="visible"/>
		</clipPath>
		<g clip-path="url(#SVGID_2_)">
			<g>
				<g>
					<path fill="#9D0B0F" d="M36.587,21.896c-1.07,0.412-2.373,1.748-2.373,1.748c-0.68,0.24-1.474,1.053-1.474,1.053
						c-4.219,4.696-3.834,11.924,0.861,16.143c4.694,4.221,11.923,3.835,16.142-0.86c4.221-4.694,3.836-11.922-0.86-16.143
						C45.42,20.726,40.666,20.324,36.587,21.896z M48.552,38.907c-3.741,4.163-10.148,4.505-14.312,0.765
						c-4.163-3.743-4.504-10.152-0.763-14.314c0,0,0.835-1.469,0.994-1.48c0.158-0.014,1.751-0.677,1.751-0.677
						c3.657-1.961,8.303-1.538,11.566,1.396C51.951,28.337,52.294,34.745,48.552,38.907z"/>
				</g>
				<path fill="#9D0B0F" d="M33.037,24.369c0,0,0.723-0.532,1.024,0.021l-0.357,0.577c0,0,1.455-0.395,0.668-1.413
					C33.584,22.538,33.037,24.369,33.037,24.369z"/>
				<path fill="#9D0B0F" d="M33.478,25.357c0,0,0.53,1.316,1.731,1.66c0,0,0.302-0.078,0.165-0.356c0,0-1.384-0.583-1.697-1.524
					L33.478,25.357z"/>
				<path fill="#9D0B0F" d="M34.405,24.578c0,0,1.989,1.723,2.136,2.939c0,0,0.588,0.268,0.715-0.378c0,0-1.241-1.774-2.651-3.035
					L34.405,24.578z"/>
			</g>
			<g>
				<g>
					<path fill="#660000" d="M46.861,56.056c0.388,0.968,1.62,2.137,1.62,2.137c0.226,0.618,0.976,1.328,0.976,1.328
						c4.321,3.786,10.896,3.351,14.683-0.972c3.786-4.323,3.35-10.897-0.974-14.683c-4.323-3.786-10.897-3.351-14.683,0.974
						C45.689,48.029,45.383,52.359,46.861,56.056z M62.203,44.962c3.834,3.358,4.221,9.186,0.864,13.02
						c-3.357,3.833-9.185,4.221-13.018,0.864c0,0-1.35-0.745-1.363-0.888c-0.011-0.144-0.635-1.589-0.635-1.589
						c-1.828-3.304-1.498-7.537,1.134-10.542C52.543,41.994,58.372,41.607,62.203,44.962z"/>
				</g>
				<path fill="#660000" d="M49.152,59.257c0,0-0.492-0.651,0.008-0.933l0.53,0.317c0,0-0.378-1.32-1.295-0.591
					C47.48,58.781,49.152,59.257,49.152,59.257z"/>
			</g>
			<g>
				<g>
					<path fill="#660000" d="M44.927,37.762c0.186-0.831-0.104-2.187-0.104-2.187c0.132-0.521-0.044-1.345-0.044-1.345
						c-1.165-4.543-5.795-7.283-10.338-6.118c-4.546,1.165-7.283,5.795-6.118,10.338c1.166,4.546,5.794,7.283,10.339,6.118
						C42.013,43.708,44.218,40.933,44.927,37.762z M29.477,38.155c-1.033-4.029,1.394-8.134,5.423-9.167
						c4.03-1.033,8.133,1.395,9.169,5.424c0,0,0.563,1.124,0.507,1.226C44.518,35.741,44.271,37,44.271,37
						c-0.294,3.07-2.469,5.768-5.627,6.578C34.614,44.612,30.511,42.184,29.477,38.155z"/>
				</g>
				<path fill="#660000" d="M44.86,34.548c0,0,0.031,0.666-0.436,0.625l-0.211-0.458c0,0-0.354,1.062,0.6,0.995
					C45.768,35.641,44.86,34.548,44.86,34.548z"/>
			</g>
			<g>
				<g>
					<path fill="#660000" d="M41.559,67.667c0.187-0.831-0.104-2.189-0.104-2.189c0.134-0.521-0.043-1.345-0.043-1.345
						c-1.166-4.543-5.794-7.283-10.339-6.118c-4.543,1.167-7.283,5.796-6.116,10.339c1.164,4.545,5.794,7.283,10.337,6.117
						C38.644,73.611,40.851,70.836,41.559,67.667z M26.108,68.059c-1.033-4.029,1.395-8.132,5.424-9.166
						c4.028-1.034,8.133,1.393,9.167,5.422c0,0,0.565,1.124,0.508,1.227c-0.059,0.103-0.306,1.362-0.306,1.362
						c-0.293,3.07-2.468,5.767-5.626,6.577C31.247,74.515,27.142,72.088,26.108,68.059z"/>
				</g>
				<path fill="#660000" d="M41.493,64.453c0,0,0.03,0.666-0.437,0.625l-0.21-0.46c0,0-0.354,1.063,0.599,0.995
					C42.4,65.545,41.493,64.453,41.493,64.453z"/>
			</g>
			<g>
				<g>
					<path fill="#660000" d="M73.531,29.678c0.209-0.931-0.116-2.451-0.116-2.451c0.146-0.582-0.05-1.505-0.05-1.505
						c-1.305-5.088-6.487-8.153-11.575-6.849c-5.089,1.304-8.155,6.487-6.85,11.575c1.305,5.088,6.487,8.154,11.575,6.848
						C70.268,36.335,72.737,33.228,73.531,29.678z M56.233,30.116c-1.158-4.51,1.56-9.105,6.071-10.261
						c4.511-1.155,9.104,1.561,10.263,6.072c0,0,0.633,1.256,0.567,1.373c-0.063,0.115-0.339,1.525-0.339,1.525
						c-0.328,3.437-2.764,6.458-6.3,7.364C61.984,37.346,57.39,34.628,56.233,30.116z"/>
				</g>
				<path fill="#660000" d="M73.456,26.079c0,0,0.036,0.746-0.487,0.701l-0.235-0.515c0,0-0.397,1.188,0.67,1.115
					C74.473,27.302,73.456,26.079,73.456,26.079z"/>
			</g>
			<g>
				<g>
					<path fill="#660000" d="M40.171,39.161c-0.924-0.152-2.392,0.25-2.392,0.25c-0.576-0.111-1.47,0.132-1.47,0.132
						c-4.904,1.562-7.617,6.801-6.057,11.708c1.56,4.906,6.801,7.617,11.707,6.057c4.903-1.561,7.616-6.801,6.057-11.706
						C46.866,41.984,43.688,39.741,40.171,39.161z M41.563,56.062c-4.351,1.385-8.995-1.021-10.379-5.369
						c-1.384-4.349,1.021-8.997,5.371-10.379c0,0,1.193-0.688,1.31-0.633c0.116,0.057,1.512,0.248,1.512,0.248
						c3.381,0.129,6.473,2.344,7.556,5.755C48.316,50.033,45.912,54.681,41.563,56.062z"/>
				</g>
				<path fill="#660000" d="M36.655,39.434c0,0,0.729-0.075,0.712,0.439l-0.49,0.259c0,0,1.186,0.323,1.053-0.719
					C37.794,38.373,36.655,39.434,36.655,39.434z"/>
				<path fill="#660000" d="M36.556,40.313c0,0-0.17,1.143,0.533,1.88c0,0,0.243,0.07,0.263-0.182c0,0-0.734-0.982-0.563-1.773
					L36.556,40.313z"/>
				<path fill="#660000" d="M37.53,40.146c0,0,0.688,2.033,0.288,2.949c0,0,0.304,0.43,0.659,0.029c0,0-0.141-1.758-0.612-3.229
					L37.53,40.146z"/>
			</g>
			<g>
				<g>
					<path fill="#660000" d="M41.566,70.525c1.095,0.616,3.131,0.783,3.131,0.783c0.679,0.405,1.917,0.507,1.917,0.507
						c6.906,0.284,12.735-5.084,13.02-11.99c0.284-6.908-5.085-12.737-11.991-13.02c-6.907-0.285-12.735,5.083-13.021,11.99
						C34.412,63.89,37.392,68.179,41.566,70.525z M47.57,48.558c6.122,0.25,10.882,5.42,10.631,11.542
						c-0.251,6.125-5.42,10.885-11.543,10.633c0,0-1.825,0.32-1.945,0.196c-0.121-0.124-1.793-1.008-1.793-1.008
						c-4.207-1.717-7.091-5.931-6.894-10.731C36.278,53.067,41.446,48.306,47.57,48.558z"/>
				</g>
				<path fill="#660000" d="M46.13,71.796c0,0-0.955-0.238-0.698-0.88l0.738-0.103c0,0-1.35-0.95-1.659,0.424
					C44.201,72.613,46.13,71.796,46.13,71.796z"/>
				<path fill="#660000" d="M46.658,70.733c0,0,0.737-1.366,0.19-2.618c0,0-0.275-0.201-0.414,0.108c0,0,0.474,1.577-0.104,2.497
					L46.658,70.733z"/>
				<path fill="#660000" d="M45.351,70.496c0,0,0.067-2.882,0.989-3.854c0,0-0.183-0.683-0.817-0.341c0,0-0.63,2.286-0.709,4.355
					L45.351,70.496z"/>
			</g>
			<g>
				<g>
					<path fill="#660000" d="M36.157,79.868c1.096,0.618,3.132,0.781,3.132,0.781c0.678,0.407,1.916,0.509,1.916,0.509
						c6.908,0.284,12.737-5.084,13.02-11.99c0.285-6.906-5.084-12.735-11.99-13.021c-6.908-0.284-12.736,5.087-13.021,11.991
						C29.003,73.233,31.984,77.522,36.157,79.868z M42.162,57.901c6.123,0.252,10.882,5.421,10.63,11.542
						c-0.25,6.126-5.419,10.884-11.542,10.633c0,0-1.825,0.32-1.946,0.197c-0.119-0.126-1.793-1.008-1.793-1.008
						c-4.207-1.716-7.091-5.931-6.893-10.731C30.87,62.41,36.037,57.65,42.162,57.901z"/>
				</g>
				<path fill="#660000" d="M40.721,81.139c0,0-0.953-0.238-0.697-0.88l0.737-0.103c0,0-1.35-0.951-1.658,0.425
					C38.794,81.956,40.721,81.139,40.721,81.139z"/>
				<path fill="#660000" d="M41.25,80.076c0,0,0.738-1.365,0.189-2.618c0,0-0.275-0.2-0.414,0.109c0,0,0.474,1.575-0.103,2.496
					L41.25,80.076z"/>
				<path fill="#660000" d="M39.942,79.84c0,0,0.066-2.883,0.99-3.854c0,0-0.185-0.682-0.817-0.341c0,0-0.632,2.285-0.711,4.357
					L39.942,79.84z"/>
			</g>
			<g>
				<g>
					<path fill="#660000" d="M31.332,70.118c1.096,0.615,3.132,0.781,3.132,0.781c0.679,0.407,1.917,0.509,1.917,0.509
						c6.906,0.284,12.735-5.085,13.018-11.992c0.285-6.907-5.083-12.737-11.99-13.021c-6.906-0.282-12.735,5.085-13.021,11.993
						C24.179,63.48,27.158,67.771,31.332,70.118z M37.336,48.149c6.123,0.252,10.883,5.421,10.632,11.544
						c-0.252,6.124-5.42,10.884-11.544,10.633c0,0-1.824,0.32-1.945,0.195c-0.12-0.125-1.792-1.007-1.792-1.007
						c-4.208-1.717-7.091-5.932-6.895-10.731C26.044,52.66,31.211,47.897,37.336,48.149z"/>
				</g>
				<path fill="#660000" d="M35.896,71.389c0,0-0.954-0.24-0.698-0.88l0.737-0.103c0,0-1.35-0.951-1.656,0.424
					C33.969,72.204,35.896,71.389,35.896,71.389z"/>
				<path fill="#660000" d="M36.424,70.326c0,0,0.738-1.366,0.19-2.619c0,0-0.276-0.201-0.415,0.109c0,0,0.474,1.576-0.103,2.496
					L36.424,70.326z"/>
				<path fill="#660000" d="M35.117,70.088c0,0,0.065-2.883,0.989-3.854c0,0-0.185-0.683-0.817-0.341c0,0-0.632,2.284-0.709,4.356
					L35.117,70.088z"/>
			</g>
			<g>
				<g>
					<path fill="#660000" d="M36.766,50.844c1.096,0.616,3.132,0.781,3.132,0.781c0.678,0.407,1.917,0.508,1.917,0.508
						c6.905,0.284,12.735-5.083,13.02-11.992c0.284-6.906-5.085-12.735-11.993-13.019c-6.906-0.286-12.735,5.085-13.018,11.991
						C29.612,44.207,32.592,48.497,36.766,50.844z M42.77,28.876c6.125,0.252,10.884,5.42,10.632,11.543
						c-0.252,6.124-5.418,10.884-11.544,10.631c0,0-1.822,0.321-1.944,0.198c-0.121-0.126-1.793-1.007-1.793-1.007
						c-4.208-1.716-7.091-5.932-6.894-10.732C31.479,33.385,36.646,28.624,42.77,28.876z"/>
				</g>
				<path fill="#660000" d="M41.328,52.114c0,0-0.952-0.238-0.696-0.879l0.738-0.103c0,0-1.35-0.952-1.659,0.424
					C39.403,52.931,41.328,52.114,41.328,52.114z"/>
				<path fill="#660000" d="M41.857,51.05c0,0,0.74-1.366,0.191-2.618c0,0-0.277-0.2-0.416,0.109c0,0,0.475,1.576-0.103,2.496
					L41.857,51.05z"/>
				<path fill="#660000" d="M40.552,50.813c0,0,0.064-2.881,0.99-3.854c0,0-0.186-0.682-0.818-0.339c0,0-0.631,2.284-0.711,4.355
					L40.552,50.813z"/>
			</g>
			<g>
				<g>
					<path fill="#660000" d="M43.099,47.691c1.095,0.618,3.131,0.783,3.131,0.783c0.679,0.406,1.917,0.508,1.917,0.508
						c6.906,0.283,12.735-5.085,13.02-11.992c0.283-6.908-5.085-12.737-11.992-13.019c-6.906-0.286-12.735,5.085-13.021,11.99
						C35.945,41.056,38.924,45.344,43.099,47.691z M49.103,25.723c6.123,0.254,10.883,5.42,10.632,11.544
						c-0.252,6.123-5.42,10.883-11.544,10.631c0,0-1.824,0.32-1.946,0.197c-0.12-0.126-1.791-1.007-1.791-1.007
						c-4.208-1.716-7.092-5.93-6.896-10.732C37.811,30.232,42.979,25.471,49.103,25.723z"/>
				</g>
				<path fill="#660000" d="M47.661,48.961c0,0-0.952-0.238-0.697-0.879L47.7,47.98c0,0-1.348-0.952-1.656,0.422
					C45.734,49.778,47.661,48.961,47.661,48.961z"/>
				<path fill="#660000" d="M48.19,47.898c0,0,0.737-1.364,0.19-2.618c0,0-0.276-0.201-0.415,0.109c0,0,0.475,1.575-0.102,2.496
					L48.19,47.898z"/>
				<path fill="#660000" d="M46.883,47.662c0,0,0.066-2.881,0.989-3.855c0,0-0.183-0.681-0.817-0.338c0,0-0.63,2.284-0.709,4.355
					L46.883,47.662z"/>
			</g>
			<g>
				<g>
					<path fill="#660000" d="M52.229,45.743c1.095,0.615,3.131,0.781,3.131,0.781c0.679,0.406,1.917,0.508,1.917,0.508
						c6.906,0.284,12.737-5.085,13.02-11.99c0.284-6.908-5.085-12.738-11.991-13.02c-6.907-0.285-12.735,5.083-13.021,11.99
						C45.077,39.107,48.055,43.397,52.229,45.743z M58.233,23.776c6.125,0.25,10.883,5.42,10.633,11.542
						c-0.252,6.125-5.421,10.883-11.545,10.633c0,0-1.824,0.32-1.944,0.195c-0.122-0.125-1.792-1.007-1.792-1.007
						c-4.209-1.716-7.093-5.93-6.896-10.731C46.941,28.285,52.109,23.523,58.233,23.776z"/>
				</g>
				<path fill="#660000" d="M56.793,47.014c0,0-0.953-0.238-0.698-0.88l0.738-0.103c0,0-1.348-0.951-1.658,0.424
					C54.867,47.83,56.793,47.014,56.793,47.014z"/>
				<path fill="#660000" d="M57.321,45.951c0,0,0.739-1.366,0.191-2.618c0,0-0.276-0.202-0.415,0.108c0,0,0.474,1.576-0.103,2.497
					L57.321,45.951z"/>
				<path fill="#660000" d="M56.015,45.713c0,0,0.066-2.883,0.99-3.854c0,0-0.185-0.683-0.819-0.339c0,0-0.63,2.283-0.709,4.355
					L56.015,45.713z"/>
			</g>
			<g>
				<g>
					<path fill="#660000" d="M56.178,73.756c1.096,0.616,3.132,0.782,3.132,0.782c0.678,0.406,1.916,0.508,1.916,0.508
						c6.907,0.285,12.737-5.086,13.021-11.99c0.284-6.908-5.085-12.737-11.993-13.021c-6.906-0.284-12.735,5.085-13.018,11.992
						C49.024,67.119,52.004,71.409,56.178,73.756z M62.183,51.787c6.124,0.252,10.883,5.421,10.631,11.545
						c-0.252,6.124-5.419,10.884-11.544,10.632c0,0-1.823,0.319-1.944,0.195s-1.793-1.006-1.793-1.006
						c-4.208-1.718-7.091-5.93-6.894-10.732C50.891,56.297,56.059,51.538,62.183,51.787z"/>
				</g>
				<path fill="#660000" d="M60.742,75.027c0,0-0.955-0.241-0.698-0.881l0.738-0.103c0,0-1.35-0.95-1.66,0.424
					C58.815,75.842,60.742,75.027,60.742,75.027z"/>
				<path fill="#660000" d="M61.27,73.964c0,0,0.738-1.366,0.191-2.618c0,0-0.277-0.202-0.416,0.109c0,0,0.474,1.576-0.103,2.495
					L61.27,73.964z"/>
				<path fill="#660000" d="M59.963,73.727c0,0,0.065-2.883,0.989-3.854c0,0-0.183-0.685-0.817-0.339c0,0-0.63,2.282-0.709,4.354
					L59.963,73.727z"/>
			</g>
			<g>
				<g>
					<path fill="#660000" d="M54.019,43.993c0.388,0.969,1.62,2.14,1.62,2.14c0.226,0.615,0.976,1.328,0.976,1.328
						c4.323,3.784,10.896,3.35,14.683-0.974c3.786-4.325,3.35-10.899-0.974-14.683C66,28.017,59.426,28.455,55.641,32.777
						C52.848,35.965,52.54,40.298,54.019,43.993z M69.361,32.901c3.835,3.356,4.22,9.184,0.863,13.018
						c-3.356,3.833-9.185,4.219-13.018,0.863c0,0-1.348-0.743-1.362-0.887c-0.012-0.144-0.636-1.588-0.636-1.588
						c-1.827-3.305-1.497-7.537,1.135-10.543C59.7,29.932,65.529,29.545,69.361,32.901z"/>
				</g>
				<path fill="#660000" d="M56.311,47.195c0,0-0.493-0.652,0.007-0.934l0.53,0.317c0,0-0.376-1.319-1.293-0.59
					C54.638,46.718,56.311,47.195,56.311,47.195z"/>
			</g>
			<g>
				<g>
					<path fill="#660000" d="M36.497,80.643c0.388,0.97,1.619,2.139,1.619,2.139c0.226,0.618,0.977,1.329,0.977,1.329
						c4.322,3.785,10.896,3.349,14.682-0.973c3.785-4.324,3.351-10.898-0.974-14.685c-4.322-3.784-10.897-3.35-14.682,0.976
						C35.325,72.614,35.018,76.948,36.497,80.643z M51.839,69.551c3.835,3.357,4.22,9.185,0.864,13.018
						c-3.357,3.834-9.185,4.222-13.018,0.864c0,0-1.349-0.744-1.363-0.888c-0.012-0.145-0.636-1.586-0.636-1.586
						c-1.827-3.307-1.497-7.538,1.135-10.544C42.178,66.582,48.007,66.195,51.839,69.551z"/>
				</g>
				<path fill="#660000" d="M38.788,83.846c0,0-0.493-0.654,0.008-0.936l0.531,0.319c0,0-0.378-1.319-1.295-0.591
					S38.788,83.846,38.788,83.846z"/>
			</g>
			<g>
				<g>
					<path fill="#660000" d="M66.262,64c-1.133-0.187-2.931,0.308-2.931,0.308c-0.71-0.138-1.804,0.162-1.804,0.162
						c-6.018,1.913-9.343,8.34-7.431,14.355c1.915,6.017,8.342,9.344,14.359,7.429c6.016-1.912,9.342-8.34,7.427-14.355
						C74.473,67.463,70.576,64.709,66.262,64z M67.97,84.729c-5.334,1.693-11.033-1.255-12.729-6.588
						c-1.698-5.335,1.252-11.033,6.585-12.73c0,0,1.466-0.845,1.608-0.775s1.854,0.305,1.854,0.305
						c4.147,0.159,7.938,2.876,9.269,7.058C76.252,77.332,73.304,83.031,67.97,84.729z"/>
				</g>
				<path fill="#660000" d="M61.948,64.335c0,0,0.894-0.093,0.874,0.538l-0.602,0.318c0,0,1.456,0.394,1.291-0.883
					C63.348,63.032,61.948,64.335,61.948,64.335z"/>
			</g>
			<g>
				<g>
					<path fill="#660000" d="M60.158,61.808c-1.454-0.238-3.763,0.396-3.763,0.396c-0.91-0.177-2.316,0.207-2.316,0.207
						c-7.726,2.457-11.997,10.711-9.54,18.435c2.456,7.729,10.711,11.997,18.437,9.54c7.725-2.456,11.996-10.71,9.539-18.436
						C70.702,66.254,65.699,62.72,60.158,61.808z M62.353,88.425c-6.85,2.179-14.167-1.609-16.345-8.458
						c-2.179-6.85,1.606-14.167,8.456-16.347c0,0,1.881-1.084,2.065-0.994c0.183,0.087,2.38,0.391,2.38,0.391
						c5.324,0.203,10.192,3.691,11.9,9.063C72.988,78.928,69.201,86.246,62.353,88.425z"/>
				</g>
				<path fill="#660000" d="M54.621,62.238c0,0,1.146-0.119,1.122,0.689l-0.773,0.409c0,0,1.868,0.507,1.658-1.132
					C56.416,60.566,54.621,62.238,54.621,62.238z"/>
			</g>
			<g>
				<g>
					<path fill="#660000" d="M64.005,66.536c-1.454-0.239-3.763,0.396-3.763,0.396c-0.912-0.178-2.316,0.208-2.316,0.208
						c-7.726,2.455-11.997,10.71-9.54,18.435c2.456,7.726,10.711,11.996,18.436,9.54c7.727-2.457,11.997-10.71,9.54-18.437
						C74.549,70.981,69.545,67.447,64.005,66.536z M66.198,93.154c-6.849,2.177-14.166-1.608-16.346-8.46
						c-2.177-6.848,1.608-14.166,8.458-16.345c0,0,1.881-1.085,2.064-0.995c0.184,0.088,2.38,0.391,2.38,0.391
						c5.324,0.204,10.191,3.692,11.901,9.063C76.833,83.657,73.046,90.975,66.198,93.154z"/>
				</g>
				<path fill="#660000" d="M58.468,66.967c0,0,1.146-0.119,1.12,0.69l-0.771,0.408c0,0,1.868,0.507,1.658-1.132
					C60.264,65.295,58.468,66.967,58.468,66.967z"/>
			</g>
			<g>
				<g>
					<path fill="#660000" d="M48.508,38.256c0.323,0.806,1.345,1.777,1.345,1.777c0.19,0.514,0.812,1.105,0.812,1.105
						c3.593,3.144,9.056,2.781,12.2-0.809c3.147-3.595,2.784-9.058-0.809-12.202c-3.594-3.147-9.056-2.783-12.201,0.809
						C47.535,31.585,47.279,35.186,48.508,38.256z M61.259,29.04c3.186,2.79,3.506,7.631,0.717,10.817
						c-2.789,3.186-7.632,3.507-10.818,0.719c0,0-1.12-0.619-1.133-0.738c-0.01-0.121-0.526-1.32-0.526-1.32
						c-1.521-2.746-1.245-6.263,0.942-8.759C53.229,26.571,58.072,26.251,61.259,29.04z"/>
				</g>
				<path fill="#660000" d="M50.412,40.917c0,0-0.409-0.543,0.006-0.776l0.442,0.265c0,0-0.314-1.096-1.077-0.49
					C49.023,40.521,50.412,40.917,50.412,40.917z"/>
			</g>
			<g>
				<g>
					<path fill="#9D0B0F" d="M46.479,35.002c-1.341-0.221-3.472,0.363-3.472,0.363c-0.839-0.162-2.136,0.192-2.136,0.192
						c-7.125,2.266-11.064,9.879-8.799,17.003c2.267,7.127,9.88,11.065,17.005,8.798c7.125-2.264,11.063-9.877,8.799-17.002
						C56.204,39.103,51.589,35.843,46.479,35.002z M48.502,59.552c-6.317,2.007-13.066-1.485-15.074-7.801
						c-2.01-6.318,1.481-13.066,7.798-15.076c0,0,1.736-1,1.906-0.918c0.169,0.082,2.194,0.36,2.194,0.36
						c4.91,0.19,9.399,3.406,10.977,8.36C58.311,50.794,54.818,57.542,48.502,59.552z"/>
				</g>
				<path fill="#9D0B0F" d="M41.371,35.4c0,0,1.058-0.111,1.035,0.636l-0.714,0.376c0,0,1.724,0.468,1.529-1.044
					C43.026,33.857,41.371,35.4,41.371,35.4z"/>
				<path fill="#9D0B0F" d="M41.226,36.675c0,0-0.243,1.662,0.776,2.733c0,0,0.354,0.101,0.382-0.265c0,0-1.066-1.428-0.82-2.575
					L41.226,36.675z"/>
				<path fill="#9D0B0F" d="M42.643,36.434c0,0,0.999,2.953,0.42,4.283c0,0,0.44,0.625,0.956,0.042c0,0-0.202-2.555-0.89-4.689
					L42.643,36.434z"/>
			</g>
			<g>
				<g>
					<path fill="#9D0B0F" d="M67.042,50.59c-1.16-0.191-3.001,0.316-3.001,0.316c-0.726-0.141-1.846,0.165-1.846,0.165
						c-6.159,1.958-9.563,8.538-7.605,14.695c1.959,6.159,8.539,9.563,14.697,7.605s9.563-8.537,7.604-14.696
						C75.447,54.133,71.459,51.317,67.042,50.59z M68.791,71.809c-5.46,1.735-11.293-1.283-13.03-6.743
						c-1.737-5.46,1.281-11.293,6.741-13.031c0,0,1.501-0.864,1.646-0.792c0.147,0.069,1.898,0.31,1.898,0.31
						c4.244,0.162,8.125,2.943,9.485,7.225C77.269,64.238,74.25,70.071,68.791,71.809z"/>
				</g>
				<path fill="#9D0B0F" d="M62.627,50.934c0,0,0.914-0.094,0.895,0.55l-0.614,0.326c0,0,1.487,0.404,1.319-0.902
					C64.06,49.601,62.627,50.934,62.627,50.934z"/>
				<path fill="#9D0B0F" d="M62.502,52.035c0,0-0.212,1.437,0.671,2.363c0,0,0.306,0.087,0.33-0.23c0,0-0.922-1.231-0.71-2.225
					L62.502,52.035z"/>
				<path fill="#9D0B0F" d="M63.727,51.826c0,0,0.863,2.553,0.363,3.703c0,0,0.38,0.54,0.825,0.037c0,0-0.174-2.208-0.768-4.053
					L63.727,51.826z"/>
			</g>
			<g>
				<g>
					<path fill="#9D0B0F" d="M57.884,24.013c-1.133-0.186-2.931,0.308-2.931,0.308c-0.709-0.137-1.804,0.162-1.804,0.162
						c-6.016,1.913-9.342,8.341-7.43,14.356c1.914,6.017,8.343,9.343,14.358,7.43c6.016-1.913,9.342-8.342,7.429-14.357
						C66.096,27.474,62.199,24.723,57.884,24.013z M59.594,44.74c-5.336,1.697-11.034-1.253-12.73-6.585
						c-1.696-5.335,1.253-11.034,6.586-12.731c0,0,1.465-0.844,1.609-0.774c0.141,0.069,1.854,0.303,1.854,0.303
						c4.146,0.159,7.937,2.875,9.267,7.058C67.874,37.345,64.927,43.043,59.594,44.74z"/>
				</g>
				<path fill="#9D0B0F" d="M53.572,24.348c0,0,0.894-0.093,0.874,0.538l-0.603,0.319c0,0,1.456,0.395,1.291-0.883
					C54.97,23.046,53.572,24.348,53.572,24.348z"/>
				<path fill="#9D0B0F" d="M53.449,25.424c0,0-0.205,1.403,0.655,2.308c0,0,0.299,0.086,0.322-0.223c0,0-0.9-1.205-0.692-2.175
					L53.449,25.424z"/>
				<path fill="#9D0B0F" d="M54.646,25.221c0,0,0.844,2.493,0.354,3.617c0,0,0.371,0.527,0.807,0.036c0,0-0.172-2.157-0.751-3.958
					L54.646,25.221z"/>
			</g>
			<g>
				<g>
					<path fill="#9D0B0F" d="M40.146,41.479c-1.342-0.222-3.473,0.363-3.473,0.363c-0.839-0.164-2.136,0.191-2.136,0.191
						c-7.124,2.267-11.064,9.879-8.797,17.003c2.265,7.126,9.878,11.065,17.003,8.798c7.125-2.265,11.064-9.879,8.799-17.003
						C49.872,45.577,45.257,42.319,40.146,41.479z M42.169,66.026c-6.317,2.007-13.066-1.484-15.074-7.801
						c-2.009-6.316,1.481-13.066,7.8-15.076c0,0,1.735-0.999,1.904-0.918c0.169,0.082,2.195,0.362,2.195,0.362
						c4.911,0.188,9.401,3.404,10.976,8.358C51.978,57.267,48.485,64.017,42.169,66.026z"/>
				</g>
				<path fill="#9D0B0F" d="M35.04,41.875c0,0,1.057-0.109,1.033,0.634l-0.712,0.38c0,0,1.723,0.467,1.529-1.046
					C36.695,40.332,35.04,41.875,35.04,41.875z"/>
				<path fill="#9D0B0F" d="M34.895,43.149c0,0-0.245,1.662,0.774,2.733c0,0,0.354,0.101,0.382-0.265c0,0-1.063-1.428-0.818-2.575
					L34.895,43.149z"/>
				<path fill="#9D0B0F" d="M36.312,42.908c0,0,0.999,2.955,0.42,4.283c0,0,0.438,0.626,0.955,0.042c0,0-0.203-2.554-0.889-4.689
					L36.312,42.908z"/>
			</g>
			<g>
				<g>
					<path fill="#9D0B0F" d="M51.184,50.449c-1.341-0.222-3.471,0.363-3.471,0.363c-0.84-0.162-2.136,0.193-2.136,0.193
						c-7.124,2.265-11.063,9.879-8.798,17.001c2.265,7.127,9.879,11.064,17.003,8.799c7.124-2.265,11.063-9.878,8.798-17.003
						C60.909,54.547,56.294,51.29,51.184,50.449z M53.208,74.997c-6.318,2.009-13.068-1.483-15.076-7.802
						c-2.009-6.316,1.483-13.066,7.801-15.075c0,0,1.734-1.001,1.905-0.919c0.167,0.082,2.193,0.361,2.193,0.361
						c4.912,0.188,9.401,3.405,10.977,8.358C63.015,66.238,59.524,72.988,53.208,74.997z"/>
				</g>
				<path fill="#9D0B0F" d="M46.077,50.845c0,0,1.058-0.11,1.034,0.636l-0.712,0.376c0,0,1.722,0.468,1.528-1.044
					C47.733,49.302,46.077,50.845,46.077,50.845z"/>
				<path fill="#9D0B0F" d="M45.933,52.121c0,0-0.246,1.66,0.774,2.731c0,0,0.356,0.102,0.381-0.266c0,0-1.063-1.425-0.818-2.574
					L45.933,52.121z"/>
				<path fill="#9D0B0F" d="M47.349,51.878c0,0,0.999,2.953,0.42,4.283c0,0,0.438,0.626,0.957,0.042c0,0-0.205-2.554-0.89-4.688
					L47.349,51.878z"/>
			</g>
			<g>
				<g>
					<path fill="#9D0B0F" d="M62.772,45.106c-0.92-0.151-2.381,0.25-2.381,0.25c-0.576-0.112-1.465,0.132-1.465,0.132
						c-4.885,1.554-7.586,6.773-6.032,11.659c1.553,4.887,6.773,7.586,11.659,6.033c4.886-1.553,7.587-6.773,6.032-11.658
						C69.44,47.917,66.275,45.684,62.772,45.106z M64.159,61.938c-4.332,1.377-8.96-1.018-10.336-5.349
						c-1.379-4.33,1.017-8.959,5.348-10.338c0,0,1.19-0.686,1.307-0.628c0.116,0.057,1.504,0.246,1.504,0.246
						c3.369,0.13,6.446,2.335,7.527,5.733C70.886,55.933,68.49,60.562,64.159,61.938z"/>
				</g>
				<path fill="#9D0B0F" d="M59.27,45.379c0,0,0.726-0.076,0.71,0.435l-0.488,0.259c0,0,1.18,0.32,1.049-0.716
					C60.405,44.321,59.27,45.379,59.27,45.379z"/>
				<path fill="#9D0B0F" d="M59.171,46.251c0,0-0.168,1.14,0.53,1.875c0,0,0.244,0.069,0.264-0.182c0,0-0.731-0.978-0.562-1.765
					L59.171,46.251z"/>
				<path fill="#9D0B0F" d="M60.142,46.087c0,0,0.685,2.025,0.288,2.937c0,0,0.303,0.429,0.657,0.029c0,0-0.14-1.751-0.611-3.215
					L60.142,46.087z"/>
			</g>
			<g>
				<g>
					<path fill="#9D0B0F" d="M37.77,20.416c-1.131-0.186-2.931,0.307-2.931,0.307c-0.709-0.137-1.804,0.162-1.804,0.162
						c-6.016,1.913-9.343,8.342-7.429,14.357c1.913,6.016,8.342,9.342,14.357,7.429c6.016-1.914,9.342-8.341,7.429-14.356
						C45.981,23.878,42.085,21.126,37.77,20.416z M39.478,41.143c-5.333,1.697-11.031-1.252-12.729-6.585
						c-1.696-5.334,1.254-11.033,6.587-12.73c0,0,1.466-0.845,1.608-0.775c0.143,0.068,1.852,0.305,1.852,0.305
						c4.147,0.158,7.938,2.875,9.27,7.057C47.762,33.749,44.811,39.448,39.478,41.143z"/>
				</g>
				<path fill="#9D0B0F" d="M33.458,20.75c0,0,0.892-0.091,0.873,0.538l-0.602,0.318c0,0,1.454,0.395,1.291-0.881
					C34.856,19.448,33.458,20.75,33.458,20.75z"/>
			</g>
			<g>
				<g>
					<path fill="#9D0B0F" d="M65.91,42.093c-1.132-0.187-2.932,0.308-2.932,0.308c-0.709-0.139-1.803,0.162-1.803,0.162
						c-6.018,1.913-9.342,8.341-7.431,14.357c1.914,6.016,8.342,9.341,14.359,7.428c6.016-1.914,9.341-8.341,7.427-14.357
						C74.121,45.555,70.225,42.804,65.91,42.093z M67.618,62.821c-5.335,1.696-11.033-1.252-12.729-6.586
						c-1.697-5.334,1.252-11.033,6.585-12.729c0,0,1.466-0.845,1.608-0.777c0.143,0.069,1.854,0.305,1.854,0.305
						c4.146,0.16,7.938,2.876,9.267,7.058C75.899,55.426,72.952,61.126,67.618,62.821z"/>
				</g>
				<path fill="#9D0B0F" d="M61.597,42.429c0,0,0.894-0.094,0.874,0.536l-0.602,0.318c0,0,1.456,0.396,1.291-0.881
					C62.995,41.126,61.597,42.429,61.597,42.429z"/>
			</g>
			<g>
				<g>
					<path fill="#9D0B0F" d="M66.522,40.636c-0.748-0.124-1.937,0.202-1.937,0.202c-0.47-0.09-1.193,0.108-1.193,0.108
						c-3.975,1.264-6.173,5.513-4.91,9.487c1.267,3.976,5.513,6.174,9.488,4.909s6.174-5.513,4.909-9.487
						C71.948,42.924,69.373,41.106,66.522,40.636z M67.649,54.333c-3.523,1.122-7.288-0.829-8.41-4.353s0.828-7.292,4.352-8.412
						c0,0,0.969-0.558,1.064-0.513c0.093,0.047,1.225,0.201,1.225,0.201c2.739,0.106,5.244,1.9,6.122,4.665
						C73.124,49.446,71.174,53.212,67.649,54.333z"/>
				</g>
				<path fill="#9D0B0F" d="M63.672,40.858c0,0,0.59-0.062,0.577,0.354l-0.397,0.21c0,0,0.961,0.261,0.854-0.583
					C64.597,39.996,63.672,40.858,63.672,40.858z"/>
			</g>
			<g>
				<g>
					<path fill="#9D0B0F" d="M30.651,68.833c-0.748-0.123-1.937,0.203-1.937,0.203c-0.468-0.091-1.192,0.108-1.192,0.108
						c-3.976,1.265-6.174,5.511-4.909,9.487c1.265,3.974,5.512,6.172,9.487,4.907c3.976-1.263,6.174-5.512,4.909-9.486
						C36.077,71.12,33.502,69.303,30.651,68.833z M31.779,82.531c-3.524,1.119-7.289-0.829-8.411-4.353
						c-1.12-3.525,0.828-7.292,4.353-8.412c0,0,0.97-0.559,1.063-0.513c0.095,0.046,1.225,0.202,1.225,0.202
						c2.74,0.105,5.244,1.897,6.122,4.663C37.253,77.644,35.305,81.409,31.779,82.531z"/>
				</g>
				<path fill="#9D0B0F" d="M27.801,69.055c0,0,0.59-0.062,0.579,0.354L27.98,69.62c0,0,0.962,0.262,0.854-0.582
					C28.727,68.194,27.801,69.055,27.801,69.055z"/>
			</g>
			<g>
				<g>
					<path fill="#9D0B0F" d="M38.175,69.294c-1.06-0.175-2.744,0.288-2.744,0.288c-0.665-0.127-1.69,0.152-1.69,0.152
						c-5.632,1.791-8.747,7.81-6.956,13.443c1.792,5.632,7.812,8.747,13.444,6.955c5.634-1.791,8.747-7.81,6.956-13.443
						C45.863,72.537,42.215,69.959,38.175,69.294z M39.774,88.703c-4.995,1.589-10.331-1.173-11.918-6.168
						c-1.589-4.993,1.172-10.331,6.167-11.918c0,0,1.371-0.793,1.505-0.728c0.135,0.065,1.736,0.284,1.736,0.284
						c3.883,0.151,7.432,2.694,8.677,6.61C47.53,81.778,44.77,87.114,39.774,88.703z"/>
				</g>
				<path fill="#9D0B0F" d="M34.137,69.607c0,0,0.837-0.086,0.817,0.504l-0.562,0.298c0,0,1.362,0.37,1.208-0.825
					C35.445,68.389,34.137,69.607,34.137,69.607z"/>
			</g>
			<g>
				<g>
					<path fill="#9D0B0F" d="M36.993,25.787c-0.764-0.125-1.977,0.207-1.977,0.207c-0.479-0.092-1.217,0.111-1.217,0.111
						c-4.056,1.29-6.298,5.622-5.009,9.681c1.29,4.056,5.625,6.298,9.682,5.006c4.056-1.29,6.298-5.623,5.009-9.68
						C42.529,28.121,39.901,26.265,36.993,25.787z M38.146,39.764c-3.598,1.143-7.44-0.845-8.584-4.441
						c-1.143-3.598,0.844-7.44,4.442-8.583c0,0,0.986-0.571,1.083-0.524c0.097,0.047,1.249,0.205,1.249,0.205
						c2.797,0.108,5.353,1.939,6.249,4.758C43.729,34.777,41.741,38.619,38.146,39.764z"/>
				</g>
				<path fill="#9D0B0F" d="M34.084,26.014c0,0,0.604-0.063,0.59,0.362l-0.404,0.213c0,0,0.98,0.268,0.87-0.594
					C35.028,25.136,34.084,26.014,34.084,26.014z"/>
			</g>
			<g>
				<g>
					<path fill="#9D0B0F" d="M39.04,29.645c0.287,0.718,1.199,1.585,1.199,1.585c0.168,0.457,0.724,0.983,0.724,0.983
						c3.202,2.804,8.07,2.482,10.875-0.722c2.805-3.201,2.48-8.071-0.722-10.875s-8.071-2.481-10.875,0.722
						C38.173,23.7,37.946,26.906,39.04,29.645z M50.404,21.429c2.84,2.486,3.125,6.801,0.64,9.642
						c-2.487,2.838-6.804,3.126-9.644,0.64c0,0-0.997-0.551-1.008-0.658c-0.009-0.107-0.47-1.176-0.47-1.176
						c-1.355-2.448-1.109-5.582,0.839-7.81C43.248,19.228,47.564,18.944,50.404,21.429z"/>
				</g>
				<path fill="#9D0B0F" d="M40.737,32.016c0,0-0.364-0.483,0.007-0.691l0.392,0.235c0,0-0.279-0.978-0.96-0.437
					C39.499,31.663,40.737,32.016,40.737,32.016z"/>
			</g>
			<g>
				<g>
					<path fill="#C3161C" d="M61.378,73.388c0.296,0.826,1.292,1.842,1.292,1.842c0.172,0.522,0.778,1.141,0.778,1.141
						c3.509,3.301,9.03,3.132,12.33-0.379c3.299-3.509,3.129-9.028-0.381-12.329c-3.509-3.3-9.027-3.129-12.328,0.38
						C60.635,66.629,60.249,70.249,61.378,73.388z M74.561,64.554c3.111,2.926,3.262,7.818,0.336,10.931
						c-2.925,3.112-7.82,3.263-10.932,0.337c0,0-1.107-0.664-1.113-0.784c-0.007-0.12-0.486-1.35-0.486-1.35
						c-1.434-2.822-1.03-6.359,1.264-8.798C66.556,61.778,71.448,61.629,74.561,64.554z"/>
				</g>
				<path fill="#C3161C" d="M63.203,76.14c0,0-0.395-0.561,0.032-0.782l0.437,0.282c0,0-0.277-1.116-1.067-0.533
					C61.815,75.691,63.203,76.14,63.203,76.14z"/>
				<path fill="#C3161C" d="M63.965,75.821c0,0,1.012-0.384,1.294-1.293c0,0-0.053-0.232-0.268-0.133c0,0-0.47,1.048-1.192,1.268
					L63.965,75.821z"/>
				<path fill="#C3161C" d="M63.385,75.1c0,0,1.349-1.488,2.278-1.579c0,0,0.214-0.443-0.274-0.552c0,0-1.375,0.916-2.36,1.97
					L63.385,75.1z"/>
			</g>
			<g>
				<path fill="#C3161C" d="M52.659,22.809c0,0-0.751-0.991-1.845-1.003c0,0-0.238,0.133-0.059,0.336c0,0,1.305,0.176,1.786,0.9
					L52.659,22.809z"/>
				<path fill="#C3161C" d="M53.249,22.121c0,0-2.036-1.082-2.401-2.092c0,0-0.553-0.112-0.535,0.463c0,0,1.407,1.271,2.859,2.071
					L53.249,22.121z"/>
				<g>
					<path fill="#C3161C" d="M54.668,20.277c-0.777,0.639-1.49,2.109-1.49,2.109c-0.499,0.388-0.934,1.283-0.934,1.283
						c-2.211,5.068,0.104,10.972,5.173,13.183c5.068,2.212,10.973-0.104,13.184-5.174c2.213-5.068-0.103-10.972-5.173-13.184
						C61.688,16.864,57.627,17.843,54.668,20.277z M69.924,31.555c-1.963,4.495-7.548,6.294-12.042,4.334
						c-4.495-1.963-6.22-7.215-4.259-11.71c0,0-0.296-1.618-0.169-1.672c0.129-0.054,1.856-0.881,1.856-0.881
						c2.499-2.642,6.147-3.553,9.671-2.014C69.477,21.573,71.883,27.062,69.924,31.555z"/>
				</g>
				<path fill="#C3161C" d="M52.398,23.313c0,0,0.455-0.641,0.859-0.266l0.291,0.691c0,0,1.124-0.733,0.188-1.361
					C52.801,21.747,52.398,23.313,52.398,23.313z"/>
			</g>
			<g>
				<path fill="#C3161C" d="M38.726,51.66c0,0,0.138,0.967,0.884,1.395c0,0,0.215-0.001,0.169-0.21c0,0-0.829-0.619-0.882-1.301
					L38.726,51.66z"/>
				<path fill="#C3161C" d="M38.057,51.907c0,0,0.986,1.522,0.851,2.355c0,0,0.338,0.288,0.544-0.114c0,0-0.48-1.411-1.172-2.514
					L38.057,51.907z"/>
				<g>
					<path fill="#C3161C" d="M36.378,52.632c0.778-0.141,1.83-0.879,1.83-0.879c0.491-0.075,1.132-0.525,1.132-0.525
						c3.456-2.637,4.119-7.577,1.48-11.033c-2.639-3.458-7.578-4.12-11.033-1.481c-3.457,2.638-4.119,7.577-1.482,11.035
						C30.25,52.295,33.416,53.175,36.378,52.632z M30.205,39.057c3.064-2.34,7.589-1.442,9.928,1.624
						c2.34,3.064,1.517,7.33-1.547,9.67c0,0-0.413,1.224-0.522,1.213c-0.109-0.013-1.61-0.103-1.61-0.103
						c-2.727,0.859-5.58,0.091-7.415-2.312C26.698,46.085,27.142,41.395,30.205,39.057z"/>
				</g>
				<path fill="#C3161C" d="M39.097,51.414c0,0-0.557,0.266-0.691-0.145l0.064-0.586c0,0-1.053,0.073-0.651,0.863
					C38.223,52.335,39.097,51.414,39.097,51.414z"/>
			</g>
			<g>
				<path fill="#C3161C" d="M54.539,27.884c0,0-0.751-0.99-1.847-1.004c0,0-0.235,0.133-0.057,0.338c0,0,1.307,0.176,1.785,0.899
					L54.539,27.884z"/>
				<path fill="#C3161C" d="M55.128,27.196c0,0-2.036-1.082-2.399-2.092c0,0-0.554-0.113-0.534,0.461c0,0,1.404,1.273,2.857,2.072
					L55.128,27.196z"/>
				<g>
					<path fill="#C3161C" d="M56.549,25.352c-0.778,0.639-1.49,2.108-1.49,2.108c-0.502,0.389-0.936,1.284-0.936,1.284
						c-2.212,5.068,0.104,10.97,5.174,13.181c5.07,2.213,10.972-0.104,13.185-5.172c2.212-5.07-0.105-10.972-5.176-13.186
						C63.569,21.939,59.505,22.918,56.549,25.352z M71.803,36.63c-1.962,4.495-7.547,6.294-12.042,4.333
						c-4.494-1.961-6.219-7.214-4.258-11.71c0,0-0.296-1.617-0.168-1.671c0.128-0.055,1.855-0.882,1.855-0.882
						c2.499-2.642,6.147-3.551,9.673-2.013C71.356,26.648,73.763,32.137,71.803,36.63z"/>
				</g>
				<path fill="#C3161C" d="M54.278,28.388c0,0,0.454-0.643,0.857-0.267l0.293,0.692c0,0,1.126-0.734,0.189-1.363
					C54.681,26.823,54.278,28.388,54.278,28.388z"/>
			</g>
			<g>
				<path fill="#EE402F" d="M48.858,30.339c0,0,0.139,0.965,0.885,1.394c0,0,0.215,0,0.168-0.209c0,0-0.828-0.619-0.881-1.301
					L48.858,30.339z"/>
				<path fill="#EE402F" d="M48.19,30.587c0,0,0.986,1.522,0.851,2.353c0,0,0.337,0.288,0.545-0.112c0,0-0.481-1.413-1.174-2.516
					L48.19,30.587z"/>
				<g>
					<path fill="#EE402F" d="M46.512,31.311c0.778-0.143,1.828-0.879,1.828-0.879c0.493-0.076,1.134-0.526,1.134-0.526
						c3.454-2.636,4.119-7.577,1.479-11.032c-2.638-3.458-7.579-4.12-11.033-1.48c-3.456,2.637-4.12,7.577-1.48,11.033
						C40.384,30.975,43.551,31.853,46.512,31.311z M40.338,17.735c3.065-2.338,7.59-1.44,9.931,1.624
						c2.338,3.064,1.516,7.332-1.549,9.67c0,0-0.413,1.225-0.523,1.213c-0.108-0.012-1.611-0.103-1.611-0.103
						c-2.725,0.86-5.579,0.091-7.413-2.311C36.832,24.763,37.275,20.075,40.338,17.735z"/>
				</g>
				<path fill="#EE402F" d="M49.229,30.092c0,0-0.557,0.267-0.689-0.146l0.063-0.586c0,0-1.054,0.075-0.651,0.863
					C48.356,31.013,49.229,30.092,49.229,30.092z"/>
			</g>
			<g>
				<path fill="#EE402F" d="M46.789,23.406c0,0-0.751-0.989-1.846-1.003c0,0-0.236,0.133-0.058,0.337c0,0,1.306,0.177,1.787,0.9
					L46.789,23.406z"/>
				<path fill="#EE402F" d="M47.379,22.717c0,0-2.036-1.08-2.399-2.091c0,0-0.555-0.112-0.537,0.462c0,0,1.407,1.273,2.859,2.071
					L47.379,22.717z"/>
				<g>
					<path fill="#EE402F" d="M48.799,20.874c-0.777,0.64-1.489,2.109-1.489,2.109c-0.501,0.388-0.935,1.283-0.935,1.283
						c-2.213,5.068,0.104,10.972,5.173,13.183c5.069,2.214,10.971-0.104,13.184-5.173c2.212-5.068-0.104-10.972-5.174-13.184
						C55.82,17.462,51.756,18.441,48.799,20.874z M64.054,32.152c-1.961,4.495-7.548,6.293-12.043,4.334
						c-4.493-1.963-6.219-7.214-4.258-11.709c0,0-0.295-1.618-0.168-1.672c0.129-0.056,1.856-0.882,1.856-0.882
						c2.499-2.642,6.146-3.552,9.672-2.014C63.607,22.17,66.014,27.658,64.054,32.152z"/>
				</g>
				<path fill="#EE402F" d="M46.528,23.91c0,0,0.454-0.642,0.859-0.266l0.29,0.691c0,0,1.127-0.734,0.191-1.363
					C46.932,22.345,46.528,23.91,46.528,23.91z"/>
			</g>
			<g>
				<path fill="#EE402F" d="M37.699,33.475c0,0,0.139,0.968,0.884,1.396c0,0,0.213-0.001,0.169-0.21c0,0-0.83-0.619-0.884-1.301
					L37.699,33.475z"/>
				<path fill="#EE402F" d="M37.031,33.723c0,0,0.985,1.522,0.849,2.355c0,0,0.338,0.29,0.545-0.114c0,0-0.479-1.41-1.172-2.516
					L37.031,33.723z"/>
				<g>
					<path fill="#EE402F" d="M35.352,34.449c0.778-0.143,1.83-0.881,1.83-0.881c0.49-0.075,1.13-0.523,1.13-0.523
						c3.456-2.639,4.119-7.578,1.482-11.034c-2.638-3.456-7.58-4.118-11.034-1.481c-3.458,2.639-4.12,7.579-1.481,11.035
						C29.225,34.11,32.389,34.99,35.352,34.449z M29.178,20.873c3.063-2.34,7.591-1.441,9.929,1.624
						c2.339,3.064,1.517,7.332-1.547,9.671c0,0-0.414,1.223-0.523,1.212c-0.107-0.011-1.611-0.104-1.611-0.104
						c-2.726,0.861-5.579,0.094-7.413-2.311C25.673,27.902,26.113,23.212,29.178,20.873z"/>
				</g>
				<path fill="#EE402F" d="M38.07,33.228c0,0-0.557,0.269-0.692-0.144l0.063-0.587c0,0-1.053,0.075-0.649,0.864
					S38.07,33.228,38.07,33.228z"/>
			</g>
			<g>
				<path fill="#C3161C" d="M34.823,81.297c0,0,0.134,1.166,1.018,1.708c0,0,0.259,0.005,0.21-0.248c0,0-0.978-0.774-1.018-1.596
					L34.823,81.297z"/>
				<path fill="#C3161C" d="M34.011,81.572c0,0,1.136,1.863,0.943,2.86c0,0,0.396,0.36,0.66-0.117c0,0-0.53-1.715-1.326-3.067
					L34.011,81.572z"/>
				<g>
					<path fill="#C3161C" d="M31.966,82.387c0.94-0.146,2.231-0.997,2.231-0.997c0.593-0.075,1.38-0.593,1.38-0.593
						c4.247-3.06,5.214-8.984,2.152-13.232c-3.059-4.25-8.982-5.213-13.23-2.154c-4.249,3.059-5.214,8.982-2.154,13.231
						C24.601,81.776,28.383,82.939,31.966,82.387z M24.842,66.629c3.768-2.711,9.282-1.994,11.993,1.773
						c2.712,3.766,1.844,9.134-1.924,11.846c0,0-0.751,0.926-0.883,0.907c-0.13-0.017-1.723,0.357-1.723,0.357
						c-3.311,0.943-6.984-0.335-9.112-3.29C20.481,74.457,21.074,69.341,24.842,66.629z"/>
				</g>
				<path fill="#C3161C" d="M35.278,81.012c0,0-0.679,0.302-0.826-0.2l0.098-0.702c0,0-1.271,0.055-0.814,1.017
					C34.194,82.091,35.278,81.012,35.278,81.012z"/>
			</g>
			<g>
				<path fill="#EE402F" d="M39.332,82.551c0,0,0.135,1.166,1.018,1.707c0,0,0.259,0.006,0.21-0.247c0,0-0.977-0.774-1.018-1.595
					L39.332,82.551z"/>
				<path fill="#EE402F" d="M38.52,82.824c0,0,1.136,1.865,0.944,2.862c0,0,0.396,0.36,0.659-0.118c0,0-0.53-1.715-1.327-3.066
					L38.52,82.824z"/>
				<g>
					<path fill="#EE402F" d="M36.475,83.641c0.94-0.146,2.23-0.997,2.23-0.997c0.596-0.076,1.38-0.595,1.38-0.595
						c4.249-3.06,5.214-8.982,2.155-13.231s-8.984-5.212-13.233-2.153c-4.248,3.059-5.212,8.982-2.153,13.23
						C29.108,83.028,32.89,84.193,36.475,83.641z M29.351,67.884c3.767-2.712,9.282-1.994,11.994,1.771
						c2.713,3.767,1.843,9.135-1.925,11.848c0,0-0.751,0.924-0.881,0.907c-0.131-0.02-1.727,0.357-1.727,0.357
						c-3.309,0.943-6.982-0.336-9.108-3.291C24.991,75.71,25.585,70.595,29.351,67.884z"/>
				</g>
				<path fill="#EE402F" d="M39.788,82.265c0,0-0.68,0.303-0.827-0.197l0.096-0.703c0,0-1.271,0.053-0.812,1.017
					C38.705,83.344,39.788,82.265,39.788,82.265z"/>
			</g>
			<g>
				<g>
					<path fill="#EE402F" d="M37.77,23.747c-1.131-0.186-2.931,0.309-2.931,0.309c-0.709-0.139-1.802,0.161-1.802,0.161
						c-6.018,1.913-9.344,8.341-7.431,14.357c1.913,6.016,8.342,9.342,14.357,7.429s9.342-8.342,7.429-14.357
						C45.982,27.208,42.085,24.457,37.77,23.747z M39.478,44.475c-5.333,1.697-11.031-1.252-12.729-6.586
						c-1.696-5.334,1.254-11.032,6.587-12.73c0,0,1.466-0.845,1.608-0.776s1.852,0.305,1.852,0.305
						c4.147,0.16,7.938,2.876,9.27,7.058C47.762,37.079,44.811,42.779,39.478,44.475z"/>
				</g>
				<path fill="#EE402F" d="M33.458,24.082c0,0,0.892-0.094,0.874,0.536l-0.603,0.318c0,0,1.456,0.395,1.291-0.881
					C34.856,22.78,33.458,24.082,33.458,24.082z"/>
				<path fill="#EE402F" d="M33.336,25.158c0,0-0.208,1.405,0.654,2.308c0,0,0.299,0.087,0.322-0.224c0,0-0.899-1.204-0.691-2.173
					L33.336,25.158z"/>
				<path fill="#EE402F" d="M34.533,24.955c0,0,0.842,2.495,0.353,3.617c0,0,0.371,0.526,0.808,0.036c0,0-0.172-2.158-0.751-3.959
					L34.533,24.955z"/>
			</g>
			<g>
				<g>
					<path fill="#EE402F" d="M46.052,80.769c0.308,0.844,1.333,1.88,1.333,1.88c0.177,0.536,0.802,1.168,0.802,1.168
						c3.609,3.366,9.266,3.169,12.634-0.44c3.366-3.611,3.17-9.267-0.441-12.633c-3.611-3.367-9.266-3.171-12.633,0.439
						C45.264,73.845,44.882,77.556,46.052,80.769z M59.524,71.658c3.199,2.987,3.374,8,0.391,11.201
						c-2.986,3.199-8.001,3.376-11.201,0.392c0,0-1.139-0.677-1.144-0.799c-0.009-0.125-0.505-1.381-0.505-1.381
						c-1.48-2.887-1.083-6.511,1.258-9.021C51.309,68.85,56.324,68.675,59.524,71.658z"/>
				</g>
				<path fill="#EE402F" d="M47.933,83.579c0,0-0.404-0.571,0.031-0.8l0.448,0.286c0,0-0.288-1.142-1.096-0.541
					S47.933,83.579,47.933,83.579z"/>
				<path fill="#EE402F" d="M48.714,83.251c0,0,1.036-0.398,1.322-1.332c0,0-0.058-0.237-0.276-0.133c0,0-0.477,1.074-1.217,1.303
					L48.714,83.251z"/>
				<path fill="#EE402F" d="M48.116,82.513c0,0,1.377-1.532,2.329-1.627c0,0,0.217-0.456-0.285-0.564c0,0-1.404,0.943-2.41,2.028
					L48.116,82.513z"/>
			</g>
			<g>
				<g>
					<path fill="#C3161C" d="M41.204,81.684c0.308,0.842,1.332,1.879,1.332,1.879c0.179,0.535,0.803,1.167,0.803,1.167
						c3.609,3.367,9.265,3.17,12.634-0.439c3.366-3.609,3.169-9.266-0.442-12.633c-3.609-3.367-9.265-3.171-12.631,0.44
						C40.416,74.76,40.033,78.471,41.204,81.684z M54.676,72.574c3.201,2.983,3.376,7.998,0.391,11.2
						c-2.986,3.2-7.999,3.375-11.2,0.391c0,0-1.139-0.676-1.145-0.799c-0.008-0.123-0.504-1.38-0.504-1.38
						c-1.48-2.888-1.083-6.512,1.258-9.022C46.462,69.764,51.477,69.589,54.676,72.574z"/>
				</g>
				<path fill="#C3161C" d="M43.085,84.494c0,0-0.404-0.572,0.03-0.801l0.449,0.288c0,0-0.288-1.145-1.096-0.543
					C41.661,84.039,43.085,84.494,43.085,84.494z"/>
				<path fill="#C3161C" d="M43.866,84.165c0,0,1.036-0.397,1.321-1.331c0,0-0.057-0.238-0.275-0.136c0,0-0.477,1.076-1.218,1.307
					L43.866,84.165z"/>
				<path fill="#C3161C" d="M43.268,83.429c0,0,1.377-1.532,2.33-1.629c0,0,0.216-0.454-0.285-0.564c0,0-1.405,0.943-2.41,2.029
					L43.268,83.429z"/>
			</g>
			<g>
				<g>
					<path fill="#C3161C" d="M61.073,51.607c-0.887-0.147-2.293,0.24-2.293,0.24c-0.556-0.107-1.411,0.126-1.411,0.126
						c-4.703,1.496-7.305,6.522-5.809,11.227c1.495,4.704,6.523,7.306,11.228,5.809c4.704-1.496,7.304-6.521,5.809-11.226
						C67.493,54.312,64.447,52.161,61.073,51.607z M62.408,67.814c-4.172,1.327-8.627-0.979-9.954-5.149
						c-1.325-4.171,0.979-8.628,5.15-9.954c0,0,1.146-0.661,1.258-0.607c0.11,0.054,1.448,0.238,1.448,0.238
						c3.243,0.124,6.206,2.247,7.248,5.519C68.884,62.031,66.579,66.486,62.408,67.814z"/>
				</g>
				<path fill="#C3161C" d="M57.7,51.869c0,0,0.698-0.073,0.683,0.418l-0.47,0.249c0,0,1.138,0.309,1.009-0.688
					C58.793,50.849,57.7,51.869,57.7,51.869z"/>
				<path fill="#C3161C" d="M57.604,52.711c0,0-0.161,1.097,0.513,1.803c0,0,0.232,0.068,0.252-0.176c0,0-0.704-0.942-0.542-1.7
					L57.604,52.711z"/>
				<path fill="#C3161C" d="M58.541,52.551c0,0,0.657,1.951,0.275,2.827c0,0,0.291,0.413,0.632,0.028c0,0-0.135-1.687-0.588-3.096
					L58.541,52.551z"/>
			</g>
			<g>
				<g>
					<path fill="#C3161C" d="M65.738,76.895c0.246,0.685,1.073,1.528,1.073,1.528c0.143,0.434,0.647,0.948,0.647,0.948
						c2.911,2.738,7.496,2.598,10.236-0.315c2.739-2.913,2.599-7.497-0.316-10.236c-2.914-2.741-7.496-2.601-10.236,0.314
						C65.123,71.283,64.801,74.286,65.738,76.895z M76.684,69.559c2.584,2.429,2.71,6.492,0.28,9.077
						c-2.43,2.582-6.494,2.707-9.079,0.278c0,0-0.917-0.553-0.922-0.65c-0.007-0.102-0.404-1.121-0.404-1.121
						c-1.19-2.344-0.856-5.28,1.05-7.304C70.038,67.254,74.101,67.128,76.684,69.559z"/>
				</g>
				<path fill="#C3161C" d="M67.254,79.178c0,0-0.327-0.466,0.027-0.648l0.36,0.235c0,0-0.229-0.93-0.886-0.443
					C66.101,78.807,67.254,79.178,67.254,79.178z"/>
				<path fill="#C3161C" d="M67.885,78.914c0,0,0.841-0.318,1.078-1.075c0,0-0.046-0.19-0.225-0.109c0,0-0.389,0.872-0.989,1.055
					L67.885,78.914z"/>
				<path fill="#C3161C" d="M67.406,78.315c0,0,1.119-1.236,1.891-1.312c0,0,0.179-0.367-0.229-0.457c0,0-1.142,0.759-1.96,1.637
					L67.406,78.315z"/>
			</g>
			<g>
				<path fill="#C3161C" d="M30.476,61.928c0,0-1.254-0.659-2.393-0.146c0,0-0.181,0.253,0.103,0.377c0,0,1.436-0.448,2.282,0.068
					L30.476,61.928z"/>
				<path fill="#C3161C" d="M30.754,60.931c0,0-2.629-0.136-3.492-1.003c0,0-0.627,0.149-0.331,0.735c0,0,2.068,0.638,3.956,0.762
					L30.754,60.931z"/>
				<g>
					<path fill="#C3161C" d="M31.33,58.339c-0.494,1.038-0.522,2.9-0.522,2.9c-0.328,0.643-0.345,1.778-0.345,1.778
						c0.161,6.31,5.405,11.297,11.718,11.136c6.31-0.16,11.296-5.407,11.135-11.719c-0.16-6.309-5.407-11.296-11.718-11.137
						C36.943,51.418,33.214,54.394,31.33,58.339z M51.867,61.948c0.141,5.595-4.319,10.602-9.914,10.744s-10.352-4.371-10.495-9.967
						c0,0-0.41-1.377-0.304-1.493c0.106-0.119,0.815-1.961,0.815-1.961c1.31-3.938,5.08-6.728,9.467-6.841
						C47.032,52.287,51.725,56.353,51.867,61.948z"/>
				</g>
				<path fill="#C3161C" d="M30.45,62.573c0,0,0.16-0.883,0.76-0.688l0.636,0.575c0,0,0.809-1.304-0.463-1.502
					C30.111,60.761,30.45,62.573,30.45,62.573z"/>
			</g>
			<g>
				<path fill="#EE402F" d="M34.716,72.423c0,0-0.416,1.356,0.302,2.38c0,0,0.282,0.129,0.352-0.173c0,0-0.709-1.325-0.357-2.254
					L34.716,72.423z"/>
				<path fill="#EE402F" d="M33.685,72.336c0,0,0.357,2.608-0.335,3.618c0,0,0.265,0.589,0.786,0.188c0,0,0.239-2.151,0.011-4.029
					L33.685,72.336z"/>
				<g>
					<path fill="#EE402F" d="M31.031,72.253c1.11,0.292,2.947-0.027,2.947-0.027c0.692,0.203,1.812,0.008,1.812,0.008
						c6.168-1.334,10.089-7.418,8.754-13.587c-1.334-6.171-7.419-10.091-13.589-8.754c-6.169,1.333-10.091,7.416-8.756,13.587
						C23.186,68.029,26.804,71.138,31.031,72.253z M31.294,50.6c5.472-1.183,10.865,2.792,12.049,8.26
						c1.185,5.472-2.531,10.573-8.001,11.758c0,0-1.301,1.354-1.437,1.271c-0.135-0.082-2.054-1.13-2.054-1.13
						c-4.114-0.552-7.392-3.322-8.32-7.612C22.351,57.674,25.825,51.784,31.294,50.6z"/>
				</g>
				<path fill="#EE402F" d="M35.355,72.329c0,0-0.896,0.007-0.818-0.619l0.446-0.731c0,0-1.432-0.552-1.389,0.735
					C33.638,73,35.355,72.329,35.355,72.329z"/>
			</g>
			<g>
				<path fill="#EE402F" d="M69.09,77.123c0,0-0.415,1.354,0.3,2.379c0,0,0.284,0.13,0.352-0.172c0,0-0.708-1.326-0.357-2.255
					L69.09,77.123z"/>
				<path fill="#EE402F" d="M68.057,77.036c0,0,0.357,2.608-0.334,3.618c0,0,0.265,0.587,0.786,0.188c0,0,0.238-2.151,0.011-4.03
					L68.057,77.036z"/>
				<g>
					<path fill="#EE402F" d="M65.403,76.953c1.11,0.292,2.947-0.029,2.947-0.029c0.692,0.205,1.812,0.008,1.812,0.008
						c6.17-1.334,10.091-7.417,8.756-13.587c-1.335-6.169-7.419-10.089-13.59-8.756c-6.17,1.334-10.09,7.418-8.754,13.589
						C57.558,72.728,61.176,75.836,65.403,76.953z M65.667,55.3c5.471-1.183,10.864,2.788,12.049,8.26s-2.531,10.571-8.002,11.755
						c0,0-1.3,1.354-1.436,1.271s-2.056-1.131-2.056-1.131c-4.111-0.551-7.39-3.321-8.317-7.609
						C56.722,62.374,60.197,56.482,65.667,55.3z"/>
				</g>
				<path fill="#EE402F" d="M69.729,77.027c0,0-0.896,0.007-0.818-0.617l0.446-0.731c0,0-1.431-0.553-1.389,0.733
					S69.729,77.027,69.729,77.027z"/>
			</g>
			<g>
				<path fill="#EE402F" d="M71.245,59.312c0,0-0.335,1.099,0.244,1.927c0,0,0.23,0.104,0.285-0.14c0,0-0.573-1.074-0.289-1.824
					L71.245,59.312z"/>
				<path fill="#EE402F" d="M70.412,59.242c0,0,0.288,2.113-0.271,2.931c0,0,0.213,0.476,0.636,0.149c0,0,0.193-1.739,0.01-3.259
					L70.412,59.242z"/>
				<g>
					<path fill="#EE402F" d="M68.262,59.174c0.9,0.24,2.386-0.022,2.386-0.022c0.562,0.165,1.468,0.008,1.468,0.008
						c4.995-1.081,8.17-6.007,7.088-11.001c-1.08-4.997-6.006-8.171-11.001-7.089c-4.996,1.081-8.168,6.006-7.088,11.001
						C61.911,55.755,64.841,58.272,68.262,59.174z M68.476,41.645c4.43-0.958,8.798,2.259,9.754,6.688
						c0.959,4.43-2.049,8.559-6.477,9.517c0,0-1.053,1.097-1.162,1.032c-0.109-0.068-1.664-0.916-1.664-0.916
						c-3.33-0.446-5.984-2.69-6.734-6.163C61.233,47.372,64.048,42.603,68.476,41.645z"/>
				</g>
				<path fill="#EE402F" d="M71.764,59.236c0,0-0.726,0.005-0.662-0.5l0.36-0.591c0,0-1.158-0.448-1.124,0.594
					C70.373,59.779,71.764,59.236,71.764,59.236z"/>
			</g>
			<g>
				<path fill="#EE402F" d="M46.149,66.496c0,0-0.384,1.251,0.276,2.198c0,0,0.261,0.119,0.325-0.16c0,0-0.653-1.225-0.33-2.081
					L46.149,66.496z"/>
				<path fill="#EE402F" d="M45.196,66.416c0,0,0.329,2.408-0.311,3.341c0,0,0.245,0.544,0.726,0.173c0,0,0.222-1.984,0.011-3.721
					L45.196,66.416z"/>
				<g>
					<path fill="#EE402F" d="M42.744,66.34c1.026,0.27,2.724-0.028,2.724-0.028c0.64,0.19,1.672,0.009,1.672,0.009
						c5.697-1.231,9.317-6.85,8.085-12.547c-1.231-5.699-6.852-9.32-12.55-8.085c-5.697,1.231-9.316,6.85-8.085,12.547
						C35.5,62.438,38.841,65.308,42.744,66.34z M42.988,46.342c5.053-1.092,10.034,2.576,11.127,7.629
						c1.093,5.052-2.337,9.763-7.39,10.856c0,0-1.2,1.249-1.326,1.173c-0.126-0.074-1.896-1.043-1.896-1.043
						c-3.799-0.508-6.826-3.066-7.682-7.028C34.727,52.875,37.938,47.436,42.988,46.342z"/>
				</g>
				<path fill="#EE402F" d="M46.739,66.409c0,0-0.828,0.007-0.757-0.571l0.413-0.676c0,0-1.321-0.51-1.283,0.679
					C45.151,67.028,46.739,66.409,46.739,66.409z"/>
			</g>
			<g>
				<path fill="#EE402F" d="M35.371,54.976c0,0,0.137,0.967,0.885,1.394c0,0,0.214,0,0.168-0.208c0,0-0.83-0.621-0.883-1.301
					L35.371,54.976z"/>
				<path fill="#EE402F" d="M34.702,55.224c0,0,0.986,1.522,0.851,2.354c0,0,0.338,0.289,0.545-0.114c0,0-0.48-1.41-1.174-2.514
					L34.702,55.224z"/>
				<g>
					<path fill="#EE402F" d="M33.022,55.949c0.779-0.144,1.829-0.881,1.829-0.881c0.493-0.076,1.133-0.525,1.133-0.525
						c3.455-2.638,4.12-7.579,1.48-11.033c-2.639-3.456-7.578-4.121-11.034-1.482s-4.118,7.58-1.48,11.034
						C26.895,55.611,30.062,56.49,33.022,55.949z M26.85,42.372c3.065-2.338,7.589-1.439,9.93,1.624
						c2.339,3.064,1.516,7.332-1.549,9.671c0,0-0.414,1.225-0.521,1.212c-0.109-0.012-1.612-0.103-1.612-0.103
						c-2.725,0.859-5.58,0.092-7.414-2.31C23.344,49.401,23.786,44.711,26.85,42.372z"/>
				</g>
				<path fill="#EE402F" d="M35.74,54.729c0,0-0.557,0.269-0.689-0.146l0.063-0.586c0,0-1.054,0.073-0.65,0.864
					C34.868,55.65,35.74,54.729,35.74,54.729z"/>
			</g>
			<g>
				<path fill="#C3161C" d="M31.524,78.713c0,0,0.139,0.968,0.887,1.396c0,0,0.213-0.003,0.166-0.211c0,0-0.828-0.619-0.881-1.299
					L31.524,78.713z"/>
				<path fill="#C3161C" d="M30.856,78.961c0,0,0.986,1.522,0.851,2.354c0,0,0.338,0.29,0.546-0.113c0,0-0.482-1.409-1.175-2.514
					L30.856,78.961z"/>
				<g>
					<path fill="#C3161C" d="M29.178,79.688c0.778-0.143,1.828-0.881,1.828-0.881c0.493-0.076,1.134-0.525,1.134-0.525
						c3.454-2.638,4.119-7.578,1.48-11.033c-2.639-3.457-7.578-4.119-11.034-1.482c-3.456,2.64-4.12,7.58-1.481,11.036
						C23.05,79.35,26.216,80.228,29.178,79.688z M23.004,66.109c3.065-2.338,7.59-1.44,9.931,1.624
						c2.338,3.063,1.515,7.331-1.549,9.671c0,0-0.413,1.225-0.523,1.212c-0.108-0.013-1.611-0.103-1.611-0.103
						c-2.725,0.859-5.579,0.092-7.413-2.311C19.498,73.14,19.941,68.449,23.004,66.109z"/>
				</g>
				<path fill="#C3161C" d="M31.896,78.467c0,0-0.557,0.269-0.689-0.146l0.063-0.586c0,0-1.055,0.073-0.651,0.864
					C31.022,79.388,31.896,78.467,31.896,78.467z"/>
			</g>
			<g>
				<path fill="#EE402F" d="M60.998,65.182c0,0-0.416,1.356,0.301,2.38c0,0,0.284,0.129,0.352-0.174c0,0-0.708-1.325-0.357-2.253
					L60.998,65.182z"/>
				<path fill="#EE402F" d="M59.966,65.095c0,0,0.357,2.609-0.335,3.617c0,0,0.265,0.589,0.785,0.188c0,0,0.24-2.15,0.012-4.029
					L59.966,65.095z"/>
				<g>
					<path fill="#EE402F" d="M57.312,65.013c1.11,0.291,2.947-0.03,2.947-0.03c0.692,0.205,1.811,0.01,1.811,0.01
						c6.17-1.334,10.091-7.418,8.756-13.587c-1.334-6.171-7.419-10.091-13.589-8.756c-6.17,1.334-10.091,7.419-8.756,13.588
						C49.467,60.787,53.085,63.896,57.312,65.013z M57.577,43.358c5.47-1.183,10.863,2.792,12.048,8.26
						c1.183,5.472-2.532,10.574-8.002,11.756c0,0-1.301,1.354-1.437,1.271c-0.135-0.082-2.056-1.13-2.056-1.13
						c-4.111-0.552-7.389-3.322-8.316-7.612C48.631,50.432,52.106,44.541,57.577,43.358z"/>
				</g>
				<path fill="#EE402F" d="M61.638,65.087c0,0-0.897,0.008-0.819-0.619l0.445-0.729c0,0-1.431-0.553-1.388,0.732
					C59.92,65.758,61.638,65.087,61.638,65.087z"/>
			</g>
			<g>
				<path fill="#C3161C" d="M67.543,43.146c0,0-0.415,1.357,0.301,2.38c0,0,0.282,0.13,0.351-0.173c0,0-0.708-1.325-0.356-2.252
					L67.543,43.146z"/>
				<path fill="#C3161C" d="M66.511,43.06c0,0,0.357,2.608-0.335,3.618c0,0,0.265,0.589,0.785,0.188c0,0,0.24-2.152,0.01-4.029
					L66.511,43.06z"/>
				<g>
					<path fill="#C3161C" d="M63.857,42.976c1.11,0.294,2.947-0.027,2.947-0.027c0.691,0.204,1.811,0.009,1.811,0.009
						c6.17-1.333,10.091-7.419,8.756-13.588c-1.336-6.171-7.419-10.09-13.589-8.756c-6.17,1.335-10.09,7.419-8.757,13.59
						C56.01,38.752,59.63,41.861,63.857,42.976z M64.12,21.324c5.472-1.185,10.865,2.79,12.049,8.261
						c1.183,5.468-2.531,10.57-8.001,11.754c0,0-1.301,1.354-1.437,1.271c-0.136-0.083-2.056-1.13-2.056-1.13
						c-4.112-0.551-7.39-3.321-8.318-7.613C55.175,28.399,58.65,22.507,64.12,21.324z"/>
				</g>
				<path fill="#C3161C" d="M68.182,43.052c0,0-0.897,0.008-0.817-0.618l0.444-0.731c0,0-1.431-0.553-1.389,0.734
					C66.464,43.724,68.182,43.052,68.182,43.052z"/>
			</g>
			<g>
				<g>
					<path fill="#EE402F" d="M56.105,23.857c-1.023-0.522-2.887-0.597-2.887-0.597c-0.634-0.345-1.768-0.392-1.768-0.392
						c-6.313,0-11.431,5.118-11.431,11.432c0,6.312,5.117,11.429,11.431,11.429c6.312,0,11.43-5.117,11.43-11.429
						C62.881,29.645,60.001,25.842,56.105,23.857z M51.451,44.127c-5.598,0-10.135-4.537-10.135-10.134
						c0-5.596,4.537-10.134,10.135-10.134c0,0,1.651-0.361,1.768-0.252c0.113,0.109,1.674,0.85,1.674,0.85
						c3.903,1.41,6.692,5.147,6.692,9.536C61.585,39.59,57.048,44.127,51.451,44.127z"/>
				</g>
				<path fill="#EE402F" d="M51.895,22.869c0,0,0.877,0.183,0.669,0.777l-0.669,0.122c0,0,1.267,0.816,1.496-0.449
					C53.62,22.053,51.895,22.869,51.895,22.869z"/>
				<path fill="#EE402F" d="M51.451,23.859c0,0-0.623,1.274-0.076,2.398c0,0,0.259,0.171,0.374-0.117c0,0-0.491-1.419,0-2.281
					H51.451z"/>
				<path fill="#EE402F" d="M52.652,24.025c0,0,0.049,2.633-0.758,3.555c0,0,0.194,0.616,0.758,0.28c0,0,0.49-2.108,0.484-4
					L52.652,24.025z"/>
			</g>
			<g>
				<g>
					<path fill="#EE402F" d="M47.067,29.948c-1.133-0.186-2.931,0.308-2.931,0.308c-0.71-0.137-1.804,0.163-1.804,0.163
						c-6.016,1.913-9.344,8.342-7.429,14.356c1.911,6.018,8.341,9.342,14.355,7.43c6.017-1.914,9.344-8.341,7.431-14.357
						C55.278,33.411,51.382,30.659,47.067,29.948z M48.775,50.677c-5.333,1.696-11.033-1.252-12.729-6.586
						c-1.696-5.333,1.253-11.034,6.588-12.73c0,0,1.464-0.845,1.606-0.775c0.144,0.069,1.854,0.305,1.854,0.305
						c4.147,0.159,7.938,2.874,9.268,7.058C57.059,43.282,54.108,48.98,48.775,50.677z"/>
				</g>
				<path fill="#EE402F" d="M42.755,30.285c0,0,0.893-0.094,0.873,0.536l-0.602,0.318c0,0,1.455,0.395,1.291-0.882
					C44.153,28.982,42.755,30.285,42.755,30.285z"/>
				<path fill="#EE402F" d="M42.634,31.361c0,0-0.208,1.403,0.653,2.308c0,0,0.299,0.085,0.321-0.225c0,0-0.898-1.204-0.691-2.175
					L42.634,31.361z"/>
				<path fill="#EE402F" d="M43.829,31.157c0,0,0.843,2.494,0.353,3.616c0,0,0.371,0.527,0.81,0.036c0,0-0.172-2.157-0.751-3.958
					L43.829,31.157z"/>
			</g>
			<g>
				<path fill="#EE402F" d="M33.757,57.771c0,0-0.415,1.29,0.3,2.424c0,0,0.283,0.175,0.352-0.118c0,0-0.708-1.435-0.357-2.308
					L33.757,57.771z"/>
				<path fill="#EE402F" d="M32.724,57.524c0,0,0.357,2.662-0.335,3.565c0,0,0.266,0.629,0.787,0.309c0,0,0.237-2.114,0.009-4.028
					L32.724,57.524z"/>
				<g>
					<path fill="#EE402F" d="M30.069,57.028c1.111,0.464,2.948,0.427,2.948,0.427c0.692,0.314,1.812,0.291,1.812,0.291
						c6.17-0.377,10.09-5.854,8.755-12.23c-1.334-6.377-7.419-11.241-13.589-10.862c-6.17,0.376-10.09,5.855-8.755,12.231
						C22.224,51.586,25.842,55.257,30.069,57.028z M30.333,35.416c5.472-0.334,10.865,4.474,12.048,10.13
						c1.185,5.653-2.529,10.178-8,10.513c0,0-1.3,1.153-1.436,1.049S30.89,55.66,30.89,55.66c-4.112-1.19-7.392-4.468-8.318-8.902
						C21.388,41.104,24.864,35.75,30.333,35.416z"/>
				</g>
				<path fill="#EE402F" d="M34.395,57.772c0,0-0.896-0.13-0.817-0.743l0.446-0.662c0,0-1.433-0.774-1.389,0.52
					C32.678,58.18,34.395,57.772,34.395,57.772z"/>
			</g>
			<g>
				<g>
					<path fill="#FFFFFF" stroke="#231F20" stroke-width="0.15" stroke-miterlimit="10" d="M83.345,45.764
						c0,0,0.562,1.36-1.045,2.928c0,0-0.333,0.061-0.333-0.29c0,0,1.615-1.45,0.967-2.617L83.345,45.764z"/>
					<path fill="#FFFFFF" stroke="#231F20" stroke-width="0.15" stroke-miterlimit="10" d="M75.797,53.535
						c-0.968,5.759,2.918,11.214,8.676,12.184c5.761,0.969,11.216-2.916,12.185-8.676c0.969-5.76-2.916-11.215-8.676-12.184
						C82.222,43.89,76.767,47.774,75.797,53.535z M76.662,53.589c0.677-5.431,6.019-9.038,11.415-8.129
						c5.397,0.909,8.501,5.451,7.592,10.849c-0.91,5.398-6.021,9.039-11.418,8.129C78.854,63.53,76.038,58.574,76.662,53.589z"/>
					<path fill="#FFFFFF" stroke="#231F20" stroke-width="0.15" stroke-miterlimit="10" d="M82.56,45.225
						c0,0-0.872,0.146-0.796,0.715c0.028,0.207,0.438,0.241,0.408,0.294c-0.266,0.472-0.586,0.361-0.838,0.033
						c-0.125-0.161-0.221-0.839,0.411-1.434c0.631-0.596,1.311,0.22,1.311,0.22L82.56,45.225z"/>
					<path fill="#FFFFFF" stroke="#231F20" stroke-width="0.15" stroke-miterlimit="10" d="M81.254,45.412
						c0,0-1.161,0.165-0.767-0.885c0,0-0.13-0.132-0.255-0.043c0,0-0.765,1.164,0.949,1.356L81.254,45.412z"/>
				</g>
				<g>
					<path fill="#FFFFFF" stroke="#231F20" stroke-width="0.15" stroke-miterlimit="10" d="M74.667,31.837
						c0,0,0.934,1.136-0.145,3.105c0,0-0.299,0.157-0.401-0.179c0,0,1.119-1.86,0.158-2.785L74.667,31.837z"/>
					<path fill="#FFFFFF" stroke="#231F20" stroke-width="0.15" stroke-miterlimit="10" d="M69.725,41.477
						c0.762,5.792,6.072,9.869,11.862,9.109c5.792-0.762,9.871-6.073,9.11-11.863c-0.76-5.792-6.072-9.869-11.863-9.109
						C73.042,30.374,68.964,35.686,69.725,41.477z M70.566,41.277c-0.941-5.393,3.108-10.404,8.534-11.117
						c5.429-0.713,9.725,2.723,10.438,8.149c0.712,5.427-3.109,10.404-8.535,11.119C75.575,50.139,71.432,46.226,70.566,41.277z"/>
					<path fill="#FFFFFF" stroke="#231F20" stroke-width="0.15" stroke-miterlimit="10" d="M73.759,31.552
						c0,0-0.793,0.393-0.553,0.917c0.087,0.189,0.487,0.1,0.475,0.161c-0.113,0.529-0.454,0.517-0.791,0.278
						c-0.166-0.119-0.457-0.738-0.026-1.493c0.43-0.752,1.319-0.173,1.319-0.173L73.759,31.552z"/>
					<path fill="#FFFFFF" stroke="#231F20" stroke-width="0.15" stroke-miterlimit="10" d="M72.564,32.113
						c0,0-1.063,0.497-0.992-0.624c0,0-0.165-0.086-0.258,0.035c0,0-0.391,1.337,1.306,1.02L72.564,32.113z"/>
				</g>
				<g>
					<path fill="#FFFFFF" stroke="#231F20" stroke-width="0.15" stroke-miterlimit="10" d="M92.947,59.398
						c0,0-0.047,1.468-2.158,2.237c0,0-0.328-0.082-0.182-0.399c0,0,2.068-0.659,1.956-1.989L92.947,59.398z"/>
					<path fill="#FFFFFF" stroke="#231F20" stroke-width="0.15" stroke-miterlimit="10" d="M82.871,63.371
						c-3.254,4.853-1.958,11.422,2.892,14.675c4.851,3.254,11.42,1.96,14.676-2.89c3.254-4.853,1.958-11.422-2.891-14.676
						C92.695,57.227,86.125,58.52,82.871,63.371z M83.638,63.777c2.854-4.671,9.203-5.759,13.749-2.71s5.501,8.467,2.452,13.013
						c-3.049,4.545-9.205,5.758-13.751,2.708C81.543,73.739,81.017,68.064,83.638,63.777z"/>
					<path fill="#FFFFFF" stroke="#231F20" stroke-width="0.15" stroke-miterlimit="10" d="M92.454,58.584
						c0,0-0.854-0.227-1.02,0.323c-0.06,0.201,0.301,0.4,0.252,0.435c-0.437,0.323-0.683,0.088-0.778-0.313
						c-0.047-0.2,0.145-0.856,0.966-1.139c0.819-0.281,1.104,0.741,1.104,0.741L92.454,58.584z"/>
					<path fill="#FFFFFF" stroke="#231F20" stroke-width="0.15" stroke-miterlimit="10" d="M91.187,58.217
						c0,0-1.125-0.33-0.332-1.122c0,0-0.065-0.176-0.217-0.146c0,0-1.176,0.746,0.308,1.628L91.187,58.217z"/>
				</g>
				<g>
					<path fill="#FFFFFF" stroke="#231F20" stroke-width="0.15" stroke-miterlimit="10" d="M78.348,59.325
						c0,0,1.425,0.366,1.716,2.592c0,0-0.149,0.302-0.43,0.091c0,0-0.193-2.162-1.515-2.342L78.348,59.325z"/>
					<path fill="#FFFFFF" stroke="#231F20" stroke-width="0.15" stroke-miterlimit="10" d="M80.044,70.024
						c4.031,4.226,10.726,4.384,14.953,0.354c4.229-4.031,4.389-10.724,0.356-14.953c-4.029-4.228-10.725-4.387-14.952-0.356
						S76.014,65.795,80.044,70.024z M80.605,69.363c-3.941-3.797-3.628-10.232,0.334-14.01c3.961-3.779,9.458-3.538,13.233,0.423
						c3.777,3.963,3.63,10.236-0.332,14.013C89.879,73.566,84.225,72.852,80.605,69.363z"/>
					<path fill="#FFFFFF" stroke="#231F20" stroke-width="0.15" stroke-miterlimit="10" d="M77.445,59.63
						c0,0-0.407,0.785,0.096,1.065c0.183,0.103,0.454-0.205,0.479-0.151c0.222,0.496-0.062,0.687-0.474,0.692
						c-0.205,0.002-0.806-0.328-0.902-1.188c-0.099-0.861,0.963-0.918,0.963-0.918L77.445,59.63z"/>
					<path fill="#FFFFFF" stroke="#231F20" stroke-width="0.15" stroke-miterlimit="10" d="M76.812,60.788
						c0,0-0.565,1.028-1.168,0.082c0,0-0.184,0.026-0.188,0.18c0,0,0.475,1.309,1.657,0.051L76.812,60.788z"/>
				</g>
				<g>
					<path fill="#FFFFFF" stroke="#231F20" stroke-width="0.15" stroke-miterlimit="10" d="M89.273,22.357
						c0,0-0.776,1.245,0.548,3.061c0,0,0.315,0.114,0.374-0.231c0,0-1.353-1.698-0.519-2.742L89.273,22.357z"/>
					<path fill="#FFFFFF" stroke="#231F20" stroke-width="0.15" stroke-miterlimit="10" d="M84.853,20.695
						c-5.842,0-10.576,4.734-10.576,10.574c0,5.843,4.734,10.577,10.576,10.577c5.841,0,10.575-4.734,10.575-10.577
						C95.428,25.43,90.693,20.695,84.853,20.695z M85.456,40.261c-5.372,0-9.726-4.355-9.726-9.728c0-5.372,3.742-9.266,9.113-9.266
						c5.372,0,9.953,4.362,9.727,9.728C94.361,35.922,90.829,40.261,85.456,40.261z"/>
					<path fill="#FFFFFF" stroke="#231F20" stroke-width="0.15" stroke-miterlimit="10" d="M90.137,21.956
						c0,0,0.837,0.287,0.666,0.837c-0.061,0.199-0.47,0.163-0.45,0.22c0.183,0.512,0.519,0.454,0.821,0.173
						c0.151-0.138,0.357-0.792-0.166-1.482c-0.524-0.691-1.331,0-1.331,0L90.137,21.956z"/>
					<path fill="#FFFFFF" stroke="#231F20" stroke-width="0.15" stroke-miterlimit="10" d="M91.395,22.357
						c0,0,1.119,0.354,0.903-0.748c0,0,0.149-0.108,0.258,0c0,0,0.562,1.274-1.161,1.18V22.357z"/>
				</g>
				<g>
					<path fill="#FFFFFF" stroke="#231F20" stroke-width="0.15" stroke-miterlimit="10" d="M78.538,37.639
						c-0.968,5.761,2.916,11.216,8.676,12.184c5.76,0.97,11.216-2.915,12.185-8.674c0.968-5.76-2.916-11.215-8.676-12.186
						C84.962,27.995,79.507,31.879,78.538,37.639z M79.401,37.694c0.679-5.431,6.019-9.038,11.417-8.129
						c5.397,0.909,8.498,5.451,7.591,10.849s-6.019,9.039-11.417,8.13C81.596,47.635,78.778,42.681,79.401,37.694z"/>
				</g>
			</g>
		</g>
	</g>
</g>
</svg>
