<?xml version="1.0" encoding="utf-8"?>
<!-- Generator: Adobe Illustrator 15.1.0, SVG Export Plug-In . SVG Version: 6.00 Build 0)  -->
<!DOCTYPE svg PUBLIC "-//W3C//DTD SVG 1.1//EN" "http://www.w3.org/Graphics/SVG/1.1/DTD/svg11.dtd">
<svg version="1.1" id="Layer_1" xmlns="http://www.w3.org/2000/svg" xmlns:xlink="http://www.w3.org/1999/xlink" x="0px" y="0px"
	 width="120px" height="120px" viewBox="0 0 120 120" enable-background="new 0 0 120 120" xml:space="preserve">
<g>
	<g>
		<g>
			<path fill="#FFFFFF" d="M53.864,51.112c-0.378,1.325-0.756,2.457-1.323,3.593c8.122,0.94,16.43,0.94,24.739,0
				c-0.379-1.325-0.566-2.46-0.945-3.78c-3.588,0.378-7.363,0.567-11.14,0.567C61.607,51.68,57.83,51.492,53.864,51.112z"/>
			<path d="M64.84,55.964c-4.14,0-8.299-0.238-12.362-0.709l-0.786-0.091l0.353-0.706c0.592-1.186,0.967-2.382,1.285-3.497
				l0.127-0.445l0.459,0.044c4.427,0.425,7.907,0.552,11.25,0.378c3.829-0.001,7.558-0.192,11.11-0.566l0.464-0.049l0.129,0.449
				c0.19,0.669,0.335,1.29,0.478,1.913c0.141,0.606,0.279,1.213,0.467,1.868l0.18,0.63l-0.65,0.074
				C73.188,55.726,68.981,55.964,64.84,55.964z M53.371,54.239c7.598,0.822,15.442,0.816,23.205-0.016
				c-0.112-0.439-0.211-0.864-0.31-1.289c-0.106-0.464-0.213-0.927-0.341-1.412c-3.449,0.347-7.058,0.523-10.729,0.523
				c-3.181,0.17-6.653,0.055-10.926-0.339C54.028,52.522,53.747,53.374,53.371,54.239z"/>
		</g>
		<g>
			<path fill="#FFFFFF" d="M54.62,47.148C54.62,47.148,54.62,47.337,54.62,47.148c6.988,0.754,14.164,0.754,21.337,0.189
				c-0.188-2.833-0.188-5.667,0-8.498c0.19-1.7,0.19-3.588-1.133-4.723c-0.188-0.188-0.377-0.188-0.564-0.375V23.73
				c0-1.132-0.944-1.886-1.89-1.886c-1.134,0-1.888,0.944-1.888,1.886v10.386c-1.133,0.38-2.268,0.757-3.21,0.944
				c-2.267,0.191-4.721-0.944-6.988-1.319V23.353c0-1.134-0.944-1.888-1.889-1.888c-1.132,0-1.888,0.945-1.888,1.888v10.575
				c-1.7,1.132-2.455,3.588-2.455,5.856C53.864,42.426,54.62,44.69,54.62,47.148z"/>
			<path d="M65.99,48.295c-3.927,0-7.772-0.201-11.43-0.595l-0.496-0.054v-0.498c0-1.043-0.14-2.044-0.288-3.103
				c-0.191-1.358-0.387-2.762-0.277-4.3c-0.001-2.054,0.649-4.713,2.454-6.102V23.353c0-1.174,0.933-2.443,2.442-2.443
				c1.175,0,2.443,0.935,2.443,2.443v9.927c0.691,0.142,1.396,0.336,2.081,0.526c1.449,0.401,2.936,0.826,4.307,0.702
				c0.766-0.156,1.765-0.478,2.701-0.79V23.73c0-1.174,0.933-2.441,2.442-2.441c1.175,0,2.444,0.933,2.444,2.441v9.714
				c0.111,0.055,0.256,0.133,0.403,0.279c1.508,1.294,1.484,3.448,1.291,5.179c-0.182,2.769-0.182,5.603,0.003,8.399l0.036,0.546
				L76,47.891C72.594,48.158,69.226,48.295,65.99,48.295z M55.165,46.648c6.311,0.65,13.107,0.709,20.205,0.178
				c-0.152-2.667-0.143-5.362,0.035-8.023c0.173-1.574,0.198-3.289-0.942-4.267c-0.058-0.055-0.088-0.072-0.167-0.111
				c-0.114-0.057-0.269-0.133-0.428-0.289l-0.163-0.163V23.73c0-0.822-0.692-1.332-1.335-1.332c-0.824,0-1.333,0.692-1.333,1.332
				v10.785l-0.379,0.127c-1.065,0.358-2.276,0.763-3.278,0.964c-0.25,0.024-0.439,0.032-0.63,0.032
				c-1.372,0-2.773-0.387-4.126-0.763c-0.848-0.234-1.649-0.457-2.431-0.585l-0.464-0.077v-10.86c0-0.823-0.692-1.333-1.334-1.333
				c-0.823,0-1.333,0.692-1.333,1.333v10.873l-0.246,0.165c-1.629,1.083-2.209,3.497-2.209,5.394
				c-0.103,1.46,0.085,2.807,0.268,4.108C55,44.785,55.129,45.704,55.165,46.648z"/>
		</g>
		<g>
			<path fill="#FFFFFF" d="M93.71,98.325c-2.644-1.703-4.533-4.345-5.287-7.365c-0.19-0.944,0.377-2.077,1.32-2.268
				c0.945-0.188,2.077,0.378,2.267,1.323c0.567,2.075,1.89,3.965,3.777,5.098c0,0,1.133,0.757,2.453,1.889
				c1.701-0.757,3.778-1.132,4.157-3.021C93.71,89.449,88.8,80.195,84.456,71.509c-2.077-4.153-4.154-8.499-5.854-12.843
				c-4.342,0.379-8.686,0.756-13.219,0.756c-4.72,0-9.631-0.186-14.352-0.756c-4.721,12.653-1.51,27.193-5.476,40.225
				c-0.566,1.511-1.133,3.208-0.944,4.722c0.377,3.208,3.966,5.098,7.176,5.664c1.699,0.189,3.209,0.189,4.908,0.189
				c0-0.189,0-0.377,0-0.565c0.189-1.701-0.188-3.398-0.377-5.099l-0.188-0.945c-1.133-7.553-0.944-15.297,0.188-22.851
				c0.189-1.132,1.133-1.698,2.268-1.512c1.132,0.189,1.698,1.134,1.511,2.267c-1.323,7.178-1.323,14.353-0.191,21.718l0.191,0.944
				c0.375,1.887,0.566,3.966,0.375,6.043l0,0c2.267-0.189,4.724-0.377,6.988,0c0,0,0,0,0.188,0
				c-0.945-2.646-1.699-5.854-2.076-9.631c-0.377-4.91-0.566-10.008-0.566-14.92c0-1.132,0.943-1.889,1.889-1.889l0,0
				c1.132,0,1.889,0.945,1.889,1.889c0,4.722,0,9.632,0.376,14.541c0.379,3.967,1.136,7.177,2.077,9.633
				c0.379-0.188,0.379,0.188,0.379,0.755c1.322,0.189,2.645,0.565,3.966,0.377c2.076,0,4.154-0.755,6.044-1.888
				c-2.078-3.211-3.023-6.799-3.778-10.008L74.07,83.216c-0.189-0.944,0.377-2.075,1.32-2.267c0.944-0.188,2.077,0.379,2.267,1.322
				l3.777,15.109c0.756,3.208,1.511,6.421,3.4,8.873c0.377-0.188,0.754-0.564,1.133-0.752c1.321-0.945,2.643-1.89,4.342-2.27
				c1.511-0.376,3.213-0.189,4.156-1.134c0.565-0.564,0.755-1.319,0.942-2.264C94.653,99.271,93.899,98.512,93.71,98.325z"/>
			<path d="M74.824,110.826c-0.79,0-1.568-0.139-2.319-0.271c-0.324-0.058-0.646-0.115-0.968-0.162l-0.477-0.067v-0.481
				c0-0.024,0-0.052,0-0.078l-0.203,0.1l-0.139-0.577c-1.041-2.712-1.75-6.001-2.111-9.779c-0.379-4.94-0.379-9.849-0.379-14.594
				c0-0.642-0.511-1.334-1.334-1.334c-0.642,0-1.334,0.511-1.334,1.334c0,4.932,0.195,10.076,0.565,14.878
				c0.345,3.457,1.034,6.653,2.045,9.486l0.266,0.741h-0.953c-2.135-0.33-4.383-0.219-6.965-0.002l-0.659,0.055l0.061-0.658
				c0.168-1.839,0.044-3.818-0.368-5.884l-0.188-0.944c-1.182-7.674-1.119-14.838,0.188-21.928c0.11-0.673-0.107-1.459-1.057-1.618
				c-0.846-0.143-1.496,0.265-1.629,1.058c-1.19,7.937-1.253,15.569-0.187,22.676l0.184,0.919c0.054,0.464,0.112,0.881,0.171,1.299
				c0.179,1.29,0.364,2.621,0.214,3.969l0.003,1.06h-0.555c-1.738,0-3.24,0-4.97-0.192c-3.289-0.579-7.24-2.534-7.666-6.15
				c-0.206-1.646,0.396-3.436,0.976-4.982c1.851-6.086,2.119-12.674,2.378-19.044c0.289-7.104,0.588-14.45,3.098-21.179l0.153-0.408
				l0.434,0.052c4.194,0.506,8.867,0.751,14.286,0.751c4.527,0,8.922-0.383,13.171-0.754l0.414-0.035l0.149,0.387
				c1.809,4.617,4.068,9.264,5.835,12.795c4.632,9.265,9.475,17.937,17.7,22.229l0.369,0.192l-0.081,0.407
				c-0.364,1.82-2.019,2.455-3.478,3.018c-0.336,0.129-0.674,0.259-0.998,0.403l-0.319,0.143l-0.267-0.229
				c-1.277-1.095-2.39-1.842-2.399-1.85c-1.911-1.144-3.379-3.122-4.006-5.412c-0.14-0.696-0.992-1.049-1.622-0.925
				c-0.586,0.119-1.025,0.918-0.886,1.614c0.72,2.882,2.514,5.379,5.045,7.009l0.139,0.121c0.251,0.248,0.921,0.91,1.592,1.409
				l0.28,0.21l-0.069,0.344c-0.197,0.992-0.416,1.87-1.096,2.548c-0.772,0.773-1.897,0.912-2.985,1.046
				c-0.476,0.06-0.961,0.117-1.429,0.234c-1.601,0.358-2.84,1.242-4.151,2.18c-0.237,0.127-0.396,0.25-0.558,0.371
				c-0.217,0.162-0.437,0.32-0.653,0.429l-0.407,0.202l-0.278-0.36c-1.96-2.547-2.743-5.869-3.499-9.083l-3.777-15.104
				c-0.136-0.683-0.993-1.035-1.617-0.911c-0.645,0.129-1.012,0.988-0.888,1.613l3.771,15.084c0.771,3.274,1.69,6.727,3.705,9.84
				l0.312,0.482l-0.492,0.295c-2.178,1.306-4.307,1.967-6.329,1.967C75.381,110.811,75.102,110.826,74.824,110.826z M72.158,109.367
				c0.179,0.03,0.361,0.062,0.54,0.096c0.979,0.175,1.89,0.338,2.805,0.209c1.741-0.006,3.517-0.519,5.345-1.532
				c-1.895-3.125-2.789-6.493-3.542-9.688l-3.774-15.102c-0.238-1.192,0.427-2.677,1.75-2.944c1.31-0.263,2.687,0.587,2.921,1.757
				l3.771,15.083c0.688,2.932,1.399,5.947,3,8.259c0.031-0.023,0.063-0.048,0.096-0.071c0.216-0.161,0.435-0.32,0.649-0.429
				c1.271-0.916,2.662-1.91,4.47-2.314c0.508-0.125,1.037-0.19,1.547-0.254c0.983-0.121,1.833-0.226,2.339-0.729
				c0.398-0.398,0.57-0.941,0.722-1.646c-0.627-0.503-1.193-1.062-1.427-1.291c-2.728-1.763-4.69-4.495-5.485-7.676
				c-0.241-1.192,0.424-2.679,1.75-2.945c1.317-0.268,2.687,0.588,2.921,1.758c0.541,1.979,1.828,3.717,3.519,4.73
				c0.066,0.043,1.052,0.705,2.265,1.721c0.24-0.1,0.482-0.194,0.729-0.288c1.21-0.465,2.273-0.875,2.669-1.814
				c-8.273-4.511-13.133-13.215-17.775-22.499c-1.729-3.455-3.925-7.971-5.722-12.502c-4.145,0.36-8.426,0.722-12.855,0.722
				c-5.276,0-9.856-0.23-13.981-0.707c-2.312,6.453-2.6,13.555-2.88,20.426c-0.261,6.441-0.532,13.102-2.436,19.356
				c-0.544,1.456-1.099,3.093-0.924,4.491c0.332,2.824,3.615,4.64,6.722,5.188c1.455,0.16,2.782,0.178,4.258,0.181V108.9
				c0.139-1.271-0.029-2.478-0.208-3.756c-0.059-0.427-0.118-0.854-0.166-1.281l-0.181-0.898
				c-1.088-7.242-1.024-14.985,0.184-23.041c0.234-1.393,1.422-2.226,2.906-1.978c1.403,0.234,2.212,1.429,1.967,2.905
				c-1.283,6.974-1.346,14.018-0.188,21.543l0.185,0.92c0.386,1.928,0.531,3.789,0.434,5.546c2.032-0.163,4.097-0.237,5.768-0.042
				c-0.887-2.706-1.498-5.704-1.82-8.929c-0.372-4.84-0.569-10.015-0.569-14.975c0-1.509,1.268-2.443,2.443-2.443
				c1.508,0,2.443,1.269,2.443,2.443c0,4.725,0,9.61,0.374,14.5c0.334,3.494,0.974,6.557,1.903,9.102
				c0.229,0.07,0.447,0.266,0.52,0.649C72.145,109.226,72.152,109.292,72.158,109.367z"/>
		</g>
	</g>
	<g>
		<path fill="#EE402F" d="M28.155,47.854L28.155,47.854c0.212,0.939,0.74,2.28,2.539,3.216l3.7-3.216l0,0c0,0,0.106,0,0.106-0.133
			h0.106h0.105h0.104h0.106h0.105h0.107h0.105h0.105h0.105h0.105c0,0,0.107,0,0.107,0.133l0,0l3.699,3.216
			c1.798-0.936,2.432-2.413,2.538-3.216l0,0c-6.449-7.231,3.173-14.601,3.173-14.601l-1.691-2.945l0.74-8.037l-2.538-0.806
			l-1.376,7.234c-3.064,0-5.18,2.144-5.18,2.144s-2.22-2.144-5.18-2.144l-1.375-7.234l-2.538,0.806l0.74,8.037l-1.691,2.945
			C24.983,33.253,34.499,40.624,28.155,47.854z"/>
		<path fill="#EE402F" d="M43.802,50c-0.633,1.474-1.797,3.214-4.229,4.286c-0.104,0-0.211,0.134-0.421,0.134
			c-0.212,0-0.528-0.134-0.634-0.266l-3.49-3.216l-3.488,3.08c-0.211,0.136-0.423,0.267-0.635,0.267c-0.105,0-0.21,0-0.422-0.131
			c-2.432-1.072-3.701-2.815-4.23-4.288c-3.382,4.152-10.044,14.064-10.044,28.935c0,0,1.058,1.604,4.229,3.079
			c0-4.42,0.74-14.333,5.497-24.247c0.317-0.668,1.058-0.938,1.586-0.536c0.53,0.403,0.741,1.34,0.424,2.011
			c-4.864,9.911-5.181,20.226-5.181,23.575c1.161,0.403,2.536,0.802,4.123,1.073c0-2.681,0.317-8.576,1.904-13.129
			c0.21-0.804,0.95-1.073,1.585-0.804c0.634,0.269,0.846,1.205,0.634,2.01c-1.375,4.287-1.691,10.046-1.691,12.323
			c1.691,0.134,3.701,0.269,5.815,0.269c2.22,0,4.123-0.135,5.814-0.269c0-2.277-0.211-8.036-1.692-12.323
			c-0.211-0.805,0-1.606,0.634-2.01c0.636-0.27,1.269,0,1.585,0.804c1.48,4.553,1.798,10.448,1.905,13.129
			c1.585-0.271,2.959-0.67,4.123-1.073c0-3.35-0.423-13.664-5.181-23.575c-0.317-0.671-0.211-1.608,0.424-2.011
			c0.527-0.402,1.268-0.266,1.584,0.536c4.759,9.914,5.499,19.827,5.499,24.247c3.172-1.475,4.229-3.079,4.229-3.079
			C53.953,64.064,47.186,54.019,43.802,50z"/>
	</g>
	<g>
		<path fill="#FFFFFF" d="M31.173,23.648h7.479H40.9h8.442v-3.07c0-0.696-3.713-2.087-11.694-5.788
			c0.733-0.647,1.296-1.5,1.296-2.724c0-2.242-1.807-4.066-4.03-4.066c-2.222,0-4.03,1.824-4.03,4.066h2.606
			c0-0.792,0.639-1.439,1.424-1.439c0.787,0,1.426,0.647,1.426,1.439c0,0.602-0.681,1.018-1.803,1.641l-0.208,0.116
			c-9.695,4.449-13.404,6.064-13.404,6.756v3.07h8.004H31.173z M23.531,20.841c0.756-0.852,8.093-2.858,11.396-4.404
			c3.469,1.548,10.999,3.561,11.809,4.421v0.159h-0.001H23.531V20.841z"/>
		<path d="M49.416,23.721H20.851v-3.143c0-0.665,2.653-1.879,10.528-5.486c0.906-0.415,1.878-0.859,2.918-1.337l0.203-0.113
			c1.098-0.609,1.766-1.02,1.766-1.576c0-0.753-0.606-1.365-1.352-1.365c-0.745,0-1.351,0.612-1.351,1.365v0.073H30.81v-0.073
			c0-2.283,1.841-4.14,4.104-4.14s4.104,1.857,4.104,4.14c0,1.051-0.404,1.937-1.236,2.704c2.237,1.037,4.16,1.902,5.709,2.599
			c4.191,1.885,5.925,2.665,5.925,3.209V23.721z M20.998,23.574h28.271v-2.996c0-0.449-2.074-1.382-5.839-3.075
			c-1.573-0.707-3.53-1.587-5.812-2.646l-0.103-0.048l0.084-0.073c0.855-0.756,1.271-1.628,1.271-2.669
			c0-2.202-1.775-3.993-3.957-3.993c-2.157,0-3.916,1.75-3.956,3.919h2.459c0.039-0.8,0.695-1.439,1.497-1.439
			c0.827,0,1.5,0.679,1.5,1.513c0,0.651-0.699,1.072-1.841,1.706l-0.208,0.116c-1.047,0.479-2.018,0.924-2.925,1.339
			c-7.169,3.284-10.441,4.782-10.441,5.352V23.574z M46.809,21.091H23.458v-0.277l0.018-0.021c0.424-0.478,2.728-1.264,5.396-2.175
			c2.223-0.758,4.521-1.543,6.024-2.247l0.03-0.014l0.031,0.013c1.559,0.696,3.901,1.474,6.167,2.225
			c2.793,0.928,5.207,1.728,5.665,2.214l0.02,0.022V21.091z M23.604,20.944h23.057v-0.055c-0.485-0.464-2.963-1.286-5.584-2.155
			c-2.254-0.747-4.584-1.52-6.15-2.216c-1.511,0.704-3.797,1.483-6.008,2.239c-2.5,0.854-4.865,1.661-5.314,2.113V20.944z"/>
	</g>
	<g>
		<path fill="#FFFFFF" d="M60.951,23.648h7.479h2.248h8.441v-3.07c0-0.696-3.712-2.087-11.694-5.788
			c0.733-0.647,1.297-1.5,1.297-2.724c0-2.242-1.809-4.066-4.03-4.066c-2.223,0-4.029,1.824-4.029,4.066h2.605
			c0-0.792,0.639-1.439,1.424-1.439c0.786,0,1.425,0.647,1.425,1.439c0,0.602-0.681,1.018-1.803,1.641l-0.208,0.116
			c-9.695,4.449-13.404,6.064-13.404,6.756v3.07h8.004H60.951z M53.31,20.841c0.756-0.852,8.093-2.858,11.395-4.404
			c3.47,1.548,11,3.561,11.811,4.421v0.159h-0.003H53.31V20.841z"/>
		<path d="M79.194,23.721H50.629v-3.143c0-0.665,2.653-1.879,10.527-5.486c0.906-0.415,1.878-0.859,2.918-1.337l0.204-0.113
			c1.1-0.609,1.767-1.02,1.767-1.576c0-0.753-0.606-1.365-1.353-1.365c-0.745,0-1.352,0.612-1.352,1.365v0.073h-2.753v-0.073
			c0-2.283,1.842-4.14,4.104-4.14s4.103,1.857,4.103,4.14c0,1.051-0.404,1.937-1.236,2.704c2.239,1.037,4.16,1.902,5.71,2.599
			c4.19,1.885,5.926,2.665,5.926,3.209V23.721z M50.776,23.574h28.271v-2.996c0-0.449-2.073-1.382-5.839-3.075
			c-1.573-0.707-3.53-1.587-5.812-2.646l-0.103-0.048l0.084-0.073c0.854-0.756,1.271-1.628,1.271-2.669
			c0-2.202-1.773-3.993-3.955-3.993c-2.157,0-3.917,1.75-3.956,3.919h2.46c0.037-0.8,0.693-1.439,1.496-1.439
			c0.826,0,1.5,0.679,1.5,1.513c0,0.651-0.699,1.072-1.842,1.706l-0.208,0.116c-1.048,0.479-2.019,0.924-2.925,1.339
			c-7.169,3.284-10.441,4.782-10.441,5.352V23.574z M76.587,21.091H53.236v-0.277l0.018-0.021c0.424-0.478,2.728-1.264,5.396-2.175
			c2.222-0.758,4.52-1.543,6.023-2.247l0.03-0.014l0.032,0.013c1.557,0.696,3.9,1.474,6.166,2.225
			c2.794,0.928,5.208,1.728,5.666,2.214l0.019,0.022V21.091z M53.383,20.944h23.057v-0.055c-0.485-0.464-2.963-1.286-5.584-2.155
			c-2.254-0.747-4.584-1.52-6.149-2.216c-1.512,0.704-3.798,1.483-6.009,2.239c-2.5,0.854-4.865,1.661-5.314,2.113V20.944z"/>
	</g>
</g>
</svg>
