<?xml version="1.0" encoding="utf-8"?>
<!-- Generator: Adobe Illustrator 15.1.0, SVG Export Plug-In . SVG Version: 6.00 Build 0)  -->
<!DOCTYPE svg PUBLIC "-//W3C//DTD SVG 1.1//EN" "http://www.w3.org/Graphics/SVG/1.1/DTD/svg11.dtd">
<svg version="1.1" id="Layer_1" xmlns="http://www.w3.org/2000/svg" xmlns:xlink="http://www.w3.org/1999/xlink" x="0px" y="0px"
	 width="120px" height="120px" viewBox="0 0 120 120" enable-background="new 0 0 120 120" xml:space="preserve">
<g>
	<g>
		<rect x="37.733" y="18.107" fill="#FFFFFF" width="45.825" height="88.892"/>
		<path fill="#231F20" d="M83.823,107.368H37.471V17.742h46.353V107.368z M37.996,106.633h45.299V18.475H37.996V106.633z"/>
	</g>
	<g>
		<line fill="#FFFFFF" x1="41.248" y1="18.107" x2="41.248" y2="107.021"/>
		<rect x="40.773" y="18.107" fill="#231F20" width="0.951" height="88.914"/>
	</g>
	<g>
		<g>
			<rect x="45.127" y="22.904" fill="#FFFFFF" width="34.513" height="41.336"/>
			<path d="M79.945,64.546H44.821V22.599h35.124V64.546z M45.433,63.935h33.901V23.21H45.433V63.935z"/>
		</g>
	</g>
	<g>
		<g>
			<rect x="45.127" y="68.767" fill="#FFFFFF" width="34.513" height="33.266"/>
			<path d="M79.945,102.338H44.821V68.461h35.124V102.338z M45.433,101.727h33.901V69.072H45.433V101.727z"/>
		</g>
	</g>
	<path d="M74.551,57.271H50.838c-0.937,0-1.697-0.821-1.697-1.83v-3.747c0-1.01,0.761-1.83,1.697-1.83h23.713
		c0.936,0,1.697,0.82,1.697,1.83v3.747C76.248,56.449,75.486,57.271,74.551,57.271z M50.838,50.475
		c-0.599,0-1.086,0.548-1.086,1.219v3.747c0,0.671,0.487,1.219,1.086,1.219h23.713c0.598,0,1.085-0.548,1.085-1.219v-3.747
		c0-0.671-0.487-1.219-1.085-1.219H50.838z"/>
	<path d="M74.551,64.065H50.838c-0.937,0-1.697-0.82-1.697-1.83v-3.747c0-1.009,0.761-1.829,1.697-1.829h23.713
		c0.936,0,1.697,0.82,1.697,1.829v3.747C76.248,63.245,75.486,64.065,74.551,64.065z M50.838,57.271
		c-0.599,0-1.086,0.547-1.086,1.218v3.747c0,0.672,0.487,1.219,1.086,1.219h23.713c0.598,0,1.085-0.547,1.085-1.219v-3.747
		c0-0.671-0.487-1.218-1.085-1.218H50.838z"/>
	<path d="M74.551,43.68H50.838c-0.937,0-1.697-0.821-1.697-1.831v-3.747c0-1.009,0.761-1.83,1.697-1.83h23.713
		c0.936,0,1.697,0.821,1.697,1.83v3.747C76.248,42.858,75.486,43.68,74.551,43.68z M50.838,36.884c-0.599,0-1.086,0.547-1.086,1.218
		v3.747c0,0.673,0.487,1.22,1.086,1.22h23.713c0.598,0,1.085-0.547,1.085-1.22v-3.747c0-0.671-0.487-1.218-1.085-1.218H50.838z"/>
	<path d="M74.551,36.884H50.838c-0.937,0-1.697-0.821-1.697-1.83v-3.747c0-1.01,0.761-1.83,1.697-1.83h23.713
		c0.936,0,1.697,0.82,1.697,1.83v3.747C76.248,36.062,75.486,36.884,74.551,36.884z M50.838,30.088
		c-0.599,0-1.086,0.547-1.086,1.219v3.747c0,0.671,0.487,1.218,1.086,1.218h23.713c0.598,0,1.085-0.547,1.085-1.218v-3.747
		c0-0.672-0.487-1.219-1.085-1.219H50.838z"/>
	<g>
		<path fill="#EE402F" d="M75.941,48.646c0,0.842-0.622,1.523-1.391,1.523H50.838c-0.768,0-1.392-0.682-1.392-1.523v-3.747
			c0-0.844,0.624-1.524,1.392-1.524h23.713c0.769,0,1.391,0.681,1.391,1.524V48.646z"/>
		<path d="M74.551,50.475H50.838c-0.937,0-1.697-0.82-1.697-1.829v-3.747c0-1.01,0.761-1.83,1.697-1.83h23.713
			c0.936,0,1.697,0.82,1.697,1.83v3.747C76.248,49.654,75.486,50.475,74.551,50.475z M50.838,43.68
			c-0.599,0-1.086,0.547-1.086,1.219v3.747c0,0.671,0.487,1.218,1.086,1.218h23.713c0.598,0,1.085-0.547,1.085-1.218v-3.747
			c0-0.672-0.487-1.219-1.085-1.219H50.838z"/>
	</g>
	<path d="M74.551,95.543H50.838c-0.937,0-1.697-0.82-1.697-1.83v-3.747c0-1.009,0.761-1.829,1.697-1.829h23.713
		c0.936,0,1.697,0.82,1.697,1.829v3.747C76.248,94.723,75.486,95.543,74.551,95.543z M50.838,88.748
		c-0.599,0-1.086,0.547-1.086,1.218v3.747c0,0.672,0.487,1.219,1.086,1.219h23.713c0.598,0,1.085-0.547,1.085-1.219v-3.747
		c0-0.671-0.487-1.218-1.085-1.218H50.838z"/>
	<path d="M74.551,102.338H50.838c-0.937,0-1.697-0.82-1.697-1.829v-3.747c0-1.01,0.761-1.83,1.697-1.83h23.713
		c0.936,0,1.697,0.82,1.697,1.83v3.747C76.248,101.518,75.486,102.338,74.551,102.338z M50.838,95.543
		c-0.599,0-1.086,0.547-1.086,1.219v3.747c0,0.671,0.487,1.218,1.086,1.218h23.713c0.598,0,1.085-0.547,1.085-1.218v-3.747
		c0-0.672-0.487-1.219-1.085-1.219H50.838z"/>
	<path d="M74.551,81.951H50.838c-0.937,0-1.697-0.82-1.697-1.83v-3.747c0-1.009,0.761-1.829,1.697-1.829h23.713
		c0.936,0,1.697,0.82,1.697,1.829v3.747C76.248,81.131,75.486,81.951,74.551,81.951z M50.838,75.156
		c-0.599,0-1.086,0.547-1.086,1.218v3.747c0,0.672,0.487,1.219,1.086,1.219h23.713c0.598,0,1.085-0.547,1.085-1.219v-3.747
		c0-0.671-0.487-1.218-1.085-1.218H50.838z"/>
	<path d="M74.551,88.748H50.838c-0.937,0-1.697-0.821-1.697-1.83v-3.747c0-1.01,0.761-1.831,1.697-1.831h23.713
		c0.936,0,1.697,0.821,1.697,1.831v3.747C76.248,87.927,75.486,88.748,74.551,88.748z M50.838,81.951
		c-0.599,0-1.086,0.547-1.086,1.22v3.747c0,0.671,0.487,1.219,1.086,1.219h23.713c0.598,0,1.085-0.548,1.085-1.219v-3.747
		c0-0.673-0.487-1.22-1.085-1.22H50.838z"/>
</g>
</svg>
