<?xml version="1.0" encoding="utf-8"?>
<!-- Generator: Adobe Illustrator 15.1.0, SVG Export Plug-In . SVG Version: 6.00 Build 0)  -->
<!DOCTYPE svg PUBLIC "-//W3C//DTD SVG 1.1//EN" "http://www.w3.org/Graphics/SVG/1.1/DTD/svg11.dtd">
<svg version="1.1" id="Layer_1" xmlns="http://www.w3.org/2000/svg" xmlns:xlink="http://www.w3.org/1999/xlink" x="0px" y="0px"
	 width="667px" height="144.467px" viewBox="0 0 667 144.467" enable-background="new 0 0 667 144.467" xml:space="preserve">
<g>
	<path fill="#FFFFFF" d="M454.326,117.668c0.712,0.436,1.729,0.782,2.824,0.782c1.622,0,2.57-0.839,2.57-2.076
		c0-1.149-0.656-1.824-2.313-2.444c-2.007-0.692-3.247-1.75-3.247-3.464c0-1.912,1.588-3.334,3.975-3.334
		c1.238,0,2.169,0.292,2.697,0.584l-0.437,1.311c-0.382-0.237-1.203-0.582-2.314-0.582c-1.678,0-2.317,1.003-2.317,1.842
		c0,1.129,0.747,1.693,2.445,2.349c2.077,0.822,3.116,1.806,3.116,3.61c0,1.879-1.385,3.535-4.283,3.535
		c-1.186,0-2.479-0.364-3.135-0.801L454.326,117.668z"/>
	<path fill="#FFFFFF" d="M647.234,22.67v6.516c-0.02,0.292-0.219,0.438-0.596,0.438H646.3c-0.385,0-0.58-0.147-0.594-0.438V22.67
		h-1.61c-0.281,0-0.427-0.168-0.439-0.483v-0.296c0.013-0.324,0.158-0.483,0.439-0.483h4.752c0.273,0,0.422,0.159,0.434,0.483v0.296
		c-0.012,0.315-0.16,0.483-0.434,0.483H647.234z"/>
	<path fill="#FFFFFF" d="M651.567,24.579v4.618c-0.041,0.281-0.258,0.428-0.615,0.428h-0.339c-0.387,0-0.58-0.147-0.58-0.428V21.8
		c0.049-0.287,0.252-0.426,0.616-0.426h0.806c0.352,0,0.571,0.124,0.661,0.376l1.817,5.151l1.805-5.151
		c0.09-0.252,0.313-0.376,0.66-0.376h0.798c0.371,0,0.574,0.139,0.625,0.426v7.396c0,0.281-0.192,0.428-0.577,0.428h-0.342
		c-0.365,0-0.569-0.147-0.613-0.428v-4.589l-1.598,4.575c-0.099,0.216-0.309,0.329-0.624,0.329h-0.255
		c-0.32,0-0.53-0.113-0.631-0.329L651.567,24.579z"/>
	<path fill="#FFFFFF" d="M181.943,106.678v0.878c0,0.472-0.308,0.701-0.917,0.701h-0.591c-0.613,0-0.919-0.229-0.919-0.701v-0.878
		c0-0.481,0.307-0.727,0.919-0.727h0.591C181.635,105.951,181.943,106.196,181.943,106.678 M181.943,118.837
		c-0.027,0.455-0.344,0.677-0.947,0.677h-0.533c-0.604,0-0.911-0.222-0.947-0.677v-8.748c0.036-0.45,0.343-0.675,0.947-0.675h0.533
		c0.603,0,0.919,0.225,0.947,0.675V118.837z"/>
	<path fill="#FFFFFF" d="M189.269,118.837c-0.037,0.455-0.344,0.677-0.947,0.677h-0.536c-0.604,0-0.918-0.222-0.947-0.677v-8.748
		c0.029-0.45,0.317-0.675,0.857-0.675h0.709c0.539,0,0.827,0.225,0.864,0.675v0.988c0.307-1.054,1.087-1.636,2.32-1.761
		c2.492,0,3.768,1.535,3.81,4.617h0.021v4.903c-0.021,0.455-0.329,0.677-0.935,0.677h-0.54c-0.596,0-0.903-0.222-0.933-0.677v-4.664
		c0-1.623-0.525-2.436-1.556-2.436c-1.123,0.008-1.852,0.729-2.188,2.182V118.837z"/>
	<path fill="#FFFFFF" d="M206.541,110.065v0.023c0.029-0.45,0.344-0.675,0.946-0.675h0.534c0.596,0,0.912,0.225,0.94,0.675v0.728
		c0.267-0.827,1.011-1.289,2.239-1.41c2.601,0,3.899,1.671,3.899,5.017c-0.281,3.278-1.831,4.974-4.665,5.091
		c-0.715,0-1.207-0.033-1.474-0.109v3.173c-0.034,0.442-0.351,0.665-0.94,0.665h-0.534c-0.587,0-0.905-0.223-0.946-0.665
		l-0.007-12.512H206.541z M208.961,113.885v3.029c0.239,0.267,0.744,0.414,1.53,0.414c1.375-0.059,2.141-1.023,2.294-2.905
		c0-1.794-0.548-2.686-1.636-2.686C210.042,111.745,209.305,112.453,208.961,113.885"/>
	<path fill="#FFFFFF" d="M228.066,111.119v7.718c-0.028,0.455-0.345,0.677-0.935,0.677h-0.547c-0.598,0-0.904-0.164-0.932-0.507
		v-0.732c-0.322,0.871-1.192,1.32-2.603,1.327c-2.367,0-3.552-1.707-3.552-5.108c0.282-3.271,1.839-4.966,4.666-5.087
		C226.15,109.406,227.453,109.974,228.066,111.119 M221.813,114.501c0,1.854,0.542,2.769,1.629,2.769
		c1.13-0.013,1.867-0.762,2.21-2.264v-2.997c-0.239-0.281-0.753-0.411-1.531-0.411C222.733,111.653,221.962,112.621,221.813,114.501
		"/>
	<path fill="#FFFFFF" d="M237.012,111.798c-1.033,0.057-1.554,0.689-1.554,1.924v5.115c-0.034,0.455-0.341,0.677-0.953,0.677h-0.532
		c-0.583,0-0.906-0.222-0.97-0.673v-8.752c0.035-0.45,0.352-0.675,0.949-0.675h0.553c0.612,0,0.919,0.238,0.953,0.724v0.995
		c0.386-1.13,1.118-1.704,2.198-1.737c0.525,0,0.792,0.194,0.792,0.578c0,0.079-0.022,0.17-0.056,0.269l-0.386,0.947
		C237.832,111.545,237.502,111.757,237.012,111.798"/>
	<path fill="#FFFFFF" d="M242.581,111.189h-0.828c-0.366-0.015-0.554-0.246-0.554-0.682v-0.343c0-0.436,0.188-0.672,0.554-0.701
		h0.828v-1.432c0.034-0.449,0.337-0.673,0.933-0.673h0.54c0.611,0,0.92,0.224,0.956,0.673v1.432h1.219
		c0.365,0.029,0.548,0.266,0.548,0.701v0.343c0,0.436-0.183,0.667-0.548,0.682h-1.219v5.12c0,0.604,0.236,0.901,0.714,0.901
		c0.259,0,0.442-0.018,0.534-0.059c0.05-0.029,0.105-0.034,0.175-0.034c0.505,0,0.758,0.303,0.758,0.918v0.034
		c-0.017,0.795-0.21,1.234-0.583,1.326c-0.258,0.059-0.567,0.094-0.896,0.094c-2.029,0-3.073-1.026-3.13-3.086V111.189z"/>
	<path fill="#FFFFFF" d="M253.455,118.837c-0.027,0.455-0.343,0.677-0.949,0.677h-0.526c-0.603,0-0.916-0.222-0.946-0.677v-8.748
		c0.03-0.45,0.31-0.675,0.857-0.675h0.709c0.547,0,0.827,0.225,0.854,0.675v0.988c0.315-1.054,1.096-1.636,2.325-1.761
		c2.489,0,3.771,1.535,3.822,4.617h0.021v4.903c-0.027,0.455-0.345,0.677-0.94,0.677h-0.534c-0.601,0-0.912-0.222-0.947-0.677
		v-4.664c0-1.623-0.521-2.436-1.55-2.436c-1.122,0.008-1.852,0.729-2.196,2.182V118.837z"/>
	<path fill="#FFFFFF" d="M266.539,115.434c0.191,1.291,0.876,1.931,2.069,1.931c0.809,0,1.391-0.305,1.747-0.919
		c0.099-0.167,0.268-0.262,0.49-0.262c0.106,0,0.227,0.021,0.353,0.071l1.051,0.488c0.192,0.13,0.289,0.268,0.289,0.45
		c0,0.093-0.027,0.184-0.082,0.28c-0.716,1.292-2.001,1.96-3.848,1.988c-2.995-0.065-4.496-1.761-4.51-5.103
		c0.188-3.245,1.719-4.901,4.602-4.964c2.07,0.033,3.22,0.939,3.438,2.729c-0.064,2.104-1.538,3.227-4.414,3.355
		C267.199,115.479,266.813,115.47,266.539,115.434 M269.985,112.233c-0.104-0.555-0.555-0.821-1.354-0.821
		c-1.206,0.106-1.918,0.746-2.128,1.938c0.359,0.092,0.794,0.133,1.306,0.133c0.352,0,0.709-0.041,1.06-0.133
		c0.744-0.211,1.116-0.582,1.116-1.104V112.233z"/>
	<path fill="#FFFFFF" d="M281.106,111.798c-1.033,0.057-1.544,0.689-1.553,1.924v5.115c-0.025,0.455-0.342,0.677-0.948,0.677h-0.539
		c-0.582,0-0.905-0.222-0.961-0.673v-8.752c0.029-0.45,0.335-0.675,0.94-0.675h0.56c0.606,0,0.923,0.238,0.948,0.724v0.995
		c0.386-1.13,1.115-1.704,2.197-1.737c0.533,0,0.792,0.194,0.792,0.578c0,0.079-0.015,0.17-0.056,0.269l-0.379,0.947
		C281.925,111.545,281.596,111.757,281.106,111.798"/>
	<path fill="#FFFFFF" d="M291.952,116.358c-0.052,2.008-1.087,3.062-3.122,3.167c-1.194,0-2.127-0.346-2.806-1.042
		c-0.241-0.214-0.358-0.432-0.358-0.664c0-0.305,0.195-0.567,0.612-0.76c0.454-0.209,0.799-0.316,1.029-0.316
		c0.237,0,0.449,0.088,0.611,0.257c0.189,0.27,0.475,0.41,0.883,0.41c0.477-0.046,0.724-0.357,0.724-0.925
		c-0.021-0.534-0.631-1.115-1.852-1.74c-1.222-0.615-1.847-1.472-1.868-2.574c0.043-1.688,0.948-2.61,2.722-2.757
		c1.268,0,2.21,0.384,2.815,1.166c0.113,0.146,0.16,0.301,0.16,0.456c0,0.271-0.152,0.539-0.468,0.792
		c-0.395,0.227-0.697,0.343-0.905,0.343c-0.218,0-0.408-0.092-0.555-0.259c-0.183-0.268-0.435-0.399-0.759-0.399
		c-0.335,0.028-0.504,0.204-0.51,0.542c0.006,0.375,0.603,0.859,1.809,1.463C291.312,114.12,291.931,115.069,291.952,116.358"/>
	<path fill="#FFFFFF" d="M298.876,118.837c-0.029,0.455-0.336,0.677-0.932,0.677h-0.542c-0.589,0-0.912-0.222-0.941-0.677v-12.536
		c0.029-0.457,0.352-0.683,0.941-0.683h0.542c0.596,0,0.903,0.226,0.932,0.683v4.257c0.321-0.653,1.094-1.03,2.332-1.151
		c2.496,0,3.764,1.51,3.822,4.527h0.014v4.903c-0.021,0.455-0.331,0.677-0.935,0.677h-0.54c-0.597,0-0.911-0.222-0.933-0.677v-4.664
		c0-1.623-0.518-2.436-1.556-2.436c-1.123,0.008-1.853,0.729-2.204,2.182V118.837z"/>
	<path fill="#FFFFFF" d="M312.422,106.678v0.878c0,0.472-0.307,0.701-0.917,0.701h-0.591c-0.609,0-0.919-0.229-0.919-0.701v-0.878
		c0-0.481,0.31-0.727,0.919-0.727h0.591C312.115,105.951,312.422,106.196,312.422,106.678 M312.422,118.837
		c-0.034,0.455-0.351,0.677-0.947,0.677h-0.533c-0.603,0-0.918-0.222-0.948-0.677v-8.748c0.03-0.45,0.345-0.675,0.948-0.675h0.533
		c0.596,0,0.913,0.225,0.947,0.675V118.837z"/>
	<path fill="#FFFFFF" d="M317.398,110.065v0.023c0.034-0.45,0.352-0.675,0.947-0.675h0.534c0.604,0,0.912,0.225,0.939,0.675v0.728
		c0.268-0.827,1.013-1.289,2.232-1.41c2.603,0,3.901,1.671,3.901,5.017c-0.275,3.278-1.824,4.974-4.657,5.091
		c-0.715,0-1.208-0.033-1.476-0.109v3.173c-0.035,0.442-0.351,0.665-0.939,0.665h-0.534c-0.59,0-0.906-0.223-0.947-0.665
		l-0.007-12.512H317.398z M319.817,113.885v3.029c0.239,0.267,0.743,0.414,1.525,0.414c1.38-0.059,2.146-1.023,2.299-2.905
		c0-1.794-0.546-2.686-1.634-2.686C320.893,111.745,320.162,112.453,319.817,113.885"/>
	<path fill="#FFFFFF" d="M343.848,118.354c-0.604,0.757-1.58,1.137-2.94,1.137c-2.496,0-3.744-1.545-3.744-4.639v-4.763
		c0.026-0.45,0.351-0.675,0.946-0.675h0.533c0.604,0,0.919,0.225,0.946,0.675v4.7c0,1.745,0.428,2.609,1.299,2.609
		c0.87-0.021,1.542-0.603,2.02-1.754v-5.556c0.026-0.45,0.344-0.675,0.94-0.675h0.541c0.597,0,0.912,0.225,0.932,0.675v4.7
		c0,1.745,0.443,2.609,1.314,2.609c0.741-0.021,1.346-0.618,1.802-1.79c0.208-0.603,0.313-1.312,0.313-2.133
		c0-0.959-0.151-2.076-0.447-3.353c0.027-0.478,0.338-0.709,0.94-0.709h0.532c0.603,0,0.918,0.22,0.947,0.648
		c0.247,1.156,0.367,2.242,0.367,3.256c0,1.316-0.212,2.479-0.655,3.483c-0.799,1.798-2.063,2.688-3.781,2.688
		C345.243,119.49,344.312,119.11,343.848,118.354"/>
	<path fill="#FFFFFF" d="M358.596,106.678v0.878c0,0.472-0.31,0.701-0.928,0.701h-0.581c-0.61,0-0.921-0.229-0.921-0.701v-0.878
		c0-0.481,0.311-0.727,0.921-0.727h0.581C358.286,105.951,358.596,106.196,358.596,106.678 M358.586,118.837
		c-0.023,0.455-0.342,0.677-0.945,0.677h-0.533c-0.591,0-0.911-0.222-0.941-0.677v-8.748c0.03-0.45,0.351-0.675,0.941-0.675h0.533
		c0.604,0,0.922,0.225,0.945,0.675V118.837z"/>
	<path fill="#FFFFFF" d="M364.093,111.189h-0.824c-0.365-0.015-0.549-0.246-0.549-0.682v-0.343c0-0.436,0.184-0.672,0.549-0.701
		h0.824v-1.432c0.037-0.449,0.347-0.673,0.948-0.673h0.541c0.598,0,0.912,0.224,0.933,0.673v1.432h1.237
		c0.363,0.029,0.545,0.266,0.545,0.701v0.343c0,0.436-0.182,0.667-0.545,0.682h-1.237v5.12c0,0.604,0.247,0.901,0.723,0.901
		c0.27,0,0.444-0.018,0.533-0.059c0.05-0.029,0.114-0.034,0.175-0.034c0.508,0,0.76,0.303,0.76,0.918v0.034
		c-0.021,0.795-0.205,1.234-0.576,1.326c-0.266,0.059-0.567,0.094-0.896,0.094c-2.036,0-3.075-1.026-3.141-3.086V111.189z"/>
	<path fill="#FFFFFF" d="M375.342,118.837c-0.035,0.455-0.345,0.677-0.945,0.677h-0.533c-0.598,0-0.912-0.222-0.942-0.677v-12.536
		c0.03-0.457,0.345-0.683,0.942-0.683h0.533c0.601,0,0.91,0.226,0.945,0.683v4.257c0.31-0.653,1.09-1.03,2.32-1.151
		c2.491,0,3.771,1.51,3.824,4.527h0.022v4.903c-0.029,0.455-0.343,0.677-0.939,0.677h-0.541c-0.594,0-0.911-0.222-0.939-0.677
		v-4.664c0-1.623-0.521-2.436-1.559-2.436c-1.123,0.008-1.844,0.729-2.188,2.182V118.837z"/>
	<path fill="#FFFFFF" d="M391.441,112.991c0.05-4.333,1.818-6.51,5.3-6.51c2.021,0,3.431,0.767,4.23,2.301
		c0.014,0.057,0.026,0.115,0.026,0.155c0,0.272-0.23,0.539-0.68,0.801c-0.314,0.181-0.596,0.28-0.83,0.28
		c-0.166,0-0.322-0.058-0.473-0.168c-0.475-0.793-1.159-1.188-2.095-1.188c-1.934,0-2.922,1.44-2.951,4.329
		c0.029,2.908,1.018,4.359,2.951,4.359c0.936,0,1.62-0.402,2.095-1.201c0.15-0.104,0.307-0.167,0.473-0.167
		c0.234,0,0.516,0.097,0.83,0.277c0.449,0.27,0.68,0.536,0.68,0.8c0,0.059-0.013,0.107-0.026,0.163
		c-0.8,1.531-2.21,2.291-4.23,2.291C393.26,119.514,391.491,117.34,391.441,112.991"/>
	<path fill="#FFFFFF" d="M408.883,119.49c-2.312,0-3.471-1.558-3.471-4.665v-4.736c0.021-0.45,0.342-0.675,0.938-0.675h0.533
		c0.604,0,0.912,0.225,0.947,0.675v4.7c0,1.745,0.438,2.609,1.314,2.609c1.016-0.021,1.71-0.694,2.083-2.013v-5.297
		c0.026-0.45,0.343-0.675,0.947-0.675h0.539c0.594,0,0.904,0.225,0.932,0.675v8.298c-0.031,3.174-1.704,4.785-4.994,4.855
		c-0.449-0.016-0.675-0.223-0.675-0.64v-0.896c0.022-0.442,0.226-0.668,0.612-0.684c1.661-0.025,2.54-0.947,2.639-2.754
		C410.87,119.083,410.083,119.49,408.883,119.49"/>
	<path fill="#FFFFFF" d="M418.572,106.301c0.029-0.457,0.345-0.683,0.941-0.683h0.532c0.606,0,0.913,0.226,0.946,0.683v4.522
		c0.373-0.826,1.151-1.296,2.323-1.417c2.554,0,3.824,1.671,3.824,5.017c-0.279,3.278-1.832,4.974-4.658,5.091
		c-0.4,0-0.752-0.019-1.074-0.059h-2.835V106.301z M420.992,113.919v2.981c0.226,0.28,0.746,0.428,1.524,0.428
		c1.387-0.059,2.153-1.023,2.303-2.905c0-1.794-0.541-2.686-1.637-2.686C422.059,111.745,421.337,112.466,420.992,113.919"/>
	<path fill="#FFFFFF" d="M433.672,115.434c0.188,1.291,0.877,1.931,2.074,1.931c0.809,0,1.382-0.305,1.742-0.919
		c0.097-0.167,0.265-0.262,0.498-0.262c0.1,0,0.217,0.021,0.346,0.071l1.051,0.488c0.188,0.13,0.289,0.268,0.289,0.45
		c0,0.093-0.024,0.184-0.079,0.28c-0.722,1.292-2.008,1.96-3.847,1.988c-2.992-0.065-4.496-1.761-4.517-5.103
		c0.204-3.245,1.733-4.901,4.603-4.964c2.067,0.033,3.221,0.939,3.445,2.729c-0.069,2.104-1.529,3.227-4.415,3.355
		C434.336,115.479,433.937,115.47,433.672,115.434 M437.117,112.233c-0.1-0.555-0.547-0.821-1.355-0.821
		c-1.213,0.106-1.913,0.746-2.124,1.938c0.361,0.092,0.799,0.133,1.309,0.133c0.345,0,0.702-0.041,1.054-0.133
		c0.744-0.211,1.117-0.582,1.117-1.104V112.233z"/>
	<path fill="#FFFFFF" d="M448.238,111.798c-1.024,0.057-1.547,0.689-1.552,1.924v5.115c-0.028,0.455-0.345,0.677-0.947,0.677h-0.541
		c-0.584,0-0.902-0.222-0.955-0.673v-8.752c0.023-0.45,0.341-0.675,0.936-0.675h0.561c0.603,0,0.919,0.238,0.947,0.724v0.995
		c0.394-1.13,1.122-1.704,2.194-1.737c0.526,0,0.792,0.194,0.792,0.578c0,0.079-0.011,0.17-0.053,0.269l-0.38,0.947
		C449.065,111.545,448.727,111.757,448.238,111.798"/>
	<path fill="#FFFFFF" d="M468.015,115.434c0.189,1.291,0.87,1.931,2.075,1.931c0.808,0,1.393-0.305,1.74-0.919
		c0.107-0.167,0.259-0.262,0.491-0.262c0.105,0,0.224,0.021,0.351,0.071l1.055,0.488c0.188,0.13,0.285,0.268,0.285,0.45
		c0,0.093-0.027,0.184-0.075,0.28c-0.724,1.292-1.999,1.96-3.847,1.988c-2.995-0.065-4.503-1.761-4.511-5.103
		c0.189-3.245,1.717-4.901,4.593-4.964c2.071,0.033,3.225,0.939,3.449,2.729c-0.072,2.104-1.538,3.227-4.415,3.355
		C468.681,115.479,468.28,115.47,468.015,115.434 M471.466,112.233c-0.104-0.555-0.555-0.821-1.361-0.821
		c-1.205,0.106-1.914,0.746-2.125,1.938c0.356,0.092,0.803,0.133,1.309,0.133c0.347,0,0.697-0.041,1.049-0.133
		c0.749-0.211,1.129-0.582,1.129-1.104V112.233z"/>
	<path fill="#FFFFFF" d="M482.691,109.364c1.852,0.042,3.136,0.701,3.852,2.002c0.058,0.092,0.082,0.18,0.082,0.278
		c0,0.171-0.104,0.316-0.299,0.443l-1.04,0.492c-0.133,0.049-0.246,0.069-0.351,0.069c-0.229,0-0.393-0.087-0.492-0.261
		c-0.35-0.561-0.931-0.835-1.752-0.835c-1.305,0-1.982,0.963-2.02,2.886c0.037,1.885,0.715,2.83,2.02,2.83
		c0.821,0,1.402-0.279,1.752-0.831c0.1-0.179,0.263-0.255,0.492-0.255c0.104,0,0.218,0.016,0.351,0.063l1.04,0.484
		c0.194,0.128,0.299,0.274,0.299,0.449c0,0.089-0.024,0.188-0.082,0.28c-0.716,1.293-2,1.959-3.852,1.994
		c-2.99-0.059-4.498-1.74-4.505-5.016C478.193,111.119,479.701,109.429,482.691,109.364"/>
	<path fill="#FFFFFF" d="M499.242,118.837c-0.035,0.455-0.346,0.677-0.94,0.677h-0.539c-0.605,0-0.921-0.222-0.95-0.677v-0.497
		c-0.244,0.825-0.965,1.24-2.16,1.24c-2.434,0-3.655-1.599-3.655-4.778v-4.713c0.029-0.45,0.345-0.675,0.947-0.675h0.526
		c0.601,0,0.92,0.225,0.948,0.675v4.671c0,1.761,0.442,2.639,1.311,2.639c1.018-0.021,1.719-0.694,2.083-2.013v-5.297
		c0.029-0.45,0.345-0.675,0.95-0.675h0.539c0.595,0,0.905,0.225,0.94,0.675V118.837z"/>
	<path fill="#FFFFFF" d="M508.496,111.798c-1.04,0.057-1.558,0.689-1.558,1.924v5.115c-0.028,0.455-0.337,0.677-0.941,0.677h-0.541
		c-0.589,0-0.906-0.222-0.96-0.673v-8.752c0.029-0.45,0.337-0.675,0.942-0.675h0.559c0.604,0,0.913,0.238,0.941,0.724v0.995
		c0.393-1.13,1.122-1.704,2.201-1.737c0.527,0,0.792,0.194,0.792,0.578c0,0.079-0.025,0.17-0.055,0.269l-0.387,0.947
		C509.314,111.545,508.985,111.757,508.496,111.798"/>
	<path fill="#FFFFFF" d="M516.233,106.678v0.878c0,0.472-0.301,0.701-0.92,0.701h-0.591c-0.606,0-0.918-0.229-0.918-0.701v-0.878
		c0-0.481,0.312-0.727,0.918-0.727h0.591C515.933,105.951,516.233,106.196,516.233,106.678 M516.227,118.837
		c-0.027,0.455-0.335,0.677-0.94,0.677h-0.533c-0.596,0-0.918-0.222-0.948-0.677v-8.748c0.03-0.45,0.353-0.675,0.948-0.675h0.533
		c0.605,0,0.913,0.225,0.94,0.675V118.837z"/>
	<path fill="#FFFFFF" d="M521.737,111.189h-0.823c-0.366-0.015-0.556-0.246-0.556-0.682v-0.343c0-0.436,0.189-0.672,0.556-0.701
		h0.823v-1.432c0.029-0.449,0.342-0.673,0.935-0.673h0.544c0.604,0,0.924,0.224,0.944,0.673v1.432h1.229
		c0.363,0.029,0.548,0.266,0.548,0.701v0.343c0,0.436-0.185,0.667-0.548,0.682h-1.229v5.12c0,0.604,0.238,0.901,0.718,0.901
		c0.258,0,0.434-0.018,0.54-0.059c0.048-0.029,0.104-0.034,0.163-0.034c0.507,0,0.769,0.303,0.769,0.918v0.034
		c-0.021,0.795-0.208,1.234-0.581,1.326c-0.267,0.059-0.569,0.094-0.898,0.094c-2.027,0-3.072-1.026-3.133-3.086V111.189z"/>
	<path fill="#FFFFFF" d="M533.92,119.49c-2.33,0-3.487-1.558-3.487-4.665v-4.736c0.027-0.45,0.348-0.675,0.947-0.675h0.533
		c0.605,0,0.911,0.225,0.949,0.675v4.7c0,1.745,0.436,2.609,1.312,2.609c1.016-0.021,1.703-0.694,2.084-2.013v-5.297
		c0.028-0.45,0.342-0.675,0.945-0.675h0.54c0.591,0,0.905,0.225,0.934,0.675v8.298c-0.041,3.174-1.702,4.785-4.993,4.855
		c-0.456-0.016-0.676-0.223-0.676-0.64v-0.896c0.016-0.442,0.22-0.668,0.611-0.684c1.654-0.025,2.539-0.947,2.639-2.754
		C535.894,119.083,535.113,119.49,533.92,119.49"/>
	<path fill="#FFFFFF" d="M552.583,111.545v7.305c-0.077,0.444-0.407,0.664-0.98,0.664h-0.536c-0.603,0-0.902-0.22-0.902-0.673
		v-11.679c0.076-0.461,0.392-0.681,0.964-0.681h1.28c0.547,0,0.897,0.203,1.043,0.609l2.87,8.134l2.842-8.134
		c0.156-0.406,0.499-0.609,1.045-0.609h1.271c0.575,0,0.898,0.22,0.975,0.681v11.679c0,0.453-0.3,0.673-0.904,0.673h-0.54
		c-0.575,0-0.891-0.22-0.974-0.664v-7.252l-2.52,7.226c-0.155,0.342-0.493,0.518-0.99,0.518h-0.391
		c-0.514,0-0.843-0.176-0.998-0.518L552.583,111.545z"/>
	<path fill="#FFFFFF" d="M575.568,111.119v7.718c-0.024,0.455-0.333,0.677-0.936,0.677h-0.54c-0.597,0-0.903-0.164-0.933-0.507
		v-0.732c-0.323,0.871-1.187,1.32-2.604,1.327c-2.371,0-3.547-1.707-3.547-5.108c0.288-3.271,1.83-4.966,4.658-5.087
		C573.655,109.406,574.964,109.974,575.568,111.119 M569.315,114.501c0,1.854,0.55,2.769,1.636,2.769
		c1.129-0.013,1.867-0.762,2.209-2.264v-2.997c-0.244-0.281-0.757-0.411-1.529-0.411
		C570.241,111.653,569.47,112.621,569.315,114.501"/>
	<path fill="#FFFFFF" d="M580.252,106.301c0.029-0.457,0.345-0.683,0.94-0.683h0.533c0.597,0,0.914,0.226,0.948,0.683v10.009
		c0,0.604,0.229,0.901,0.716,0.901c0.264,0,0.441-0.018,0.54-0.059c0.041-0.029,0.104-0.034,0.169-0.034
		c0.511,0,0.764,0.303,0.764,0.918v0.034c-0.016,0.795-0.216,1.234-0.583,1.326c-0.265,0.059-0.566,0.094-0.895,0.094
		c-2.035,0-3.076-1.026-3.133-3.087V106.301z"/>
	<path fill="#FFFFFF" d="M597.143,111.119v7.718c-0.029,0.455-0.345,0.677-0.941,0.677h-0.539c-0.598,0-0.908-0.164-0.936-0.507
		v-0.732c-0.323,0.871-1.191,1.32-2.597,1.327c-2.379,0-3.555-1.707-3.555-5.108c0.287-3.271,1.839-4.966,4.656-5.087
		C595.231,109.406,596.539,109.974,597.143,111.119 M590.882,114.501c0,1.854,0.548,2.769,1.636,2.769
		c1.129-0.013,1.867-0.762,2.209-2.264v-2.997c-0.239-0.281-0.758-0.411-1.53-0.411C591.81,111.653,591.029,112.621,590.882,114.501
		"/>
	<path fill="#FFFFFF" d="M605.46,119.49c-2.321,0-3.485-1.558-3.485-4.665v-4.736c0.035-0.45,0.351-0.675,0.954-0.675h0.521
		c0.609,0,0.925,0.225,0.946,0.675v4.7c0,1.745,0.434,2.609,1.31,2.609c1.023-0.021,1.72-0.694,2.093-2.013v-5.297
		c0.026-0.45,0.341-0.675,0.937-0.675h0.556c0.589,0,0.892,0.225,0.926,0.675v8.298c-0.041,3.174-1.705,4.785-4.994,4.855
		c-0.455-0.016-0.68-0.223-0.68-0.64v-0.896c0.028-0.442,0.225-0.668,0.608-0.684c1.665-0.025,2.549-0.947,2.647-2.754
		C607.432,119.083,606.648,119.49,605.46,119.49"/>
	<path fill="#FFFFFF" d="M621.009,116.358c-0.056,2.008-1.094,3.062-3.137,3.167c-1.186,0-2.124-0.346-2.799-1.042
		c-0.239-0.214-0.356-0.432-0.356-0.664c0-0.305,0.202-0.567,0.603-0.76c0.47-0.209,0.812-0.316,1.03-0.316
		c0.245,0,0.453,0.088,0.611,0.257c0.191,0.27,0.486,0.41,0.882,0.41c0.486-0.046,0.732-0.357,0.732-0.925
		c-0.017-0.534-0.624-1.115-1.848-1.74c-1.229-0.615-1.844-1.472-1.871-2.574c0.04-1.688,0.946-2.61,2.72-2.757
		c1.263,0,2.211,0.384,2.817,1.166c0.11,0.146,0.157,0.301,0.157,0.456c0,0.271-0.151,0.539-0.468,0.792
		c-0.393,0.227-0.703,0.343-0.911,0.343c-0.213,0-0.404-0.092-0.55-0.259c-0.18-0.268-0.433-0.399-0.755-0.399
		c-0.338,0.028-0.509,0.204-0.521,0.542c0.012,0.375,0.607,0.859,1.818,1.463C620.369,114.12,620.979,115.069,621.009,116.358"/>
	<path fill="#FFFFFF" d="M627.925,106.678v0.878c0,0.472-0.316,0.701-0.926,0.701h-0.59c-0.616,0-0.917-0.229-0.917-0.701v-0.878
		c0-0.481,0.301-0.727,0.917-0.727h0.59C627.608,105.951,627.925,106.196,627.925,106.678 M627.912,118.837
		c-0.026,0.455-0.344,0.677-0.938,0.677h-0.535c-0.604,0-0.917-0.222-0.946-0.677v-8.748c0.029-0.45,0.343-0.675,0.946-0.675h0.535
		c0.595,0,0.912,0.225,0.938,0.675V118.837z"/>
	<path fill="#FFFFFF" d="M641.333,111.119v7.718c-0.03,0.455-0.344,0.677-0.933,0.677h-0.547c-0.599,0-0.904-0.164-0.932-0.507
		v-0.732c-0.323,0.871-1.188,1.32-2.604,1.327c-2.365,0-3.556-1.707-3.556-5.108c0.285-3.271,1.845-4.966,4.67-5.087
		C639.426,109.406,640.723,109.974,641.333,111.119 M635.08,114.501c0,1.854,0.542,2.769,1.633,2.769
		c1.127-0.013,1.861-0.762,2.209-2.264v-2.997c-0.242-0.281-0.76-0.411-1.531-0.411C635.993,111.653,635.231,112.621,635.08,114.501
		"/>
	<path fill="#FFFFFF" d="M236.252,32.409c0,2.181-1.066,3.262-3.214,3.262l-32.531,0.05c-7.907,0-11.857,1.585-11.844,4.734
		l0.022,24.815c0,3.73,4.385,5.583,13.126,5.583l31.066-0.034c2.217,0,3.333,1.228,3.339,3.725c0,2.535-1.116,3.797-3.325,3.797
		l-31.064,0.036c-4.198,0.013-7.214-0.162-9.05-0.484c-2.01-0.379-4.092-1.108-6.253-2.204c-2.482-1.306-4.209-2.63-5.199-4.026
		c-1.17-1.591-1.773-3.677-1.773-6.216l-0.036-24.936c-0.008-3.157,1.439-5.843,4.314-8.068c2.412-1.853,5.354-3.07,8.797-3.711
		c0.886-0.147,1.944-0.236,3.208-0.33c1.256-0.105,2.764-0.132,4.484-0.132l32.719-0.041
		C235.164,28.229,236.252,29.63,236.252,32.409"/>
	<path fill="#FFFFFF" d="M358.567,65.763c0.015,8.29-6.834,12.445-20.521,12.452l-13.331,0.021c-4.847,0-9.318-0.849-13.365-2.575
		c-5.24-2.218-7.862-5.422-7.862-9.619l-0.051-34.609c0-1.578,0.566-2.574,1.719-2.966c0.349-0.184,1.606-0.282,3.747-0.296
		c2.146,0,3.22,1.103,3.22,3.262v7.691l25.866-0.029c13.698-0.029,20.551,4.046,20.551,12.192L358.567,65.763z M349.923,65.48
		l-0.008-14.023c-0.019-3.398-3.921-5.087-11.734-5.087l-26.045,0.041l0.023,19.574c0.005,1.788,1.858,3.122,5.596,4.027
		c1.343,0.302,2.674,0.526,3.992,0.688c1.314,0.175,2.653,0.247,3.995,0.247l12.375-0.008c1.9,0,3.457-0.051,4.678-0.134
		c1.229-0.092,2.146-0.205,2.766-0.338C348.464,69.783,349.923,68.135,349.923,65.48"/>
	<path fill="#FFFFFF" d="M417.232,59.075c0,2.379-0.8,3.594-2.427,3.594l-43.153,0.035v0.286c0,3.74,2.188,6.132,6.586,7.19
		c0.954,0.232,2.344,0.394,4.177,0.519c1.833,0.12,4.146,0.175,6.981,0.175c2.14,0,3.204,1.342,3.204,4.021
		c0,2.174-1.064,3.256-3.204,3.256c-2.904,0-5.285-0.007-7.143-0.055c-1.855-0.022-3.252-0.099-4.212-0.211
		c-4.77-0.5-8.284-1.623-10.535-3.362c-3.215-2.496-4.827-5.424-4.827-8.804l-0.024-14.522c0-4.554,2.474-7.927,7.396-10.125
		c3.383-1.599,7.851-2.405,13.417-2.405l16.213-0.021c4.56,0,8.325,0.742,11.315,2.251c4.154,1.921,6.225,4.805,6.225,8.679
		L417.232,59.075z M408.743,55.133v-4.854c-0.007-2.955-5.885-4.434-17.658-4.429c-6.932,0.017-11.703,0.275-14.276,0.759
		c-3.643,0.694-5.461,2.042-5.461,4.047v4.512L408.743,55.133z"/>
	<path fill="#FFFFFF" d="M446.383,42.75c0,2.163-1.28,3.257-3.865,3.257c-0.356,0-0.87-0.023-1.555-0.059
		c-0.666-0.041-1.18-0.062-1.525-0.062c-6.678,0-10.004,1.662-9.996,4.989l0.035,23.978c0,1.596-0.61,2.597-1.811,3.017
		c-0.497,0.162-1.764,0.246-3.804,0.246c-2.05,0-3.08-1.096-3.08-3.291l-0.036-23.937c0-5.163,2.653-8.665,7.938-10.502
		c3.24-1.151,8.053-1.739,14.438-1.753C445.302,38.632,446.383,40.007,446.383,42.75"/>
	<path fill="#FFFFFF" d="M493.839,61.539c0.014,4.18-1.27,7.878-3.836,11.02c-2.729,3.425-6.105,5.152-10.175,5.152l-28.098,0.041
		l-0.016-9.844l20.369-0.008c0.854-0.011,1.544-0.351,2.076-1.059c0.525-0.695,0.799-1.474,0.799-2.329
		c0-0.997-0.743-2.082-2.225-3.277c-1.647-1.038-3.662-2.385-6.052-4.026c-2.388-1.641-5.199-3.578-8.449-5.795
		c-4.355-3.228-6.546-7.605-6.553-13.125c0-4.323,1.217-8.132,3.649-11.395c2.715-3.536,6.189-5.326,10.409-5.326l28.041-0.028
		l0.017,9.832l-20.351,0.018c-0.801,0.018-1.462,0.333-2.01,0.984c-0.525,0.638-0.798,1.396-0.798,2.239
		c0,1.073,0.632,2.034,1.873,2.875l11.562,8.624c3.185,2.343,5.508,4.518,6.966,6.531C492.915,55.239,493.832,58.22,493.839,61.539"
		/>
	<path fill="#FFFFFF" d="M531.093,77.652l-2.47-7.029l-22.466,0.037l-2.418,7.034h-9.795l16.816-48.401
		c0.794-2.289,2.204-4.188,4.227-5.639c1.992-1.433,4.263-2.14,6.779-2.14c2.41,0,4.649,0.685,6.802,2.081
		c2.16,1.404,3.641,3.187,4.447,5.398l17.05,48.638L531.093,77.652z M517.341,38.547l-7.744,22.262l15.595-0.015L517.341,38.547z"/>
	<path fill="#FFFFFF" d="M567.604,54.453l0.033,23.16l-17.572,0.018l-0.064-49.164c0-2.241,1.24-4.05,3.747-5.398
		c2.053-1.064,4.31-1.6,6.783-1.613l31.6-0.042l0.014,9.836l-21.769,0.028c-1.86,0-2.806,0.715-2.806,2.105l0.018,11.238
		l24.572-0.041l0.014,9.844L567.604,54.453z"/>
	<path fill="#FFFFFF" d="M607.994,77.562c-2.465,0.01-4.731-0.534-6.784-1.592c-2.506-1.346-3.754-3.151-3.754-5.432L597.4,28.409
		c0-2.246,1.242-4.054,3.744-5.395c2.051-1.06,4.315-1.604,6.795-1.604l31.599-0.037l0.013,9.829l-21.775,0.028
		c-1.873,0-2.783,0.708-2.783,2.106l0.001,11.23l24.564-0.027l0.022,9.822l-24.563,0.041v11.225c0,1.403,0.939,2.106,2.8,2.086
		l21.764-0.021l0.013,9.844L607.994,77.562z"/>
	<path fill="#FFFFFF" d="M296.876,42.848c0-1.453-0.533-2.393-1.731-2.911c-0.252-0.141-1.579-0.141-3.7-0.141
		c-2.125,0-3.052,0.94-3.052,3.067l0.035,27.972l-25.34,0.041c-7.029,0.014-10.615-1.438-10.615-4.364l-0.027-23.623
		c0-2.111-1.068-3.037-3.187-3.037c-2.131,0-3.325,0-3.724,0.138c-1.046,0.542-1.719,1.462-1.704,2.913l0.02,23.624
		c0,7.555,6.37,11.384,19.243,11.372l25.35-0.03v9.157c-0.127,2.126-3.052,3.453-9.016,3.594
		c-7.303,0.019-11.416,0.019-12.335,0.019h-5.17c-2.139,0.008-3.185,1.068-3.185,3.199c0,1.452,0.133,2.378,0.539,3.032
		c0.262,0.404,0.647,0.674,1.188,0.934c0.414,0.146,0.939,0.146,1.458,0.146c2.919-0.013,8.756-0.029,17.519-0.157
		c0.919-0.009,1.712-0.009,2.384-0.009c2.521-0.271,4.379-0.526,5.572-0.802c6.217-1.593,9.274-4.924,9.536-9.969l-0.009-9.009
		v-0.273L296.876,42.848z"/>
</g>
<g>
	<g>
		<path fill="#FFFFFF" d="M154.803,88.042c-0.009-0.704-0.022-1.412-0.031-2.114c-0.17-11.332-0.363-23.603-0.56-36.591
			c0.044-13.163-5.784-27.069-16.721-36.59c-5.43-4.762-12.137-8.275-19.381-10.157l-1.362-0.372l-1.407-0.25l-2.827-0.475
			c-1.899-0.229-3.598-0.292-5.6-0.421c-3.688-0.067-7.383-0.129-11.106-0.192C80.941,0.591,65.83,0.3,50.722,0.004
			c-7.97-0.104-15.994,1.761-23.158,5.358c-7.142,3.66-13.289,9.126-17.957,15.591c-2.213,3.315-4.244,6.77-5.627,10.511
			c-0.354,0.927-0.73,1.846-1.053,2.787l-0.792,2.867c-0.605,1.855-0.829,3.96-1.183,5.973c-0.21,1.057-0.193,1.881-0.277,2.809
			l-0.189,2.72c-0.031,1.877-0.067,3.745-0.103,5.613c-0.049,3.589-0.104,7.159-0.148,10.703C0.162,72.016,0.09,78.982,0.028,85.798
			l-0.027,2.549c-0.009,0.852,0.058,1.828,0.089,2.737l0.121,2.759l0.381,2.72c0.144,0.905,0.233,1.814,0.426,2.698l0.649,2.639
			c0.376,1.778,1.021,3.45,1.631,5.129c2.509,6.681,6.367,12.622,11.035,17.465c4.709,4.798,10.179,8.548,15.937,10.968
			c2.885,1.188,5.784,2.19,8.705,2.805c1.416,0.39,2.984,0.543,4.485,0.739c0.752,0.094,1.5,0.188,2.245,0.277
			c0.659,0.015,1.308,0.041,1.953,0.059c0.65,0.014,1.29,0.027,1.931,0.049l1.17,0.023l0.945-0.019
			c1.264-0.035,2.5-0.071,3.719-0.098c2.451-0.073,4.825-0.13,7.124-0.198c9.212-0.305,17.231-0.564,23.84-0.778
			c13.226-0.35,20.775-0.553,20.775-0.553s0.502-0.03,1.469-0.098c0.963-0.095,2.402-0.09,4.252-0.367
			c3.687-0.529,9.131-1.693,15.336-4.825c3.136-1.488,6.295-3.701,9.534-6.304c3.087-2.778,6.254-5.999,8.893-10.01
			c2.625-3.996,4.852-8.602,6.348-13.727c0.314-1.3,0.632-2.613,0.955-3.942c0.225-1.358,0.395-2.765,0.592-4.163
			c0.206-1.411,0.143-2.742,0.228-4.136l0.036-1.039l0.004-0.264l0.005-0.332L154.803,88.042z M152.209,85.928
			c-0.009,0.702-0.022,1.41-0.031,2.114l-0.009,0.52l-0.009,0.196l-0.013,0.261l-0.072,1.039c-0.125,1.367-0.107,2.796-0.345,4.063
			c-0.22,1.272-0.444,2.532-0.659,3.773c-0.34,1.231-0.681,2.454-1.008,3.664c-1.545,4.744-3.821,8.938-6.384,12.536
			c-2.581,3.611-5.627,6.456-8.539,8.889c-3.069,2.253-6.008,4.167-8.916,5.395c-5.727,2.607-10.637,3.449-13.947,3.79
			c-1.662,0.184-2.953,0.121-3.813,0.184c-0.855,0.026-1.304,0.041-1.304,0.041s-7.549-0.202-20.771-0.551
			c-6.613-0.216-14.632-0.479-23.844-0.771c-2.298-0.071-4.673-0.134-7.124-0.206c-1.218-0.026-2.455-0.062-3.719-0.09l-0.936-0.021
			c0.022,0,0.062,0,0.098,0l-0.125-0.015l-0.233-0.018l-0.479-0.036c-0.632-0.048-1.268-0.098-1.918-0.147
			c-0.636-0.054-1.286-0.104-1.931-0.152c-0.551-0.111-1.102-0.215-1.657-0.327c-1.111-0.224-2.218-0.358-3.41-0.762
			c-2.37-0.568-4.713-1.434-7.043-2.455c-9.238-4.121-17.921-12.191-22.263-23.118c-0.515-1.356-1.098-2.72-1.416-4.167L9.804,97.4
			c-0.17-0.726-0.251-1.482-0.386-2.217l-0.367-2.235l-0.134-2.272c-0.036-0.779-0.116-1.482-0.129-2.329l-0.023-2.549
			C8.697,78.982,8.63,72.016,8.562,64.937c-0.053-3.544-0.107-7.114-0.157-10.703c-0.031-1.729-0.062-3.472-0.094-5.215l0.085-2.724
			c0.053-0.878,0.009-1.886,0.166-2.621c0.273-1.577,0.323-3.136,0.802-4.798l0.587-2.46c0.246-0.806,0.551-1.6,0.815-2.406
			c1.062-3.23,2.71-6.255,4.507-9.185c3.831-5.726,9.028-10.654,15.144-14.135c6.151-3.41,13.162-5.372,20.304-5.578
			c15.108-0.287,30.22-0.578,45.09-0.865c7.396,0,14.973-0.811,21.693,0.869c6.904,1.546,13.414,4.655,18.795,9.046
			c5.367,4.408,9.615,9.986,12.477,16.053c0.408,0.739,0.699,1.528,0.972,2.316l0.87,2.343c0.515,1.582,0.86,3.204,1.291,4.786
			c0.232,1.626,0.497,3.244,0.681,4.842c0.058,1.626,0.157,3.226,0.179,4.834C152.568,62.325,152.385,74.596,152.209,85.928z"/>
	</g>
	<path fill="#FFFFFF" d="M120.436,29.551c-1.954,0.421-4.48,1.564-6.017,2.603c-1.828,1.241-3.136,3.11-3.956,4.799
		c-0.757,1.568-1.089,3.105-1.219,4.019c-0.085,0.058-0.636,0.466-0.847,0.626c-2.876-0.524-7.227-0.009-11.259,1.622
		c-2.648,1.066-5.292,2.608-6.945,3.975c-1.6,1.335-2.612,2.491-3.221,3.571c-0.493,0.873-0.735,1.774-0.721,2.759
		c0.013,1.402,0.555,2.787,1.577,3.508c1.828,1.313,4.44,0.82,6.071-0.367c1.08-0.788,2.267-2.194,3.337-3.548
		c0.815-1.026,1.586-2.011,2.151-2.679c1.304-1.537,3.746-4.476,6.102-5.838c1.294-0.753,2.437-0.78,3.418-0.152
		c-0.027,0.789-0.027,1.312-0.027,2.182c-0.009,2.617,0.488,7.617,1.688,11.076c1.398,4.01,2.886,6.608,5.018,8.83
		c2.231,2.321,5.422,3.942,7.809,2.822c2.433-1.142,3.141-5.25,2.017-9.574c-1.026-3.946-3.857-8.015-5.601-10.134
		c-1.904-2.321-3.45-3.602-4.78-4.691c-1.026-0.842-2.353-1.927-4.404-2.742c0.107-0.6,0.511-1.725,0.686-2.142
		c0.292-0.134,0.502-0.228,0.829-0.354c1.098-0.412,2.994-1.025,5.332-1.563c2.787-0.641,5.578-1.366,7.621-2.047
		c1.976-0.663,3.423-1.425,4.099-2.034c0.694-0.619,0.91-1.25,0.891-1.733c-0.009-0.292-0.161-0.749-0.434-1.116
		c-0.73-0.977-2.191-1.729-4.834-1.967c-0.38-0.037-0.779-0.054-1.2-0.054C122.635,29.207,121.556,29.31,120.436,29.551"/>
	<path fill="#FFFFFF" d="M47.828,57.817c-0.977,0-2.653,0-2.653,0.413v12.585c-0.511-0.815-2.957-3.159-7.544-3.159
		c-5.708,0-10.502,3.316-10.502,10.301v8.508c0,6.984,4.843,10.246,10.148,10.246c4.279,0,6.931-2.19,8.154-4.022v3.1
		c0,0.413,1.474,0.413,2.441,0.413s2.603,0,2.603-0.413V58.23C50.476,57.817,48.796,57.817,47.828,57.817 M45.175,85.144
		c0,3.816-2.396,6.872-6.527,6.872c-3.669,0-6.214-1.778-6.214-6.416v-6.988c0-4.589,2.446-6.421,6.013-6.421
		c4.18,0,6.729,2.707,6.729,6.783V85.144z"/>
	<path fill="#FFFFFF" d="M59.902,68.217c-0.968,0-2.652,0-2.652,0.412v27.159c0,0.413,1.685,0.413,2.652,0.413s2.647,0,2.647-0.413
		V68.629C62.55,68.217,60.87,68.217,59.902,68.217"/>
	<path fill="#FFFFFF" d="M88.293,68.167c-1.021,0-2.549,0-2.549,0.407v2.904c-1.169-1.833-3.826-3.772-8.056-3.772
		c-5.35,0-10.192,3.267-10.192,10.251v7.947c0,6.985,4.641,10.345,10.192,10.345c3.521,0,6.12-1.316,7.854-3.561v3.1
		c0,4.185-2.5,6.631-6.681,6.631c-3.158,0-5.653-1.169-7.795-2.446c-0.516-0.354-2.858,3.521-2.294,3.925
		c1.681,1.066,5.453,2.854,9.888,2.854c5.963,0,12.231-3.065,12.231-12.492V68.574C90.892,68.167,89.261,68.167,88.293,68.167
		 M85.543,84.628c0,4.13-2.5,6.936-6.631,6.936c-3.562,0-6.066-1.832-6.066-6.42v-6.331c0-4.633,2.554-6.412,6.066-6.412
		c4.18,0,6.631,3.052,6.631,6.874V84.628z"/>
	<path fill="#FFFFFF" d="M99.149,68.217c-0.972,0-2.652,0-2.652,0.412v27.159c0,0.413,1.68,0.413,2.652,0.413
		c0.968,0,2.647,0,2.647-0.413V68.629C101.797,68.217,100.117,68.217,99.149,68.217"/>
</g>
</svg>
