{
	"DOMDocument" : {
		"Shape" : [
			{
				"charid" : "33",
				"path" : [
					{
						"color" : "#ffffff",
						"colorOpacity" : "1",
						"d" : "M 48.95 -20.25 l -28.65 -28.65 l -40.55 0 l -28.65 28.65 l 0 40.55 l 28.65 28.65 l 40.55 0 l 28.65 -28.65 l 0 -40.55 M 19.5 -47 l 27.55 27.55 l 0 38.95 l -27.55 27.55 l -38.95 0 l -27.55 -27.55 l 0 -38.95 l 27.55 -27.55 l 38.95 0 ",
						"pathType" : "Fill",
						"stroke" : "none"
					}
				]
			},
			{
				"charid" : "34",
				"path" : [
					{
						"color" : "#ffffff",
						"colorOpacity" : "1",
						"d" : "M -20.3 48.9 l 0.85 -1.85 l -1.4 -1.4 l -0.65 2.05 l 0 0.05 l 1.2 1.15 ",
						"pathType" : "Fill",
						"stroke" : "none"
					}
				]
			},
			{
				"charid" : "35",
				"path" : [
					{
						"color" : "#ffffff",
						"colorOpacity" : "1",
						"d" : "M -27.4 39.1 l -0.95 1.75 l 0 0.05 l 8.1 8.05 l 0.8 -1.9 l -7.95 -7.95 ",
						"pathType" : "Fill",
						"stroke" : "none"
					}
				]
			},
			{
				"charid" : "36",
				"path" : [
					{
						"color" : "#ffffff",
						"colorOpacity" : "1",
						"d" : "M -33.9 32.6 l -1.3 1.4 l 0 0.05 l 14.95 14.9 l 0.8 -1.9 l -14.45 -14.45 ",
						"pathType" : "Fill",
						"stroke" : "none"
					}
				]
			},
			{
				"charid" : "37",
				"path" : [
					{
						"color" : "#ffffff",
						"colorOpacity" : "1",
						"d" : "M -19.45 47.05 l -21 -21 l -1.6 1.05 l 0 0.05 l 21.8 21.8 l 0.8 -1.9 ",
						"pathType" : "Fill",
						"stroke" : "none"
					}
				]
			},
			{
				"charid" : "38",
				"path" : [
					{
						"color" : "#ffffff",
						"colorOpacity" : "1",
						"d" : "M -20.3 48.9 l 0.85 -1.85 l -27.55 -27.55 l -1.9 0.7 l 0 0.1 l 28.6 28.6 ",
						"pathType" : "Fill",
						"stroke" : "none"
					}
				]
			},
			{
				"charid" : "39",
				"path" : [
					{
						"color" : "#ffffff",
						"colorOpacity" : "1",
						"d" : "M -48.9 20.2 l 1.9 -0.7 l 0 -0.7 l -1.9 0 l 0 1.4 ",
						"pathType" : "Fill",
						"stroke" : "none"
					}
				]
			},
			{
				"charid" : "40",
				"path" : [
					{
						"color" : "#ffffff",
						"colorOpacity" : "1",
						"d" : "M -47 9.25 l -1.9 -0.2 l 0 11.2 l 1.9 -0.75 l 0 -10.25 ",
						"pathType" : "Fill",
						"stroke" : "none"
					}
				]
			},
			{
				"charid" : "41",
				"path" : [
					{
						"color" : "#ffffff",
						"colorOpacity" : "1",
						"d" : "M -47 -0.3 l -1.9 -0.4 l 0 20.95 l 1.9 -0.75 l 0 -19.8 ",
						"pathType" : "Fill",
						"stroke" : "none"
					}
				]
			},
			{
				"charid" : "43",
				"path" : [
					{
						"color" : "#ffffff",
						"colorOpacity" : "1",
						"d" : "M -47 -19.45 l -1.9 -0.75 l 0 40.4 l 1.9 -0.7 l 0 -38.95 ",
						"pathType" : "Fill",
						"stroke" : "none"
					}
				]
			},
			{
				"charid" : "44",
				"path" : [
					{
						"color" : "#ffffff",
						"colorOpacity" : "1",
						"d" : "M -48.9 -20.2 l 1.9 0.75 l 0.85 -0.9 l -1.55 -1.1 l -0.05 0 l -1.15 1.2 l 0 0.05 ",
						"pathType" : "Fill",
						"stroke" : "none"
					}
				]
			},
			{
				"charid" : "45",
				"path" : [
					{
						"color" : "#ffffff",
						"colorOpacity" : "1",
						"d" : "M -40.85 -28.3 l -8.05 8.05 l 0 0.05 l 1.9 0.75 l 7.55 -7.55 l -1.35 -1.3 l -0.05 0 ",
						"pathType" : "Fill",
						"stroke" : "none"
					}
				]
			},
			{
				"charid" : "46",
				"path" : [
					{
						"color" : "#ffffff",
						"colorOpacity" : "1",
						"d" : "M -48.9 -20.2 l 1.9 0.75 l 14.2 -14.2 l -1.15 -1.5 l -0.05 0 l -14.9 14.9 l 0 0.05 ",
						"pathType" : "Fill",
						"stroke" : "none"
					}
				]
			},
			{
				"charid" : "47",
				"path" : [
					{
						"color" : "#ffffff",
						"colorOpacity" : "1",
						"d" : "M -48.9 -20.2 l 1.9 0.75 l 20.9 -20.9 l -0.95 -1.7 l -0.05 0 l -21.8 21.8 l 0 0.05 ",
						"pathType" : "Fill",
						"stroke" : "none"
					}
				]
			},
			{
				"charid" : "48",
				"path" : [
					{
						"color" : "#ffffff",
						"colorOpacity" : "1",
						"d" : "M -48.9 -20.2 l 1.9 0.75 l 27.55 -27.55 l -0.75 -1.9 l -0.05 0 l -28.65 28.65 l 0 0.05 ",
						"pathType" : "Fill",
						"stroke" : "none"
					}
				]
			},
			{
				"charid" : "49",
				"path" : [
					{
						"color" : "#ffffff",
						"colorOpacity" : "1",
						"d" : "M -20.2 -48.9 l 0.75 1.9 l 0.5 0 l 0 -1.85 l -1.25 -0.05 ",
						"pathType" : "Fill",
						"stroke" : "none"
					}
				]
			},
			{
				"charid" : "50",
				"path" : [
					{
						"color" : "#ffffff",
						"colorOpacity" : "1",
						"d" : "M -14.45 -48.85 l -5.75 -0.05 l 0.75 1.9 l 5 0 l 0 -1.85 ",
						"pathType" : "Fill",
						"stroke" : "none"
					}
				]
			},
			{
				"charid" : "51",
				"path" : [
					{
						"color" : "#ffffff",
						"colorOpacity" : "1",
						"d" : "M -9.95 -48.85 l -10.25 -0.05 l 0.75 1.9 l 9.5 0 l 0 -1.85 ",
						"pathType" : "Fill",
						"stroke" : "none"
					}
				]
			},
			{
				"charid" : "53",
				"path" : [
					{
						"color" : "#ffffff",
						"colorOpacity" : "1",
						"d" : "M -20.2 -48.9 l 0.75 1.9 l 18.5 0 l 0 -1.9 l -19.25 0 ",
						"pathType" : "Fill",
						"stroke" : "none"
					}
				]
			},
			{
				"charid" : "54",
				"path" : [
					{
						"color" : "#ffffff",
						"colorOpacity" : "1",
						"d" : "M 19.5 -47 l 0.85 -1.85 l -1.8 0 l 0 1.85 l 0.95 0 ",
						"pathType" : "Fill",
						"stroke" : "none"
					}
				]
			},
			{
				"charid" : "55",
				"path" : [
					{
						"color" : "#ffffff",
						"colorOpacity" : "1",
						"d" : "M 20.35 -48.85 l -6.65 0 l 0 1.85 l 5.8 0 l 0.85 -1.85 ",
						"pathType" : "Fill",
						"stroke" : "none"
					}
				]
			},
			{
				"charid" : "56",
				"path" : [
					{
						"color" : "#ffffff",
						"colorOpacity" : "1",
						"d" : "M 20.35 -48.85 l -11.55 0 l 0 1.85 l 10.7 0 l 0.85 -1.85 ",
						"pathType" : "Fill",
						"stroke" : "none"
					}
				]
			},
			{
				"charid" : "58",
				"path" : [
					{
						"color" : "#ffffff",
						"colorOpacity" : "1",
						"d" : "M 19.5 -47 l 0.85 -1.85 l -21.3 -0.05 l 0 1.9 l 20.45 0 ",
						"pathType" : "Fill",
						"stroke" : "none"
					}
				]
			},
			{
				"charid" : "59",
				"path" : [
					{
						"color" : "#ffffff",
						"colorOpacity" : "1",
						"d" : "M 47.05 -19.45 l 1.8 -0.9 l -0.3 -0.35 l -1.95 0.75 l 0.45 0.5 ",
						"pathType" : "Fill",
						"stroke" : "none"
					}
				]
			},
			{
				"charid" : "60",
				"path" : [
					{
						"color" : "#ffffff",
						"colorOpacity" : "1",
						"d" : "M 48.9 -20.3 l -7.4 -7.45 l -1.65 1.05 l 7.2 7.25 l 1.85 -0.85 ",
						"pathType" : "Fill",
						"stroke" : "none"
					}
				]
			},
			{
				"charid" : "61",
				"path" : [
					{
						"color" : "#ffffff",
						"colorOpacity" : "1",
						"d" : "M 34.45 -34.75 l -1.4 1.3 l 14 14 l 1.85 -0.85 l -14.45 -14.45 ",
						"pathType" : "Fill",
						"stroke" : "none"
					}
				]
			},
			{
				"charid" : "62",
				"path" : [
					{
						"color" : "#ffffff",
						"colorOpacity" : "1",
						"d" : "M 27.4 -41.8 l -1.1 1.55 l 20.75 20.8 l 1.85 -0.85 l -21.5 -21.5 ",
						"pathType" : "Fill",
						"stroke" : "none"
					}
				]
			},
			{
				"charid" : "63",
				"path" : [
					{
						"color" : "#ffffff",
						"colorOpacity" : "1",
						"d" : "M 20.35 -48.85 l -0.85 1.85 l 27.55 27.55 l 1.8 -0.9 l -28.5 -28.5 ",
						"pathType" : "Fill",
						"stroke" : "none"
					}
				]
			},
			{
				"charid" : "64",
				"path" : [
					{
						"color" : "#ffffff",
						"colorOpacity" : "1",
						"d" : "M 48.9 20.35 l 0.05 -0.05 l 0 -0.2 l -0.05 -0.8 l -1.85 -0.2 l 0 0.4 l 1.85 0.85 ",
						"pathType" : "Fill",
						"stroke" : "none"
					}
				]
			},
			{
				"charid" : "65",
				"path" : [
					{
						"color" : "#ffffff",
						"colorOpacity" : "1",
						"d" : "M 48.9 9.4 l -1.85 0.05 l 0 10.05 l 1.85 0.85 l 0.05 -0.05 l 0 -10.3 l -0.05 -0.6 ",
						"pathType" : "Fill",
						"stroke" : "none"
					}
				]
			},
			{
				"charid" : "66",
				"path" : [
					{
						"color" : "#ffffff",
						"colorOpacity" : "1",
						"d" : "M 48.9 -0.5 l -1.85 0.35 l 0 19.65 l 1.85 0.85 l 0.05 -0.05 l 0 -20.35 l -0.05 -0.45 ",
						"pathType" : "Fill",
						"stroke" : "none"
					}
				]
			},
			{
				"charid" : "67",
				"path" : [
					{
						"color" : "#ffffff",
						"colorOpacity" : "1",
						"d" : "M 48.9 -10.4 l -1.85 0.6 l 0 29.3 l 1.85 0.85 l 0.05 -0.05 l 0 -30.45 l -0.05 -0.25 ",
						"pathType" : "Fill",
						"stroke" : "none"
					}
				]
			},
			{
				"charid" : "69",
				"path" : [
					{
						"color" : "#ffffff",
						"colorOpacity" : "1",
						"d" : "M 19.5 47.05 l 0.85 1.85 l 0.8 -0.8 l -1.05 -1.6 l -0.6 0.55 ",
						"pathType" : "Fill",
						"stroke" : "none"
					}
				]
			},
			{
				"charid" : "70",
				"path" : [
					{
						"color" : "#ffffff",
						"colorOpacity" : "1",
						"d" : "M 26.85 39.75 l -7.35 7.3 l 0.85 1.85 l 7.75 -7.75 l -1.25 -1.4 ",
						"pathType" : "Fill",
						"stroke" : "none"
					}
				]
			},
			{
				"charid" : "71",
				"path" : [
					{
						"color" : "#ffffff",
						"colorOpacity" : "1",
						"d" : "M 33.6 33 l -14.1 14.05 l 0.85 1.85 l 14.7 -14.65 l -1.45 -1.25 ",
						"pathType" : "Fill",
						"stroke" : "none"
					}
				]
			},
			{
				"charid" : "72",
				"path" : [
					{
						"color" : "#ffffff",
						"colorOpacity" : "1",
						"d" : "M 40.3 26.25 l -20.8 20.8 l 0.85 1.85 l 21.6 -21.6 l -1.65 -1.05 ",
						"pathType" : "Fill",
						"stroke" : "none"
					}
				]
			},
			{
				"charid" : "73",
				"path" : [
					{
						"color" : "#ffffff",
						"colorOpacity" : "1",
						"d" : "M 48.9 20.35 l -1.85 -0.85 l -27.55 27.55 l 0.85 1.85 l 28.55 -28.55 ",
						"pathType" : "Fill",
						"stroke" : "none"
					}
				]
			},
			{
				"charid" : "75",
				"path" : [
					{
						"color" : "#ffffff",
						"colorOpacity" : "1",
						"d" : "M -19.45 47.05 l -0.8 1.9 l 10.5 0.05 l 0.05 -0.05 l 0.45 -1.85 l -10.2 -0.05 ",
						"pathType" : "Fill",
						"stroke" : "none"
					}
				]
			},
			{
				"charid" : "76",
				"path" : [
					{
						"color" : "#ffffff",
						"colorOpacity" : "1",
						"d" : "M 0.35 48.95 l 0 -1.85 l -19.8 -0.05 l -0.8 1.9 l 20.55 0.05 l 0.05 -0.05 ",
						"pathType" : "Fill",
						"stroke" : "none"
					}
				]
			},
			{
				"charid" : "77",
				"path" : [
					{
						"color" : "#ffffff",
						"colorOpacity" : "1",
						"d" : "M 10.35 48.9 l -0.45 -1.85 l -29.35 0 l -0.8 1.9 l 30.55 0 l 0.05 -0.05 ",
						"pathType" : "Fill",
						"stroke" : "none"
					}
				]
			},
			{
				"charid" : "78",
				"path" : [
					{
						"color" : "#ffffff",
						"colorOpacity" : "1",
						"d" : "M 20.3 48.95 l 0.05 -0.05 l -0.85 -1.85 l -38.95 0 l -0.85 1.85 l 0.05 0.05 l 40.55 0 ",
						"pathType" : "Fill",
						"stroke" : "none"
					}
				]
			},
			{
				"charid" : "23",
				"path" : [
					{
						"color" : "#ffffff",
						"colorOpacity" : "1",
						"d" : "M 98.45 30.45 l -1.1 -1.15 l -0.85 0.4 l 0.95 1.8 l 1 -0.4 l 0 -0.65 ",
						"pathType" : "Fill",
						"stroke" : "none"
					}
				]
			},
			{
				"charid" : "28",
				"path" : [
					{
						"color" : "#ffffff",
						"colorOpacity" : "1",
						"d" : "M 1.5 68 l 0 1.5 l 0.6 0.5 l 0.75 -0.55 l 0 -2.25 l -1.35 0.8 ",
						"pathType" : "Fill",
						"stroke" : "none"
					}
				]
			},
			{
				"charid" : "1",
				"path" : [
					{
						"color" : "#ffffff",
						"colorOpacity" : "1",
						"d" : "M 782.85 524.05 q -1.25 0 -1.9 0.8 q -0.65 0.8 -0.65 2.3 l 0 1.25 q 0 1.35 0.7 2.15 q 0.65 0.8 1.85 0.8 q 1.25 0 1.9 -0.8 q 0.65 -0.7 0.65 -2.2 l 0 -1.2 q 0 -1.5 -0.65 -2.3 q -0.75 -0.8 -1.9 -0.8 M 782 525.7 q 0.3 -0.45 0.85 -0.45 q 0.55 0 0.85 0.45 q 0.3 0.55 0.3 1.45 l 0 1.25 q 0 0.9 -0.3 1.35 q -0.3 0.4 -0.85 0.4 q -0.55 0 -0.85 -0.45 q -0.25 -0.35 -0.25 -1.35 l 0 -1.25 q 0 -0.9 0.25 -1.4 ",
						"pathType" : "Fill",
						"stroke" : "none"
					}
				]
			},
			{
				"charid" : "2",
				"path" : [
					{
						"color" : "#ffffff",
						"colorOpacity" : "1",
						"d" : "M 779.75 525.35 l 0 -1.2 l -4.95 0 l 0 1.2 l 1.75 0 l 0 5.9 l 1.4 0 l 0 -5.9 l 1.8 0 ",
						"pathType" : "Fill",
						"stroke" : "none"
					}
				]
			},
			{
				"charid" : "3",
				"path" : [
					{
						"color" : "#ffffff",
						"colorOpacity" : "1",
						"d" : "M 769.65 531.25 l 1.4 0 l 1.3 -7.1 l -1.45 0 l -0.65 4.45 l -0.85 -4.45 l -1.2 0 l -0.85 4.45 l -0.65 -4.45 l -1.45 0 l 1.3 7.1 l 1.45 0 l 0.8 -4.2 l 0.85 4.2 ",
						"pathType" : "Fill",
						"stroke" : "none"
					}
				]
			},
			{
				"charid" : "5",
				"path" : [
					{
						"color" : "#ffffff",
						"colorOpacity" : "1",
						"d" : "M 758.45 524.15 l -1.45 0 l 0 2.85 l -2.1 0 l 0 -2.85 l -1.45 0 l 0 7.1 l 1.45 0 l 0 -3.05 l 2.1 0 l 0 3.05 l 1.45 0 l 0 -7.1 ",
						"pathType" : "Fill",
						"stroke" : "none"
					}
				]
			},
			{
				"charid" : "6",
				"path" : [
					{
						"color" : "#ffffff",
						"colorOpacity" : "1",
						"d" : "M 746.45 526.6 l 2.1 4.65 l 1.45 0 l 0 -7.1 l -1.45 0 l 0 4.65 l -2.1 -4.65 l -1.45 0 l 0 7.1 l 1.45 0 l 0 -4.65 ",
						"pathType" : "Fill",
						"stroke" : "none"
					}
				]
			},
			{
				"charid" : "7",
				"path" : [
					{
						"color" : "#ffffff",
						"colorOpacity" : "1",
						"d" : "M 741.8 524.15 l -2.3 0 l 0 7.1 l 1.4 0 l 0 -2.6 l 0.75 0 l 1.05 2.6 l 1.55 0 l 0 -0.05 l -1.25 -2.9 q 1.05 -0.6 1.05 -2 q 0 -1 -0.6 -1.6 q -0.65 -0.55 -1.65 -0.55 M 740.9 525.35 l 0.85 0 q 0.85 0 0.85 1.05 q 0 0.55 -0.2 0.8 q -0.25 0.25 -0.65 0.25 l -0.85 0 l 0 -2.1 ",
						"pathType" : "Fill",
						"stroke" : "none"
					}
				]
			},
			{
				"charid" : "8",
				"path" : [
					{
						"color" : "#ffffff",
						"colorOpacity" : "1",
						"d" : "M 736.6 524.15 l -1.35 0 l -2.2 7.1 l 1.5 0 l 0.4 -1.45 l 1.95 0 l 0.4 1.45 l 1.5 0 l -2.2 -7.1 M 735.25 528.6 l 0.65 -2.55 l 0.7 2.55 l -1.35 0 ",
						"pathType" : "Fill",
						"stroke" : "none"
					}
				]
			},
			{
				"charid" : "9",
				"path" : [
					{
						"color" : "#ffffff",
						"colorOpacity" : "1",
						"d" : "M 728.6 524.15 l 0 7.1 l 4.1 0 l 0 -1.2 l -2.65 0 l 0 -1.85 l 2.25 0 l 0 -1.2 l -2.25 0 l 0 -1.65 l 2.65 0 l 0 -1.2 l -4.1 0 ",
						"pathType" : "Fill",
						"stroke" : "none"
					}
				]
			},
			{
				"charid" : "10",
				"path" : [
					{
						"color" : "#ffffff",
						"colorOpacity" : "1",
						"d" : "M 725.25 530.05 l 0 -5.9 l -1.45 0 l 0 7.1 l 3.95 0 l 0 -1.2 l -2.5 0 ",
						"pathType" : "Fill",
						"stroke" : "none"
					}
				]
			},
			{
				"charid" : "11",
				"path" : [
					{
						"color" : "#ffffff",
						"colorOpacity" : "1",
						"d" : "M 777.25 535.1 l 0 9.25 l 1.9 0 l -0.2 -6.35 l 1.85 6.35 l 1.3 0 l 1.8 -6.35 l -0.15 6.35 l 1.85 0 l 0 -9.25 l -2.4 0 l -1.75 6.65 l -1.75 -6.65 l -2.45 0 ",
						"pathType" : "Fill",
						"stroke" : "none"
					}
				]
			},
			{
				"charid" : "15",
				"path" : [
					{
						"color" : "#ffffff",
						"colorOpacity" : "1",
						"d" : "M 747.35 535.1 l -3.15 0 l 0 9.25 l 1.9 0 l 0 -3.25 l 1.2 0 q 1.35 0 2.25 -0.8 q 0.8 -0.8 0.8 -2.15 q 0 -1.4 -0.8 -2.2 q -0.8 -0.85 -2.2 -0.85 M 746.1 536.65 l 1.3 0 q 0.5 0 0.8 0.4 q 0.3 0.45 0.3 1.1 q 0 0.7 -0.3 1.05 q -0.3 0.3 -0.85 0.3 l -1.25 0 l 0 -2.85 ",
						"pathType" : "Fill",
						"stroke" : "none"
					}
				]
			},
			{
				"charid" : "18",
				"path" : [
					{
						"color" : "#ffffff",
						"colorOpacity" : "1",
						"d" : "M 724.35 536.5 q 0.5 0 0.8 0.35 q 0.25 0.25 0.25 0.95 l 1.9 0 q 0 -0.8 -0.4 -1.45 q -0.3 -0.65 -1 -1.05 q -0.8 -0.35 -1.5 -0.35 q -1.2 0 -2.15 0.7 q -0.8 0.75 -0.8 1.9 q 0 1 0.6 1.65 q 0.55 0.7 2 1.25 q 0.75 0.3 1.05 0.6 q 0.3 0.3 0.3 0.85 q 0 1.05 -1 1.05 q -0.65 0 -1 -0.35 q -0.3 -0.35 -0.3 -1.2 l -1.9 0 q 0 1 0.45 1.65 q 0.35 0.65 1.15 1.05 q 0.7 0.35 1.6 0.35 q 1.4 0 2.1 -0.65 q 0.75 -0.75 0.75 -1.9 q 0 -1.1 -0.6 -1.8 q -0.6 -0.75 -1.95 -1.2 q -0.9 -0.45 -1.1 -0.65 q -0.3 -0.3 -0.3 -0.7 q 0 -0.5 0.3 -0.75 q 0.25 -0.3 0.75 -0.3 ",
						"pathType" : "Fill",
						"stroke" : "none"
					}
				]
			},
			{
				"charid" : "24",
				"path" : [
					{
						"color" : "#ffffff",
						"colorOpacity" : "1",
						"d" : "M 97.05 29.3 l -3.65 1.55 l 0.7 1.9 l 4.05 -1.65 l 0 -0.65 l -1.1 -1.15 ",
						"pathType" : "Fill",
						"stroke" : "none"
					}
				]
			},
			{
				"charid" : "29",
				"path" : [
					{
						"color" : "#ffffff",
						"colorOpacity" : "1",
						"d" : "M 6.25 66 l -4.45 2 l 0 1.5 l 0.6 0.5 l 3.85 -1.75 l 0 -2.25 ",
						"pathType" : "Fill",
						"stroke" : "none"
					}
				]
			},
			{
				"charid" : "25",
				"path" : [
					{
						"color" : "#ffffff",
						"colorOpacity" : "1",
						"d" : "M 96.75 29.3 l -6.45 2.7 l 0.5 2.05 l 7.05 -2.95 l 0 -0.65 l -1.1 -1.15 ",
						"pathType" : "Fill",
						"stroke" : "none"
					}
				]
			},
			{
				"charid" : "30",
				"path" : [
					{
						"color" : "#ffffff",
						"colorOpacity" : "1",
						"d" : "M 9.6 64.8 l -7.5 3.2 l 0 1.5 l 0.6 0.5 l 6.9 -2.95 l 0 -2.25 ",
						"pathType" : "Fill",
						"stroke" : "none"
					}
				]
			},
			{
				"charid" : "26",
				"path" : [
					{
						"color" : "#ffffff",
						"colorOpacity" : "1",
						"d" : "M 96.45 29.3 l -9.25 3.85 l 0.25 2.15 l 10.1 -4.2 l 0 -0.65 l -1.1 -1.15 ",
						"pathType" : "Fill",
						"stroke" : "none"
					}
				]
			},
			{
				"charid" : "31",
				"path" : [
					{
						"color" : "#ffffff",
						"colorOpacity" : "1",
						"d" : "M 13 63.55 l -10.6 4.45 l 0 1.5 l 0.6 0.5 l 10 -4.2 l 0 -2.25 ",
						"pathType" : "Fill",
						"stroke" : "none"
					}
				]
			},
			{
				"charid" : "32",
				"path" : [
					{
						"color" : "#ffffff",
						"colorOpacity" : "1",
						"d" : "M 16.35 62.35 l -13.65 5.65 l 0 1.5 l 0.6 0.5 l 13.05 -5.4 l 0 -2.25 ",
						"pathType" : "Fill",
						"stroke" : "none"
					}
				]
			}
		],
		"Bitmaps" : [],
		"Sounds" : [],
		"Text" : [],
		"Timeline" : [
			{
				"charid" : "80",
				"frameCount" : "150",
				"Frame" : [
					{
						"num" : "0",
						"Command" : [
							{
								"cmdType" : "Place",
								"charid" : "45",
								"objectId" : "1",
								"placeAfter" : "0",
								"transformMatrix" : "0.148,0,0,0.22,-13,53.3"
							}
						]
					},
					{
						"num" : "1",
						"Command" : [
							{
								"cmdType" : "Remove",
								"objectId" : "1"
							},
							{
								"cmdType" : "Place",
								"charid" : "75",
								"objectId" : "2",
								"placeAfter" : "0",
								"transformMatrix" : "1,0,0,1,0,0"
							}
						]
					},
					{
						"num" : "2",
						"Command" : [
							{
								"cmdType" : "Remove",
								"objectId" : "2"
							},
							{
								"cmdType" : "Place",
								"charid" : "76",
								"objectId" : "3",
								"placeAfter" : "0",
								"transformMatrix" : "1,0,0,1,0,0"
							}
						]
					},
					{
						"num" : "3",
						"Command" : [
							{
								"cmdType" : "Remove",
								"objectId" : "3"
							},
							{
								"cmdType" : "Place",
								"charid" : "77",
								"objectId" : "4",
								"placeAfter" : "0",
								"transformMatrix" : "1,0,0,1,0,0"
							}
						]
					},
					{
						"num" : "4",
						"Command" : [
							{
								"cmdType" : "Remove",
								"objectId" : "4"
							},
							{
								"cmdType" : "Place",
								"charid" : "34",
								"objectId" : "5",
								"placeAfter" : "0",
								"transformMatrix" : "1,0,0,1,0,0"
							},
							{
								"cmdType" : "Place",
								"charid" : "69",
								"objectId" : "6",
								"placeAfter" : "5",
								"transformMatrix" : "1,0,0,1,0,0"
							},
							{
								"cmdType" : "Place",
								"charid" : "78",
								"objectId" : "7",
								"placeAfter" : "6",
								"transformMatrix" : "1,0,0,1,0,0"
							}
						]
					},
					{
						"num" : "5",
						"Command" : [
							{
								"cmdType" : "Remove",
								"objectId" : "6"
							},
							{
								"cmdType" : "Remove",
								"objectId" : "5"
							},
							{
								"cmdType" : "Place",
								"charid" : "35",
								"objectId" : "8",
								"placeAfter" : "0",
								"transformMatrix" : "1,0,0,1,0,0"
							},
							{
								"cmdType" : "Place",
								"charid" : "70",
								"objectId" : "9",
								"placeAfter" : "8",
								"transformMatrix" : "1,0,0,1,0,0"
							}
						]
					},
					{
						"num" : "6",
						"Command" : [
							{
								"cmdType" : "Remove",
								"objectId" : "9"
							},
							{
								"cmdType" : "Remove",
								"objectId" : "8"
							},
							{
								"cmdType" : "Place",
								"charid" : "36",
								"objectId" : "10",
								"placeAfter" : "0",
								"transformMatrix" : "1,0,0,1,0,0"
							},
							{
								"cmdType" : "Place",
								"charid" : "71",
								"objectId" : "11",
								"placeAfter" : "10",
								"transformMatrix" : "1,0,0,1,0,0"
							}
						]
					},
					{
						"num" : "7",
						"Command" : [
							{
								"cmdType" : "Remove",
								"objectId" : "11"
							},
							{
								"cmdType" : "Remove",
								"objectId" : "10"
							},
							{
								"cmdType" : "Place",
								"charid" : "37",
								"objectId" : "12",
								"placeAfter" : "0",
								"transformMatrix" : "1,0,0,1,0,0"
							},
							{
								"cmdType" : "Place",
								"charid" : "72",
								"objectId" : "13",
								"placeAfter" : "12",
								"transformMatrix" : "1,0,0,1,0,0"
							}
						]
					},
					{
						"num" : "8",
						"Command" : [
							{
								"cmdType" : "Remove",
								"objectId" : "13"
							},
							{
								"cmdType" : "Remove",
								"objectId" : "12"
							},
							{
								"cmdType" : "Place",
								"charid" : "38",
								"objectId" : "14",
								"placeAfter" : "0",
								"transformMatrix" : "1,0,0,1,0,0"
							},
							{
								"cmdType" : "Place",
								"charid" : "39",
								"objectId" : "15",
								"placeAfter" : "14",
								"transformMatrix" : "1,0,0,1,0,0"
							},
							{
								"cmdType" : "Place",
								"charid" : "64",
								"objectId" : "16",
								"placeAfter" : "15",
								"transformMatrix" : "1,0,0,1,0,0"
							},
							{
								"cmdType" : "Place",
								"charid" : "73",
								"objectId" : "17",
								"placeAfter" : "16",
								"transformMatrix" : "1,0,0,1,0,0"
							}
						]
					},
					{
						"num" : "9",
						"Command" : [
							{
								"cmdType" : "Remove",
								"objectId" : "16"
							},
							{
								"cmdType" : "Remove",
								"objectId" : "15"
							},
							{
								"cmdType" : "Place",
								"charid" : "40",
								"objectId" : "18",
								"placeAfter" : "14",
								"transformMatrix" : "1,0,0,1,0,0"
							},
							{
								"cmdType" : "Place",
								"charid" : "65",
								"objectId" : "19",
								"placeAfter" : "18",
								"transformMatrix" : "1,0,0,1,0,0"
							}
						]
					},
					{
						"num" : "10",
						"Command" : [
							{
								"cmdType" : "Remove",
								"objectId" : "19"
							},
							{
								"cmdType" : "Remove",
								"objectId" : "18"
							},
							{
								"cmdType" : "Place",
								"charid" : "41",
								"objectId" : "20",
								"placeAfter" : "14",
								"transformMatrix" : "1,0,0,1,0,0"
							},
							{
								"cmdType" : "Place",
								"charid" : "66",
								"objectId" : "21",
								"placeAfter" : "20",
								"transformMatrix" : "1,0,0,1,0,0"
							}
						]
					},
					{
						"num" : "11",
						"Command" : [
							{
								"cmdType" : "Remove",
								"objectId" : "21"
							},
							{
								"cmdType" : "Move",
								"objectId" : "20",
								"transformMatrix" : "1,0,0,1.465,0,-9.4"
							},
							{
								"cmdType" : "Place",
								"charid" : "67",
								"objectId" : "22",
								"placeAfter" : "20",
								"transformMatrix" : "1,0,0,1,0,0"
							}
						]
					},
					{
						"num" : "12",
						"Command" : [
							{
								"cmdType" : "Remove",
								"objectId" : "20"
							},
							{
								"cmdType" : "Place",
								"charid" : "43",
								"objectId" : "23",
								"placeAfter" : "14",
								"transformMatrix" : "1,0,0,1,0,0"
							},
							{
								"cmdType" : "Place",
								"charid" : "44",
								"objectId" : "24",
								"placeAfter" : "23",
								"transformMatrix" : "1,0,0,1,0,0"
							},
							{
								"cmdType" : "Place",
								"charid" : "59",
								"objectId" : "25",
								"placeAfter" : "24",
								"transformMatrix" : "1,0,0,1,0,0"
							},
							{
								"cmdType" : "UpdateZOrder",
								"objectId" : "22",
								"placeAfter" : "25"
							},
							{
								"cmdType" : "Move",
								"objectId" : "22",
								"transformMatrix" : "1,0,0,1.322,0,-6.55"
							}
						]
					},
					{
						"num" : "13",
						"Command" : [
							{
								"cmdType" : "Remove",
								"objectId" : "25"
							},
							{
								"cmdType" : "Remove",
								"objectId" : "24"
							},
							{
								"cmdType" : "Place",
								"charid" : "45",
								"objectId" : "26",
								"placeAfter" : "23",
								"transformMatrix" : "1,0,0,1,0,0"
							},
							{
								"cmdType" : "Place",
								"charid" : "60",
								"objectId" : "27",
								"placeAfter" : "26",
								"transformMatrix" : "1,0,0,1,0,0"
							}
						]
					},
					{
						"num" : "14",
						"Command" : [
							{
								"cmdType" : "Remove",
								"objectId" : "27"
							},
							{
								"cmdType" : "Remove",
								"objectId" : "26"
							},
							{
								"cmdType" : "Place",
								"charid" : "46",
								"objectId" : "28",
								"placeAfter" : "23",
								"transformMatrix" : "1,0,0,1,0,0"
							},
							{
								"cmdType" : "Place",
								"charid" : "61",
								"objectId" : "29",
								"placeAfter" : "28",
								"transformMatrix" : "1,0,0,1,0,0"
							}
						]
					},
					{
						"num" : "15",
						"Command" : [
							{
								"cmdType" : "Remove",
								"objectId" : "29"
							},
							{
								"cmdType" : "Remove",
								"objectId" : "28"
							},
							{
								"cmdType" : "Place",
								"charid" : "47",
								"objectId" : "30",
								"placeAfter" : "23",
								"transformMatrix" : "1,0,0,1,0,0"
							},
							{
								"cmdType" : "Place",
								"charid" : "62",
								"objectId" : "31",
								"placeAfter" : "30",
								"transformMatrix" : "1,0,0,1,0,0"
							}
						]
					},
					{
						"num" : "16",
						"Command" : [
							{
								"cmdType" : "Remove",
								"objectId" : "31"
							},
							{
								"cmdType" : "Remove",
								"objectId" : "30"
							},
							{
								"cmdType" : "Place",
								"charid" : "48",
								"objectId" : "32",
								"placeAfter" : "23",
								"transformMatrix" : "1,0,0,1,0,0"
							},
							{
								"cmdType" : "Place",
								"charid" : "49",
								"objectId" : "33",
								"placeAfter" : "32",
								"transformMatrix" : "1,0,0,1,0,0"
							},
							{
								"cmdType" : "Place",
								"charid" : "54",
								"objectId" : "34",
								"placeAfter" : "33",
								"transformMatrix" : "1,0,0,1,0,0"
							},
							{
								"cmdType" : "Place",
								"charid" : "63",
								"objectId" : "35",
								"placeAfter" : "34",
								"transformMatrix" : "1,0,0,1,0,0"
							}
						]
					},
					{
						"num" : "17",
						"Command" : [
							{
								"cmdType" : "Remove",
								"objectId" : "34"
							},
							{
								"cmdType" : "Remove",
								"objectId" : "33"
							},
							{
								"cmdType" : "Place",
								"charid" : "50",
								"objectId" : "36",
								"placeAfter" : "32",
								"transformMatrix" : "1,0,0,1,0,0"
							},
							{
								"cmdType" : "Place",
								"charid" : "55",
								"objectId" : "37",
								"placeAfter" : "36",
								"transformMatrix" : "1,0,0,1,0,0"
							}
						]
					},
					{
						"num" : "18",
						"Command" : [
							{
								"cmdType" : "Remove",
								"objectId" : "37"
							},
							{
								"cmdType" : "Remove",
								"objectId" : "36"
							},
							{
								"cmdType" : "Place",
								"charid" : "51",
								"objectId" : "38",
								"placeAfter" : "32",
								"transformMatrix" : "1,0,0,1,0,0"
							},
							{
								"cmdType" : "Place",
								"charid" : "56",
								"objectId" : "39",
								"placeAfter" : "38",
								"transformMatrix" : "1,0,0,1,0,0"
							}
						]
					},
					{
						"num" : "19",
						"Command" : [
							{
								"cmdType" : "Move",
								"objectId" : "38",
								"transformMatrix" : "1.439,0,0,1,8.85,0"
							},
							{
								"cmdType" : "Move",
								"objectId" : "39",
								"transformMatrix" : "1.42,0,0,1,-8.55,0"
							}
						]
					},
					{
						"num" : "20",
						"Command" : [
							{
								"cmdType" : "Remove",
								"objectId" : "39"
							},
							{
								"cmdType" : "Remove",
								"objectId" : "38"
							},
							{
								"cmdType" : "Place",
								"charid" : "53",
								"objectId" : "40",
								"placeAfter" : "32",
								"transformMatrix" : "1,0,0,1,0,0"
							},
							{
								"cmdType" : "Place",
								"charid" : "58",
								"objectId" : "41",
								"placeAfter" : "40",
								"transformMatrix" : "1,0,0,1,0,0"
							}
						]
					},
					{
						"num" : "81",
						"Command" : [
							{
								"cmdType" : "Place",
								"charid" : "33",
								"objectId" : "42",
								"placeAfter" : "0",
								"transformMatrix" : "1,0,0,1,0,0"
							}
						]
					}
				]
			},
			{
				"charid" : "22",
				"frameCount" : "1",
				"name" : "txt",
				"Frame" : [
					{
						"num" : "0",
						"Command" : [
							{
								"cmdType" : "Place",
								"charid" : "1",
								"objectId" : "1",
								"placeAfter" : "0",
								"transformMatrix" : "1,0,0,1,-753.4,-547.7"
							},
							{
								"cmdType" : "Place",
								"charid" : "2",
								"objectId" : "2",
								"placeAfter" : "1",
								"transformMatrix" : "1,0,0,1,-753.4,-547.7"
							},
							{
								"cmdType" : "Place",
								"charid" : "3",
								"objectId" : "3",
								"placeAfter" : "2",
								"transformMatrix" : "1,0,0,1,-753.4,-547.7"
							},
							{
								"cmdType" : "Place",
								"charid" : "1",
								"objectId" : "4",
								"placeAfter" : "3",
								"transformMatrix" : "1.01,0,0,1,-781.9,-547.7"
							},
							{
								"cmdType" : "Place",
								"charid" : "5",
								"objectId" : "5",
								"placeAfter" : "4",
								"transformMatrix" : "1,0,0,1,-753.4,-547.7"
							},
							{
								"cmdType" : "Place",
								"charid" : "6",
								"objectId" : "6",
								"placeAfter" : "5",
								"transformMatrix" : "1,0,0,1,-753.4,-547.7"
							},
							{
								"cmdType" : "Place",
								"charid" : "7",
								"objectId" : "7",
								"placeAfter" : "6",
								"transformMatrix" : "1,0,0,1,-753.4,-547.7"
							},
							{
								"cmdType" : "Place",
								"charid" : "8",
								"objectId" : "8",
								"placeAfter" : "7",
								"transformMatrix" : "1,0,0,1,-753.4,-547.7"
							},
							{
								"cmdType" : "Place",
								"charid" : "9",
								"objectId" : "9",
								"placeAfter" : "8",
								"transformMatrix" : "1,0,0,1,-753.4,-547.7"
							},
							{
								"cmdType" : "Place",
								"charid" : "10",
								"objectId" : "10",
								"placeAfter" : "9",
								"transformMatrix" : "1,0,0,1,-753.4,-547.7"
							},
							{
								"cmdType" : "Place",
								"charid" : "11",
								"objectId" : "11",
								"placeAfter" : "10",
								"transformMatrix" : "1,0,0,1,-753.4,-547.7"
							},
							{
								"cmdType" : "Place",
								"charid" : "9",
								"objectId" : "12",
								"placeAfter" : "11",
								"transformMatrix" : "1.293,0,0,1.303,-924.7,-695.45"
							},
							{
								"cmdType" : "Place",
								"charid" : "5",
								"objectId" : "13",
								"placeAfter" : "12",
								"transformMatrix" : "1.3,0,0,1.303,-970.65,-695.45"
							},
							{
								"cmdType" : "Place",
								"charid" : "2",
								"objectId" : "14",
								"placeAfter" : "13",
								"transformMatrix" : "1.293,0,0,1.303,-1000.7,-695.45"
							},
							{
								"cmdType" : "Place",
								"charid" : "15",
								"objectId" : "15",
								"placeAfter" : "14",
								"transformMatrix" : "1,0,0,1,-753.4,-547.7"
							},
							{
								"cmdType" : "Place",
								"charid" : "1",
								"objectId" : "16",
								"placeAfter" : "15",
								"transformMatrix" : "1.304,0,0,1.301,-1034.95,-694.75"
							},
							{
								"cmdType" : "Place",
								"charid" : "2",
								"objectId" : "17",
								"placeAfter" : "16",
								"transformMatrix" : "1.293,0,0,1.303,-1026.75,-695.45"
							},
							{
								"cmdType" : "Place",
								"charid" : "18",
								"objectId" : "18",
								"placeAfter" : "17",
								"transformMatrix" : "1,0,0,1,-753.4,-547.7"
							},
							{
								"cmdType" : "Place",
								"charid" : "3",
								"objectId" : "19",
								"placeAfter" : "18",
								"transformMatrix" : "3.19,0,0,3.204,-2431.85,-1678.85"
							},
							{
								"cmdType" : "Place",
								"charid" : "1",
								"objectId" : "20",
								"placeAfter" : "19",
								"transformMatrix" : "3.225,0,0,3.199,-2527.3,-1675.9"
							},
							{
								"cmdType" : "Place",
								"charid" : "6",
								"objectId" : "21",
								"placeAfter" : "20",
								"transformMatrix" : "3.18,0,0,3.204,-2400,-1678.85"
							}
						]
					}
				]
			},
			{
				"frameCount" : "150",
				"Frame" : [
					{
						"num" : "0",
						"Command" : [
							{
								"cmdType" : "Place",
								"charid" : "80",
								"objectId" : "1",
								"placeAfter" : "0",
								"transformMatrix" : "1,0,0,1,50,50"
							},
							{
								"cmdType" : "UpdateColorTransform",
								"objectId" : "1",
								"colorMatrix" : "1,0,1,0,1,0,1,0,"
							}
						]
					},
					{
						"num" : "12",
						"Command" : [
							{
								"cmdType" : "Place",
								"charid" : "23",
								"objectId" : "2",
								"placeAfter" : "0",
								"transformMatrix" : "1,0,0,1,0,0"
							},
							{
								"cmdType" : "Place",
								"charid" : "28",
								"objectId" : "3",
								"placeAfter" : "2",
								"transformMatrix" : "1,0,0,1,0,0"
							}
						]
					},
					{
						"num" : "13",
						"Command" : [
							{
								"cmdType" : "Remove",
								"objectId" : "3"
							},
							{
								"cmdType" : "Remove",
								"objectId" : "2"
							},
							{
								"cmdType" : "Place",
								"charid" : "22",
								"objectId" : "4",
								"placeAfter" : "0",
								"transformMatrix" : "0.05,0,0,0.05,49.95,49.95"
							},
							{
								"cmdType" : "UpdateColorTransform",
								"objectId" : "4",
								"colorMatrix" : "1,0,1,0,1,0,1,0,"
							},
							{
								"cmdType" : "UpdateVisibility",
								"objectId" : "4",
								"visibility" : "true"
							},
							{
								"cmdType" : "UpdateBlendMode",
								"objectId" : "4",
								"blendMode" : "Normal"
							},
							{
								"cmdType" : "Place",
								"charid" : "24",
								"objectId" : "5",
								"placeAfter" : "4",
								"transformMatrix" : "1,0,0,1,0,0"
							},
							{
								"cmdType" : "Place",
								"charid" : "29",
								"objectId" : "6",
								"placeAfter" : "5",
								"transformMatrix" : "1,0,0,1,0,0"
							}
						]
					},
					{
						"num" : "14",
						"Command" : [
							{
								"cmdType" : "Remove",
								"objectId" : "6"
							},
							{
								"cmdType" : "Remove",
								"objectId" : "5"
							},
							{
								"cmdType" : "Move",
								"objectId" : "4",
								"transformMatrix" : "0.09,0,0,0.09,49.912,49.912"
							},
							{
								"cmdType" : "Place",
								"charid" : "25",
								"objectId" : "7",
								"placeAfter" : "4",
								"transformMatrix" : "1,0,0,1,0,0"
							},
							{
								"cmdType" : "Place",
								"charid" : "30",
								"objectId" : "8",
								"placeAfter" : "7",
								"transformMatrix" : "1,0,0,1,0,0"
							}
						]
					},
					{
						"num" : "15",
						"Command" : [
							{
								"cmdType" : "Remove",
								"objectId" : "8"
							},
							{
								"cmdType" : "Remove",
								"objectId" : "7"
							},
							{
								"cmdType" : "Move",
								"objectId" : "4",
								"transformMatrix" : "0.21,0,0,0.21,49.817,49.817"
							},
							{
								"cmdType" : "Place",
								"charid" : "26",
								"objectId" : "9",
								"placeAfter" : "4",
								"transformMatrix" : "1,0,0,1,0,0"
							},
							{
								"cmdType" : "Place",
								"charid" : "31",
								"objectId" : "10",
								"placeAfter" : "9",
								"transformMatrix" : "1,0,0,1,0,0"
							}
						]
					},
					{
						"num" : "16",
						"Command" : [
							{
								"cmdType" : "Remove",
								"objectId" : "10"
							},
							{
								"cmdType" : "Move",
								"objectId" : "4",
								"transformMatrix" : "0.41,0,0,0.41,49.628,49.628"
							},
							{
								"cmdType" : "Move",
								"objectId" : "9",
								"transformMatrix" : "1.271,0,0,1.208,-26.7,-6.1"
							},
							{
								"cmdType" : "Place",
								"charid" : "32",
								"objectId" : "11",
								"placeAfter" : "9",
								"transformMatrix" : "1,0,0,1,0,0"
							}
						]
					},
					{
						"num" : "17",
						"Command" : [
							{
								"cmdType" : "Move",
								"objectId" : "4",
								"transformMatrix" : "0.69,0,0,0.69,49.315,49.315"
							}
						]
					},
					{
						"num" : "18",
						"Command" : [
							{
								"cmdType" : "Move",
								"objectId" : "4",
								"transformMatrix" : "1.05,0,0,1.05,49.95,49.95"
							}
						]
					},
					{
						"num" : "19",
						"Command" : [
							{
								"cmdType" : "Move",
								"objectId" : "4",
								"transformMatrix" : "1.022,0,0,1.022,49.978,49.978"
							}
						]
					},
					{
						"num" : "20",
						"Command" : [
							{
								"cmdType" : "Move",
								"objectId" : "4",
								"transformMatrix" : "1.006,0,0,1.006,49.985,49.985"
							}
						]
					},
					{
						"num" : "21",
						"Command" : [
							{
								"cmdType" : "Move",
								"objectId" : "4",
								"transformMatrix" : "1,0,0,1,50,50"
							}
						]
					}
				]
			}
		]
	}
}